,season,round,cirquit,position,driver,driver_no,constructor,q1,q2,q3,secs_q1,secs_q2,secs_q3
0,2020,7,Circuit de Spa-Francorchamps,1,HAM,44,Mercedes,1:42.323,1:42.014,1:41.252,102.323,102.014,101.252
1,2020,7,Circuit de Spa-Francorchamps,2,BOT,77,Mercedes,1:42.534,1:42.126,1:41.763,102.534,102.126,101.763
2,2020,7,Circuit de Spa-Francorchamps,3,VER,33,Red Bull,1:43.197,1:42.473,1:41.778,103.197,102.473,101.778
3,2020,7,Circuit de Spa-Francorchamps,4,RIC,3,Renault,1:43.309,1:42.487,1:42.061,103.309,102.487,102.061
4,2020,7,Circuit de Spa-Francorchamps,5,ALB,23,Red Bull,1:43.418,1:42.193,1:42.264,103.418,102.193,102.264
5,2020,7,Circuit de Spa-Francorchamps,6,OCO,31,Renault,1:43.505,1:42.534,1:42.396,103.505,102.534,102.396
6,2020,7,Circuit de Spa-Francorchamps,7,SAI,55,McLaren,1:43.322,1:42.478,1:42.438,103.322,102.478,102.438
7,2020,7,Circuit de Spa-Francorchamps,8,PER,11,Racing Point,1:43.349,1:42.670,1:42.532,103.349,102.67,102.532
8,2020,7,Circuit de Spa-Francorchamps,9,STR,18,Racing Point,1:43.265,1:42.491,1:42.603,103.265,102.491,102.603
9,2020,7,Circuit de Spa-Francorchamps,10,NOR,4,McLaren,1:43.514,1:42.722,1:42.657,103.514,102.722,102.657
10,2020,7,Circuit de Spa-Francorchamps,11,KVY,26,AlphaTauri,1:43.267,1:42.730,,103.267,102.73,
11,2020,7,Circuit de Spa-Francorchamps,12,GAS,10,AlphaTauri,1:43.262,1:42.745,,103.262,102.745,
12,2020,7,Circuit de Spa-Francorchamps,13,LEC,16,Ferrari,1:43.656,1:42.996,,103.656,102.996,
13,2020,7,Circuit de Spa-Francorchamps,14,VET,5,Ferrari,1:43.567,1:43.261,,103.567,103.261,
14,2020,7,Circuit de Spa-Francorchamps,15,RUS,63,Williams,1:43.630,1:43.468,,103.63,103.468,
15,2020,7,Circuit de Spa-Francorchamps,16,RAI,7,Alfa Romeo,1:43.743,,,103.743,,
16,2020,7,Circuit de Spa-Francorchamps,17,GRO,8,Haas F1 Team,1:43.838,,,103.838,,
17,2020,7,Circuit de Spa-Francorchamps,18,GIO,99,Alfa Romeo,1:43.950,,,103.95,,
18,2020,7,Circuit de Spa-Francorchamps,19,LAT,6,Williams,1:44.138,,,104.138,,
19,2020,7,Circuit de Spa-Francorchamps,20,MAG,20,Haas F1 Team,1:44.314,,,104.314,,
