,season,round,cirquit,position,driver,driver_no,constructor,q1,q2,q3,secs_q1,secs_q2,secs_q3
0,2020,9,Autodromo Internazionale del Mugello,1,HAM,44,Mercedes,1:15.778,1:15.309,1:15.144,75.778,75.309,75.144
1,2020,9,Autodromo Internazionale del Mugello,2,BOT,77,Mercedes,1:15.749,1:15.322,1:15.203,75.749,75.322,75.203
2,2020,9,Autodromo Internazionale del Mugello,3,VER,33,Red Bull,1:16.335,1:15.471,1:15.509,76.335,75.471,75.509
3,2020,9,Autodromo Internazionale del Mugello,4,ALB,23,Red Bull,1:16.527,1:15.914,1:15.954,76.527,75.914,75.954
4,2020,9,Autodromo Internazionale del Mugello,5,LEC,16,Ferrari,1:16.698,1:16.324,1:16.270,76.698,76.324,76.27
5,2020,9,Autodromo Internazionale del Mugello,6,PER,11,Racing Point,1:16.596,1:16.489,1:16.311,76.596,76.489,76.311
6,2020,9,Autodromo Internazionale del Mugello,7,STR,18,Racing Point,1:16.701,1:16.271,1:16.356,76.701,76.271,76.356
7,2020,9,Autodromo Internazionale del Mugello,8,RIC,3,Renault,1:16.981,1:16.243,1:16.543,76.981,76.243,76.543
8,2020,9,Autodromo Internazionale del Mugello,9,SAI,55,McLaren,1:16.993,1:16.522,1:17.870,76.993,76.522,77.87
9,2020,9,Autodromo Internazionale del Mugello,10,OCO,31,Renault,1:16.825,1:16.297,,76.825,76.297,
10,2020,9,Autodromo Internazionale del Mugello,11,NOR,4,McLaren,1:16.895,1:16.640,,76.895,76.64,
11,2020,9,Autodromo Internazionale del Mugello,12,KVY,26,AlphaTauri,1:16.928,1:16.854,,76.928,76.854,
12,2020,9,Autodromo Internazionale del Mugello,13,RAI,7,Alfa Romeo,1:17.059,1:16.854,,77.059,76.854,
13,2020,9,Autodromo Internazionale del Mugello,14,VET,5,Ferrari,1:17.072,1:16.858,,77.072,76.858,
14,2020,9,Autodromo Internazionale del Mugello,15,GRO,8,Haas F1 Team,1:17.069,1:17.254,,77.069,77.254,
15,2020,9,Autodromo Internazionale del Mugello,16,GAS,10,AlphaTauri,1:17.125,,,77.125,,
16,2020,9,Autodromo Internazionale del Mugello,17,GIO,99,Alfa Romeo,1:17.220,,,77.22,,
17,2020,9,Autodromo Internazionale del Mugello,18,RUS,63,Williams,1:17.232,,,77.232,,
18,2020,9,Autodromo Internazionale del Mugello,19,LAT,6,Williams,1:17.320,,,77.32,,
19,2020,9,Autodromo Internazionale del Mugello,20,MAG,20,Haas F1 Team,1:17.348,,,77.348,,
