,time,position,lap,code,year,circuitId,name,secs
0,1:44.139,8,12,BOT,2019,24,Yas Marina Circuit,104.139
1,1:44.369,1,1,HAM,2019,24,Yas Marina Circuit,104.369
2,1:42.740,1,2,HAM,2019,24,Yas Marina Circuit,102.74
3,1:42.503,1,3,HAM,2019,24,Yas Marina Circuit,102.503
4,1:42.916,1,4,HAM,2019,24,Yas Marina Circuit,102.916
5,1:43.130,1,5,HAM,2019,24,Yas Marina Circuit,103.13
6,1:42.858,1,6,HAM,2019,24,Yas Marina Circuit,102.858
7,1:42.881,1,7,HAM,2019,24,Yas Marina Circuit,102.881
8,1:42.733,1,8,HAM,2019,24,Yas Marina Circuit,102.733
9,1:42.874,1,9,HAM,2019,24,Yas Marina Circuit,102.874
10,1:42.907,1,10,HAM,2019,24,Yas Marina Circuit,102.907
11,1:42.779,1,11,HAM,2019,24,Yas Marina Circuit,102.779
12,1:43.067,1,12,HAM,2019,24,Yas Marina Circuit,103.067
13,1:42.620,1,13,HAM,2019,24,Yas Marina Circuit,102.62
14,1:42.535,1,14,HAM,2019,24,Yas Marina Circuit,102.535
15,1:42.444,1,15,HAM,2019,24,Yas Marina Circuit,102.444
16,1:42.292,1,16,HAM,2019,24,Yas Marina Circuit,102.292
17,1:42.474,1,17,HAM,2019,24,Yas Marina Circuit,102.474
18,1:42.410,1,18,HAM,2019,24,Yas Marina Circuit,102.41
19,1:42.229,1,19,HAM,2019,24,Yas Marina Circuit,102.229
20,1:42.657,1,20,HAM,2019,24,Yas Marina Circuit,102.657
21,1:43.680,1,21,HAM,2019,24,Yas Marina Circuit,103.68
22,1:42.806,1,22,HAM,2019,24,Yas Marina Circuit,102.806
23,1:43.778,1,23,HAM,2019,24,Yas Marina Circuit,103.778
24,1:43.039,1,24,HAM,2019,24,Yas Marina Circuit,103.039
25,1:43.121,1,25,HAM,2019,24,Yas Marina Circuit,103.121
26,1:44.822,1,26,HAM,2019,24,Yas Marina Circuit,104.822
27,2:02.843,1,27,HAM,2019,24,Yas Marina Circuit,122.843
28,1:41.070,1,28,HAM,2019,24,Yas Marina Circuit,101.07
29,1:41.744,1,29,HAM,2019,24,Yas Marina Circuit,101.744
30,1:41.709,1,30,HAM,2019,24,Yas Marina Circuit,101.709
31,1:41.569,1,31,HAM,2019,24,Yas Marina Circuit,101.569
32,1:41.450,1,32,HAM,2019,24,Yas Marina Circuit,101.45
33,1:41.581,1,33,HAM,2019,24,Yas Marina Circuit,101.581
34,1:42.306,1,34,HAM,2019,24,Yas Marina Circuit,102.306
35,1:41.845,1,35,HAM,2019,24,Yas Marina Circuit,101.845
36,1:42.015,1,36,HAM,2019,24,Yas Marina Circuit,102.015
37,1:42.024,1,37,HAM,2019,24,Yas Marina Circuit,102.024
38,1:42.941,1,38,HAM,2019,24,Yas Marina Circuit,102.941
39,1:41.580,1,39,HAM,2019,24,Yas Marina Circuit,101.58
40,1:41.636,1,40,HAM,2019,24,Yas Marina Circuit,101.636
41,1:41.976,1,41,HAM,2019,24,Yas Marina Circuit,101.976
42,1:42.153,1,42,HAM,2019,24,Yas Marina Circuit,102.153
43,1:41.305,1,43,HAM,2019,24,Yas Marina Circuit,101.305
44,1:41.219,1,44,HAM,2019,24,Yas Marina Circuit,101.219
45,1:40.008,1,45,HAM,2019,24,Yas Marina Circuit,100.008
46,1:41.653,1,46,HAM,2019,24,Yas Marina Circuit,101.653
47,1:41.525,1,47,HAM,2019,24,Yas Marina Circuit,101.525
48,1:41.507,1,48,HAM,2019,24,Yas Marina Circuit,101.507
49,1:41.548,1,49,HAM,2019,24,Yas Marina Circuit,101.548
50,1:41.625,1,50,HAM,2019,24,Yas Marina Circuit,101.625
51,1:41.969,1,51,HAM,2019,24,Yas Marina Circuit,101.969
52,1:42.093,1,52,HAM,2019,24,Yas Marina Circuit,102.093
53,1:39.283,1,53,HAM,2019,24,Yas Marina Circuit,99.283
54,1:42.008,1,54,HAM,2019,24,Yas Marina Circuit,102.008
55,1:42.866,1,55,HAM,2019,24,Yas Marina Circuit,102.866
56,1:46.050,2,1,LEC,2019,24,Yas Marina Circuit,106.05
57,1:43.061,2,2,LEC,2019,24,Yas Marina Circuit,103.061
58,1:43.272,2,3,LEC,2019,24,Yas Marina Circuit,103.272
59,1:43.155,2,4,LEC,2019,24,Yas Marina Circuit,103.155
60,1:43.501,2,5,LEC,2019,24,Yas Marina Circuit,103.501
61,1:43.764,2,6,LEC,2019,24,Yas Marina Circuit,103.764
62,1:43.320,2,7,LEC,2019,24,Yas Marina Circuit,103.32
63,1:43.172,2,8,LEC,2019,24,Yas Marina Circuit,103.172
64,1:43.109,2,9,LEC,2019,24,Yas Marina Circuit,103.109
65,1:43.353,2,10,LEC,2019,24,Yas Marina Circuit,103.353
66,1:43.315,2,11,LEC,2019,24,Yas Marina Circuit,103.315
67,1:45.143,2,12,LEC,2019,24,Yas Marina Circuit,105.143
68,2:03.596,4,13,LEC,2019,24,Yas Marina Circuit,123.596
69,1:41.938,3,14,LEC,2019,24,Yas Marina Circuit,101.938
70,1:41.997,3,15,LEC,2019,24,Yas Marina Circuit,101.997
71,1:42.208,3,16,LEC,2019,24,Yas Marina Circuit,102.208
72,1:43.395,3,17,LEC,2019,24,Yas Marina Circuit,103.395
73,1:42.973,3,18,LEC,2019,24,Yas Marina Circuit,102.973
74,1:42.758,3,19,LEC,2019,24,Yas Marina Circuit,102.758
75,1:42.998,3,20,LEC,2019,24,Yas Marina Circuit,102.998
76,1:42.794,3,21,LEC,2019,24,Yas Marina Circuit,102.794
77,1:43.117,3,22,LEC,2019,24,Yas Marina Circuit,103.117
78,1:42.914,3,23,LEC,2019,24,Yas Marina Circuit,102.914
79,1:42.951,3,24,LEC,2019,24,Yas Marina Circuit,102.951
80,1:43.443,3,25,LEC,2019,24,Yas Marina Circuit,103.443
81,1:42.824,2,26,LEC,2019,24,Yas Marina Circuit,102.824
82,1:42.852,2,27,LEC,2019,24,Yas Marina Circuit,102.852
83,1:43.172,2,28,LEC,2019,24,Yas Marina Circuit,103.172
84,1:42.773,2,29,LEC,2019,24,Yas Marina Circuit,102.773
85,1:42.888,2,30,LEC,2019,24,Yas Marina Circuit,102.888
86,1:43.120,2,31,LEC,2019,24,Yas Marina Circuit,103.12
87,1:44.968,3,32,LEC,2019,24,Yas Marina Circuit,104.968
88,1:43.466,3,33,LEC,2019,24,Yas Marina Circuit,103.466
89,1:42.970,3,34,LEC,2019,24,Yas Marina Circuit,102.97
90,1:42.759,3,35,LEC,2019,24,Yas Marina Circuit,102.759
91,1:43.052,3,36,LEC,2019,24,Yas Marina Circuit,103.052
92,1:43.459,3,37,LEC,2019,24,Yas Marina Circuit,103.459
93,1:44.980,3,38,LEC,2019,24,Yas Marina Circuit,104.98
94,2:00.803,3,39,LEC,2019,24,Yas Marina Circuit,120.803
95,1:40.514,3,40,LEC,2019,24,Yas Marina Circuit,100.514
96,1:41.022,3,41,LEC,2019,24,Yas Marina Circuit,101.022
97,1:40.999,3,42,LEC,2019,24,Yas Marina Circuit,100.999
98,1:40.751,3,43,LEC,2019,24,Yas Marina Circuit,100.751
99,1:40.442,3,44,LEC,2019,24,Yas Marina Circuit,100.442
100,1:40.868,3,45,LEC,2019,24,Yas Marina Circuit,100.868
101,1:40.886,3,46,LEC,2019,24,Yas Marina Circuit,100.886
102,1:41.222,3,47,LEC,2019,24,Yas Marina Circuit,101.222
103,1:41.712,3,48,LEC,2019,24,Yas Marina Circuit,101.712
104,1:42.019,3,49,LEC,2019,24,Yas Marina Circuit,102.019
105,1:42.421,3,50,LEC,2019,24,Yas Marina Circuit,102.421
106,1:42.195,3,51,LEC,2019,24,Yas Marina Circuit,102.195
107,1:41.882,3,52,LEC,2019,24,Yas Marina Circuit,101.882
108,1:41.878,3,53,LEC,2019,24,Yas Marina Circuit,101.878
109,1:42.127,3,54,LEC,2019,24,Yas Marina Circuit,102.127
110,1:42.829,3,55,LEC,2019,24,Yas Marina Circuit,102.829
111,1:47.616,3,1,VER,2019,24,Yas Marina Circuit,107.616
112,1:43.281,3,2,VER,2019,24,Yas Marina Circuit,103.281
113,1:43.245,3,3,VER,2019,24,Yas Marina Circuit,103.245
114,1:43.308,3,4,VER,2019,24,Yas Marina Circuit,103.308
115,1:43.506,3,5,VER,2019,24,Yas Marina Circuit,103.506
116,1:43.799,3,6,VER,2019,24,Yas Marina Circuit,103.799
117,1:43.256,3,7,VER,2019,24,Yas Marina Circuit,103.256
118,1:43.206,3,8,VER,2019,24,Yas Marina Circuit,103.206
119,1:43.303,3,9,VER,2019,24,Yas Marina Circuit,103.303
120,1:43.442,3,10,VER,2019,24,Yas Marina Circuit,103.442
121,1:43.404,3,11,VER,2019,24,Yas Marina Circuit,103.404
122,1:43.252,3,12,VER,2019,24,Yas Marina Circuit,103.252
123,1:43.010,2,13,VER,2019,24,Yas Marina Circuit,103.01
124,1:42.876,2,14,VER,2019,24,Yas Marina Circuit,102.876
125,1:43.057,2,15,VER,2019,24,Yas Marina Circuit,103.057
126,1:42.834,2,16,VER,2019,24,Yas Marina Circuit,102.834
127,1:43.060,2,17,VER,2019,24,Yas Marina Circuit,103.06
128,1:43.168,2,18,VER,2019,24,Yas Marina Circuit,103.168
129,1:43.166,2,19,VER,2019,24,Yas Marina Circuit,103.166
130,1:43.010,2,20,VER,2019,24,Yas Marina Circuit,103.01
131,1:43.024,2,21,VER,2019,24,Yas Marina Circuit,103.024
132,1:43.190,2,22,VER,2019,24,Yas Marina Circuit,103.19
133,1:43.063,2,23,VER,2019,24,Yas Marina Circuit,103.063
134,1:43.259,2,24,VER,2019,24,Yas Marina Circuit,103.259
135,1:45.216,2,25,VER,2019,24,Yas Marina Circuit,105.216
136,2:02.305,3,26,VER,2019,24,Yas Marina Circuit,122.305
137,1:42.898,3,27,VER,2019,24,Yas Marina Circuit,102.898
138,1:41.651,3,28,VER,2019,24,Yas Marina Circuit,101.651
139,1:41.701,3,29,VER,2019,24,Yas Marina Circuit,101.701
140,1:41.897,3,30,VER,2019,24,Yas Marina Circuit,101.897
141,1:42.521,3,31,VER,2019,24,Yas Marina Circuit,102.521
142,1:42.598,2,32,VER,2019,24,Yas Marina Circuit,102.598
143,1:41.983,2,33,VER,2019,24,Yas Marina Circuit,101.983
144,1:41.694,2,34,VER,2019,24,Yas Marina Circuit,101.694
145,1:42.286,2,35,VER,2019,24,Yas Marina Circuit,102.286
146,1:42.561,2,36,VER,2019,24,Yas Marina Circuit,102.561
147,1:41.776,2,37,VER,2019,24,Yas Marina Circuit,101.776
148,1:41.555,2,38,VER,2019,24,Yas Marina Circuit,101.555
149,1:41.541,2,39,VER,2019,24,Yas Marina Circuit,101.541
150,1:41.778,2,40,VER,2019,24,Yas Marina Circuit,101.778
151,1:41.824,2,41,VER,2019,24,Yas Marina Circuit,101.824
152,1:41.915,2,42,VER,2019,24,Yas Marina Circuit,101.915
153,1:41.755,2,43,VER,2019,24,Yas Marina Circuit,101.755
154,1:42.046,2,44,VER,2019,24,Yas Marina Circuit,102.046
155,1:41.955,2,45,VER,2019,24,Yas Marina Circuit,101.955
156,1:41.674,2,46,VER,2019,24,Yas Marina Circuit,101.674
157,1:41.592,2,47,VER,2019,24,Yas Marina Circuit,101.592
158,1:41.273,2,48,VER,2019,24,Yas Marina Circuit,101.273
159,1:41.775,2,49,VER,2019,24,Yas Marina Circuit,101.775
160,1:41.333,2,50,VER,2019,24,Yas Marina Circuit,101.333
161,1:41.774,2,51,VER,2019,24,Yas Marina Circuit,101.774
162,1:41.743,2,52,VER,2019,24,Yas Marina Circuit,101.743
163,1:41.849,2,53,VER,2019,24,Yas Marina Circuit,101.849
164,1:41.564,2,54,VER,2019,24,Yas Marina Circuit,101.564
165,1:41.119,2,55,VER,2019,24,Yas Marina Circuit,101.119
166,1:48.361,4,1,VET,2019,24,Yas Marina Circuit,108.361
167,1:43.643,4,2,VET,2019,24,Yas Marina Circuit,103.643
168,1:43.234,4,3,VET,2019,24,Yas Marina Circuit,103.234
169,1:43.513,4,4,VET,2019,24,Yas Marina Circuit,103.513
170,1:43.888,4,5,VET,2019,24,Yas Marina Circuit,103.888
171,1:44.065,4,6,VET,2019,24,Yas Marina Circuit,104.065
172,1:43.575,4,7,VET,2019,24,Yas Marina Circuit,103.575
173,1:43.900,4,8,VET,2019,24,Yas Marina Circuit,103.9
174,1:43.821,4,9,VET,2019,24,Yas Marina Circuit,103.821
175,1:44.061,4,10,VET,2019,24,Yas Marina Circuit,104.061
176,1:44.195,4,11,VET,2019,24,Yas Marina Circuit,104.195
177,1:46.406,4,12,VET,2019,24,Yas Marina Circuit,106.406
178,2:07.307,7,13,VET,2019,24,Yas Marina Circuit,127.307
179,1:43.496,6,14,VET,2019,24,Yas Marina Circuit,103.496
180,1:44.467,6,15,VET,2019,24,Yas Marina Circuit,104.467
181,1:44.461,6,16,VET,2019,24,Yas Marina Circuit,104.461
182,1:45.414,6,17,VET,2019,24,Yas Marina Circuit,105.414
183,1:44.900,5,18,VET,2019,24,Yas Marina Circuit,104.9
184,1:43.060,5,19,VET,2019,24,Yas Marina Circuit,103.06
185,1:42.989,5,20,VET,2019,24,Yas Marina Circuit,102.989
186,1:43.123,5,21,VET,2019,24,Yas Marina Circuit,103.123
187,1:42.995,5,22,VET,2019,24,Yas Marina Circuit,102.995
188,1:43.303,5,23,VET,2019,24,Yas Marina Circuit,103.303
189,1:43.091,5,24,VET,2019,24,Yas Marina Circuit,103.091
190,1:42.707,5,25,VET,2019,24,Yas Marina Circuit,102.707
191,1:42.802,5,26,VET,2019,24,Yas Marina Circuit,102.802
192,1:43.129,5,27,VET,2019,24,Yas Marina Circuit,103.129
193,1:42.965,5,28,VET,2019,24,Yas Marina Circuit,102.965
194,1:43.048,5,29,VET,2019,24,Yas Marina Circuit,103.048
195,1:42.760,4,30,VET,2019,24,Yas Marina Circuit,102.76
196,1:43.143,4,31,VET,2019,24,Yas Marina Circuit,103.143
197,1:42.976,4,32,VET,2019,24,Yas Marina Circuit,102.976
198,1:43.921,4,33,VET,2019,24,Yas Marina Circuit,103.921
199,1:43.476,4,34,VET,2019,24,Yas Marina Circuit,103.476
200,1:43.011,4,35,VET,2019,24,Yas Marina Circuit,103.011
201,1:42.847,4,36,VET,2019,24,Yas Marina Circuit,102.847
202,1:43.143,4,37,VET,2019,24,Yas Marina Circuit,103.143
203,1:45.352,6,38,VET,2019,24,Yas Marina Circuit,105.352
204,2:02.236,6,39,VET,2019,24,Yas Marina Circuit,122.236
205,1:41.569,6,40,VET,2019,24,Yas Marina Circuit,101.569
206,1:41.645,6,41,VET,2019,24,Yas Marina Circuit,101.645
207,1:42.017,6,42,VET,2019,24,Yas Marina Circuit,102.017
208,1:40.246,6,43,VET,2019,24,Yas Marina Circuit,100.246
209,1:41.605,6,44,VET,2019,24,Yas Marina Circuit,101.605
210,1:41.455,6,45,VET,2019,24,Yas Marina Circuit,101.455
211,1:41.104,6,46,VET,2019,24,Yas Marina Circuit,101.104
212,1:41.074,6,47,VET,2019,24,Yas Marina Circuit,101.074
213,1:41.561,6,48,VET,2019,24,Yas Marina Circuit,101.561
214,1:40.989,6,49,VET,2019,24,Yas Marina Circuit,100.989
215,1:41.099,6,50,VET,2019,24,Yas Marina Circuit,101.099
216,1:40.657,6,51,VET,2019,24,Yas Marina Circuit,100.657
217,1:41.105,6,52,VET,2019,24,Yas Marina Circuit,101.105
218,1:42.301,5,53,VET,2019,24,Yas Marina Circuit,102.301
219,1:42.733,5,54,VET,2019,24,Yas Marina Circuit,102.733
220,1:40.128,5,55,VET,2019,24,Yas Marina Circuit,100.128
221,1:49.439,5,1,ALB,2019,24,Yas Marina Circuit,109.439
222,1:44.511,5,2,ALB,2019,24,Yas Marina Circuit,104.511
223,1:43.826,5,3,ALB,2019,24,Yas Marina Circuit,103.826
224,1:43.881,5,4,ALB,2019,24,Yas Marina Circuit,103.881
225,1:44.110,5,5,ALB,2019,24,Yas Marina Circuit,104.11
226,1:44.042,5,6,ALB,2019,24,Yas Marina Circuit,104.042
227,1:44.604,5,7,ALB,2019,24,Yas Marina Circuit,104.604
228,1:43.942,5,8,ALB,2019,24,Yas Marina Circuit,103.942
229,1:44.231,5,9,ALB,2019,24,Yas Marina Circuit,104.231
230,1:44.308,5,10,ALB,2019,24,Yas Marina Circuit,104.308
231,1:44.184,5,11,ALB,2019,24,Yas Marina Circuit,104.184
232,1:43.989,5,12,ALB,2019,24,Yas Marina Circuit,103.989
233,1:45.896,3,13,ALB,2019,24,Yas Marina Circuit,105.896
234,2:03.857,7,14,ALB,2019,24,Yas Marina Circuit,123.857
235,1:43.891,7,15,ALB,2019,24,Yas Marina Circuit,103.891
236,1:44.525,7,16,ALB,2019,24,Yas Marina Circuit,104.525
237,1:45.282,7,17,ALB,2019,24,Yas Marina Circuit,105.282
238,1:44.985,6,18,ALB,2019,24,Yas Marina Circuit,104.985
239,1:43.557,6,19,ALB,2019,24,Yas Marina Circuit,103.557
240,1:43.527,6,20,ALB,2019,24,Yas Marina Circuit,103.527
241,1:43.258,6,21,ALB,2019,24,Yas Marina Circuit,103.258
242,1:43.242,6,22,ALB,2019,24,Yas Marina Circuit,103.242
243,1:43.211,6,23,ALB,2019,24,Yas Marina Circuit,103.211
244,1:43.769,6,24,ALB,2019,24,Yas Marina Circuit,103.769
245,1:43.251,6,25,ALB,2019,24,Yas Marina Circuit,103.251
246,1:42.864,6,26,ALB,2019,24,Yas Marina Circuit,102.864
247,1:43.279,6,27,ALB,2019,24,Yas Marina Circuit,103.279
248,1:42.721,6,28,ALB,2019,24,Yas Marina Circuit,102.721
249,1:43.223,6,29,ALB,2019,24,Yas Marina Circuit,103.223
250,1:42.670,5,30,ALB,2019,24,Yas Marina Circuit,102.67
251,1:42.788,5,31,ALB,2019,24,Yas Marina Circuit,102.788
252,1:43.197,5,32,ALB,2019,24,Yas Marina Circuit,103.197
253,1:42.783,5,33,ALB,2019,24,Yas Marina Circuit,102.783
254,1:43.257,5,34,ALB,2019,24,Yas Marina Circuit,103.257
255,1:43.113,5,35,ALB,2019,24,Yas Marina Circuit,103.113
256,1:42.679,5,36,ALB,2019,24,Yas Marina Circuit,102.679
257,1:42.779,5,37,ALB,2019,24,Yas Marina Circuit,102.779
258,1:42.883,4,38,ALB,2019,24,Yas Marina Circuit,102.883
259,1:44.564,5,39,ALB,2019,24,Yas Marina Circuit,104.564
260,1:43.344,5,40,ALB,2019,24,Yas Marina Circuit,103.344
261,1:43.071,5,41,ALB,2019,24,Yas Marina Circuit,103.071
262,1:42.845,5,42,ALB,2019,24,Yas Marina Circuit,102.845
263,1:42.272,5,43,ALB,2019,24,Yas Marina Circuit,102.272
264,1:42.760,5,44,ALB,2019,24,Yas Marina Circuit,102.76
265,1:42.629,5,45,ALB,2019,24,Yas Marina Circuit,102.629
266,1:42.343,5,46,ALB,2019,24,Yas Marina Circuit,102.343
267,1:42.454,5,47,ALB,2019,24,Yas Marina Circuit,102.454
268,1:42.357,5,48,ALB,2019,24,Yas Marina Circuit,102.357
269,1:42.219,5,49,ALB,2019,24,Yas Marina Circuit,102.219
270,1:42.496,5,50,ALB,2019,24,Yas Marina Circuit,102.496
271,1:42.376,5,51,ALB,2019,24,Yas Marina Circuit,102.376
272,1:42.462,5,52,ALB,2019,24,Yas Marina Circuit,102.462
273,1:44.788,6,53,ALB,2019,24,Yas Marina Circuit,104.788
274,1:43.028,6,54,ALB,2019,24,Yas Marina Circuit,103.028
275,1:43.358,6,55,ALB,2019,24,Yas Marina Circuit,103.358
276,1:50.507,6,1,NOR,2019,24,Yas Marina Circuit,110.507
277,1:45.289,6,2,NOR,2019,24,Yas Marina Circuit,105.289
278,1:45.062,6,3,NOR,2019,24,Yas Marina Circuit,105.062
279,1:45.351,6,4,NOR,2019,24,Yas Marina Circuit,105.351
280,1:45.416,6,5,NOR,2019,24,Yas Marina Circuit,105.416
281,1:45.214,6,6,NOR,2019,24,Yas Marina Circuit,105.214
282,1:45.228,6,7,NOR,2019,24,Yas Marina Circuit,105.228
283,1:48.001,7,8,NOR,2019,24,Yas Marina Circuit,108.001
284,2:07.038,16,9,NOR,2019,24,Yas Marina Circuit,127.038
285,1:44.389,15,10,NOR,2019,24,Yas Marina Circuit,104.389
286,1:45.114,15,11,NOR,2019,24,Yas Marina Circuit,105.114
287,1:44.992,14,12,NOR,2019,24,Yas Marina Circuit,104.992
288,1:45.386,13,13,NOR,2019,24,Yas Marina Circuit,105.386
289,1:45.016,13,14,NOR,2019,24,Yas Marina Circuit,105.016
290,1:45.338,13,15,NOR,2019,24,Yas Marina Circuit,105.338
291,1:45.559,13,16,NOR,2019,24,Yas Marina Circuit,105.559
292,1:45.195,13,17,NOR,2019,24,Yas Marina Circuit,105.195
293,1:44.235,12,18,NOR,2019,24,Yas Marina Circuit,104.235
294,1:45.040,11,19,NOR,2019,24,Yas Marina Circuit,105.04
295,1:44.986,11,20,NOR,2019,24,Yas Marina Circuit,104.986
296,1:44.908,10,21,NOR,2019,24,Yas Marina Circuit,104.908
297,1:45.064,10,22,NOR,2019,24,Yas Marina Circuit,105.064
298,1:44.531,9,23,NOR,2019,24,Yas Marina Circuit,104.531
299,1:44.223,9,24,NOR,2019,24,Yas Marina Circuit,104.223
300,1:44.537,9,25,NOR,2019,24,Yas Marina Circuit,104.537
301,1:44.747,9,26,NOR,2019,24,Yas Marina Circuit,104.747
302,1:44.209,9,27,NOR,2019,24,Yas Marina Circuit,104.209
303,1:44.346,9,28,NOR,2019,24,Yas Marina Circuit,104.346
304,1:44.448,9,29,NOR,2019,24,Yas Marina Circuit,104.448
305,1:44.345,9,30,NOR,2019,24,Yas Marina Circuit,104.345
306,1:44.337,9,31,NOR,2019,24,Yas Marina Circuit,104.337
307,1:44.239,9,32,NOR,2019,24,Yas Marina Circuit,104.239
308,1:44.159,9,33,NOR,2019,24,Yas Marina Circuit,104.159
309,1:44.183,9,34,NOR,2019,24,Yas Marina Circuit,104.183
310,1:43.894,9,35,NOR,2019,24,Yas Marina Circuit,103.894
311,1:43.957,9,36,NOR,2019,24,Yas Marina Circuit,103.957
312,1:43.819,9,37,NOR,2019,24,Yas Marina Circuit,103.819
313,1:43.762,8,38,NOR,2019,24,Yas Marina Circuit,103.762
314,1:43.545,8,39,NOR,2019,24,Yas Marina Circuit,103.545
315,1:43.578,8,40,NOR,2019,24,Yas Marina Circuit,103.578
316,1:43.403,7,41,NOR,2019,24,Yas Marina Circuit,103.403
317,1:43.574,7,42,NOR,2019,24,Yas Marina Circuit,103.574
318,1:43.940,7,43,NOR,2019,24,Yas Marina Circuit,103.94
319,1:44.715,7,44,NOR,2019,24,Yas Marina Circuit,104.715
320,1:43.849,7,45,NOR,2019,24,Yas Marina Circuit,103.849
321,1:43.651,7,46,NOR,2019,24,Yas Marina Circuit,103.651
322,1:43.377,7,47,NOR,2019,24,Yas Marina Circuit,103.377
323,1:43.199,7,48,NOR,2019,24,Yas Marina Circuit,103.199
324,1:43.308,7,49,NOR,2019,24,Yas Marina Circuit,103.308
325,1:43.026,7,50,NOR,2019,24,Yas Marina Circuit,103.026
326,1:43.165,7,51,NOR,2019,24,Yas Marina Circuit,103.165
327,1:45.803,7,52,NOR,2019,24,Yas Marina Circuit,105.803
328,1:43.963,7,53,NOR,2019,24,Yas Marina Circuit,103.963
329,1:45.819,8,54,NOR,2019,24,Yas Marina Circuit,105.819
330,1:51.285,7,1,SAI,2019,24,Yas Marina Circuit,111.285
331,1:45.586,7,2,SAI,2019,24,Yas Marina Circuit,105.586
332,1:45.227,7,3,SAI,2019,24,Yas Marina Circuit,105.227
333,1:45.570,7,4,SAI,2019,24,Yas Marina Circuit,105.57
334,1:45.559,7,5,SAI,2019,24,Yas Marina Circuit,105.559
335,1:45.438,7,6,SAI,2019,24,Yas Marina Circuit,105.438
336,1:45.568,7,7,SAI,2019,24,Yas Marina Circuit,105.568
337,1:45.699,6,8,SAI,2019,24,Yas Marina Circuit,105.699
338,1:45.230,6,9,SAI,2019,24,Yas Marina Circuit,105.23
339,1:45.526,6,10,SAI,2019,24,Yas Marina Circuit,105.526
340,1:45.441,6,11,SAI,2019,24,Yas Marina Circuit,105.441
341,1:47.314,7,12,SAI,2019,24,Yas Marina Circuit,107.314
342,2:05.550,15,13,SAI,2019,24,Yas Marina Circuit,125.55
343,1:44.575,15,14,SAI,2019,24,Yas Marina Circuit,104.575
344,1:45.192,14,15,SAI,2019,24,Yas Marina Circuit,105.192
345,1:44.865,14,16,SAI,2019,24,Yas Marina Circuit,104.865
346,1:45.445,14,17,SAI,2019,24,Yas Marina Circuit,105.445
347,1:44.464,13,18,SAI,2019,24,Yas Marina Circuit,104.464
348,1:45.883,13,19,SAI,2019,24,Yas Marina Circuit,105.883
349,1:45.309,13,20,SAI,2019,24,Yas Marina Circuit,105.309
350,1:44.739,12,21,SAI,2019,24,Yas Marina Circuit,104.739
351,1:44.752,12,22,SAI,2019,24,Yas Marina Circuit,104.752
352,1:44.647,11,23,SAI,2019,24,Yas Marina Circuit,104.647
353,1:44.479,11,24,SAI,2019,24,Yas Marina Circuit,104.479
354,1:44.774,11,25,SAI,2019,24,Yas Marina Circuit,104.774
355,1:44.477,11,26,SAI,2019,24,Yas Marina Circuit,104.477
356,1:44.385,11,27,SAI,2019,24,Yas Marina Circuit,104.385
357,1:44.201,11,28,SAI,2019,24,Yas Marina Circuit,104.201
358,1:44.496,11,29,SAI,2019,24,Yas Marina Circuit,104.496
359,1:44.471,11,30,SAI,2019,24,Yas Marina Circuit,104.471
360,1:44.267,11,31,SAI,2019,24,Yas Marina Circuit,104.267
361,1:44.438,11,32,SAI,2019,24,Yas Marina Circuit,104.438
362,1:44.128,11,33,SAI,2019,24,Yas Marina Circuit,104.128
363,1:44.174,11,34,SAI,2019,24,Yas Marina Circuit,104.174
364,1:44.189,11,35,SAI,2019,24,Yas Marina Circuit,104.189
365,1:44.303,11,36,SAI,2019,24,Yas Marina Circuit,104.303
366,1:44.355,11,37,SAI,2019,24,Yas Marina Circuit,104.355
367,1:43.649,10,38,SAI,2019,24,Yas Marina Circuit,103.649
368,1:44.000,10,39,SAI,2019,24,Yas Marina Circuit,104.0
369,1:43.899,10,40,SAI,2019,24,Yas Marina Circuit,103.899
370,1:45.220,10,41,SAI,2019,24,Yas Marina Circuit,105.22
371,2:00.593,14,42,SAI,2019,24,Yas Marina Circuit,120.593
372,1:41.294,12,43,SAI,2019,24,Yas Marina Circuit,101.294
373,1:42.207,12,44,SAI,2019,24,Yas Marina Circuit,102.207
374,1:42.302,12,45,SAI,2019,24,Yas Marina Circuit,102.302
375,1:42.644,11,46,SAI,2019,24,Yas Marina Circuit,102.644
376,1:42.075,11,47,SAI,2019,24,Yas Marina Circuit,102.075
377,1:42.134,11,48,SAI,2019,24,Yas Marina Circuit,102.134
378,1:42.153,11,49,SAI,2019,24,Yas Marina Circuit,102.153
379,1:42.193,11,50,SAI,2019,24,Yas Marina Circuit,102.193
380,1:42.262,11,51,SAI,2019,24,Yas Marina Circuit,102.262
381,1:43.407,11,52,SAI,2019,24,Yas Marina Circuit,103.407
382,1:43.075,11,53,SAI,2019,24,Yas Marina Circuit,103.075
383,1:43.728,10,54,SAI,2019,24,Yas Marina Circuit,103.728
384,1:52.043,8,1,RIC,2019,24,Yas Marina Circuit,112.043
385,1:45.722,8,2,RIC,2019,24,Yas Marina Circuit,105.722
386,1:45.428,8,3,RIC,2019,24,Yas Marina Circuit,105.428
387,1:45.441,8,4,RIC,2019,24,Yas Marina Circuit,105.441
388,1:45.492,8,5,RIC,2019,24,Yas Marina Circuit,105.492
389,1:45.689,8,6,RIC,2019,24,Yas Marina Circuit,105.689
390,1:45.358,8,7,RIC,2019,24,Yas Marina Circuit,105.358
391,1:45.560,8,8,RIC,2019,24,Yas Marina Circuit,105.56
392,1:45.420,7,9,RIC,2019,24,Yas Marina Circuit,105.42
393,1:45.508,7,10,RIC,2019,24,Yas Marina Circuit,105.508
394,1:47.170,8,11,RIC,2019,24,Yas Marina Circuit,107.17
395,2:04.267,15,12,RIC,2019,24,Yas Marina Circuit,124.267
396,1:44.992,14,13,RIC,2019,24,Yas Marina Circuit,104.992
397,1:44.858,14,14,RIC,2019,24,Yas Marina Circuit,104.858
398,1:46.835,15,15,RIC,2019,24,Yas Marina Circuit,106.835
399,1:45.617,15,16,RIC,2019,24,Yas Marina Circuit,105.617
400,1:44.957,15,17,RIC,2019,24,Yas Marina Circuit,104.957
401,1:45.531,14,18,RIC,2019,24,Yas Marina Circuit,105.531
402,1:44.969,14,19,RIC,2019,24,Yas Marina Circuit,104.969
403,1:45.017,14,20,RIC,2019,24,Yas Marina Circuit,105.017
404,1:44.624,13,21,RIC,2019,24,Yas Marina Circuit,104.624
405,1:44.747,13,22,RIC,2019,24,Yas Marina Circuit,104.747
406,1:44.616,12,23,RIC,2019,24,Yas Marina Circuit,104.616
407,1:44.605,12,24,RIC,2019,24,Yas Marina Circuit,104.605
408,1:44.521,12,25,RIC,2019,24,Yas Marina Circuit,104.521
409,1:44.393,12,26,RIC,2019,24,Yas Marina Circuit,104.393
410,1:44.458,12,27,RIC,2019,24,Yas Marina Circuit,104.458
411,1:44.385,12,28,RIC,2019,24,Yas Marina Circuit,104.385
412,1:44.546,12,29,RIC,2019,24,Yas Marina Circuit,104.546
413,1:44.163,12,30,RIC,2019,24,Yas Marina Circuit,104.163
414,1:44.461,12,31,RIC,2019,24,Yas Marina Circuit,104.461
415,1:44.272,12,32,RIC,2019,24,Yas Marina Circuit,104.272
416,1:44.142,12,33,RIC,2019,24,Yas Marina Circuit,104.142
417,1:44.158,12,34,RIC,2019,24,Yas Marina Circuit,104.158
418,1:44.389,12,35,RIC,2019,24,Yas Marina Circuit,104.389
419,1:44.365,12,36,RIC,2019,24,Yas Marina Circuit,104.365
420,1:44.450,12,37,RIC,2019,24,Yas Marina Circuit,104.45
421,1:43.850,11,38,RIC,2019,24,Yas Marina Circuit,103.85
422,1:43.738,11,39,RIC,2019,24,Yas Marina Circuit,103.738
423,1:45.302,12,40,RIC,2019,24,Yas Marina Circuit,105.302
424,1:45.198,11,41,RIC,2019,24,Yas Marina Circuit,105.198
425,1:45.502,11,42,RIC,2019,24,Yas Marina Circuit,105.502
426,2:01.870,14,43,RIC,2019,24,Yas Marina Circuit,121.87
427,1:41.676,14,44,RIC,2019,24,Yas Marina Circuit,101.676
428,1:42.198,14,45,RIC,2019,24,Yas Marina Circuit,102.198
429,1:41.399,13,46,RIC,2019,24,Yas Marina Circuit,101.399
430,1:41.359,13,47,RIC,2019,24,Yas Marina Circuit,101.359
431,1:41.741,13,48,RIC,2019,24,Yas Marina Circuit,101.741
432,1:41.290,12,49,RIC,2019,24,Yas Marina Circuit,101.29
433,1:41.627,12,50,RIC,2019,24,Yas Marina Circuit,101.627
434,1:41.190,12,51,RIC,2019,24,Yas Marina Circuit,101.19
435,1:41.777,12,52,RIC,2019,24,Yas Marina Circuit,101.777
436,1:42.752,12,53,RIC,2019,24,Yas Marina Circuit,102.752
437,1:44.099,11,54,RIC,2019,24,Yas Marina Circuit,104.099
438,1:52.555,9,1,MAG,2019,24,Yas Marina Circuit,112.555
439,1:47.299,10,2,MAG,2019,24,Yas Marina Circuit,107.299
440,1:45.952,10,3,MAG,2019,24,Yas Marina Circuit,105.952
441,1:46.112,10,4,MAG,2019,24,Yas Marina Circuit,106.112
442,1:46.348,10,5,MAG,2019,24,Yas Marina Circuit,106.348
443,1:47.405,11,6,MAG,2019,24,Yas Marina Circuit,107.405
444,1:47.063,12,7,MAG,2019,24,Yas Marina Circuit,107.063
445,1:46.228,12,8,MAG,2019,24,Yas Marina Circuit,106.228
446,1:46.206,11,9,MAG,2019,24,Yas Marina Circuit,106.206
447,1:46.058,11,10,MAG,2019,24,Yas Marina Circuit,106.058
448,1:45.844,11,11,MAG,2019,24,Yas Marina Circuit,105.844
449,1:45.751,10,12,MAG,2019,24,Yas Marina Circuit,105.751
450,1:45.693,9,13,MAG,2019,24,Yas Marina Circuit,105.693
451,1:45.486,9,14,MAG,2019,24,Yas Marina Circuit,105.486
452,1:45.425,9,15,MAG,2019,24,Yas Marina Circuit,105.425
453,1:45.486,9,16,MAG,2019,24,Yas Marina Circuit,105.486
454,1:45.716,9,17,MAG,2019,24,Yas Marina Circuit,105.716
455,1:45.622,9,18,MAG,2019,24,Yas Marina Circuit,105.622
456,1:45.456,8,19,MAG,2019,24,Yas Marina Circuit,105.456
457,1:47.475,9,20,MAG,2019,24,Yas Marina Circuit,107.475
458,2:03.691,14,21,MAG,2019,24,Yas Marina Circuit,123.691
459,1:43.790,14,22,MAG,2019,24,Yas Marina Circuit,103.79
460,1:43.929,13,23,MAG,2019,24,Yas Marina Circuit,103.929
461,1:44.394,13,24,MAG,2019,24,Yas Marina Circuit,104.394
462,1:43.883,13,25,MAG,2019,24,Yas Marina Circuit,103.883
463,1:43.864,13,26,MAG,2019,24,Yas Marina Circuit,103.864
464,1:43.985,13,27,MAG,2019,24,Yas Marina Circuit,103.985
465,1:44.064,13,28,MAG,2019,24,Yas Marina Circuit,104.064
466,1:44.080,13,29,MAG,2019,24,Yas Marina Circuit,104.08
467,1:44.083,13,30,MAG,2019,24,Yas Marina Circuit,104.083
468,1:44.146,13,31,MAG,2019,24,Yas Marina Circuit,104.146
469,1:44.148,13,32,MAG,2019,24,Yas Marina Circuit,104.148
470,1:44.176,13,33,MAG,2019,24,Yas Marina Circuit,104.176
471,1:44.353,13,34,MAG,2019,24,Yas Marina Circuit,104.353
472,1:44.214,13,35,MAG,2019,24,Yas Marina Circuit,104.214
473,1:44.544,13,36,MAG,2019,24,Yas Marina Circuit,104.544
474,1:44.876,13,37,MAG,2019,24,Yas Marina Circuit,104.876
475,1:46.753,14,38,MAG,2019,24,Yas Marina Circuit,106.753
476,1:44.926,14,39,MAG,2019,24,Yas Marina Circuit,104.926
477,1:44.701,14,40,MAG,2019,24,Yas Marina Circuit,104.701
478,1:44.366,14,41,MAG,2019,24,Yas Marina Circuit,104.366
479,1:45.781,13,42,MAG,2019,24,Yas Marina Circuit,105.781
480,1:45.240,13,43,MAG,2019,24,Yas Marina Circuit,105.24
481,1:44.349,13,44,MAG,2019,24,Yas Marina Circuit,104.349
482,1:44.227,13,45,MAG,2019,24,Yas Marina Circuit,104.227
483,1:45.289,14,46,MAG,2019,24,Yas Marina Circuit,105.289
484,1:44.092,14,47,MAG,2019,24,Yas Marina Circuit,104.092
485,1:44.128,14,48,MAG,2019,24,Yas Marina Circuit,104.128
486,1:44.318,14,49,MAG,2019,24,Yas Marina Circuit,104.318
487,1:45.938,14,50,MAG,2019,24,Yas Marina Circuit,105.938
488,1:45.141,14,51,MAG,2019,24,Yas Marina Circuit,105.141
489,1:44.056,14,52,MAG,2019,24,Yas Marina Circuit,104.056
490,1:44.230,14,53,MAG,2019,24,Yas Marina Circuit,104.23
491,1:44.560,14,54,MAG,2019,24,Yas Marina Circuit,104.56
492,1:52.942,10,1,HUL,2019,24,Yas Marina Circuit,112.942
493,1:45.616,9,2,HUL,2019,24,Yas Marina Circuit,105.616
494,1:45.595,9,3,HUL,2019,24,Yas Marina Circuit,105.595
495,1:45.544,9,4,HUL,2019,24,Yas Marina Circuit,105.544
496,1:45.338,9,5,HUL,2019,24,Yas Marina Circuit,105.338
497,1:45.793,9,6,HUL,2019,24,Yas Marina Circuit,105.793
498,1:45.319,9,7,HUL,2019,24,Yas Marina Circuit,105.319
499,1:45.663,9,8,HUL,2019,24,Yas Marina Circuit,105.663
500,1:45.492,8,9,HUL,2019,24,Yas Marina Circuit,105.492
501,1:45.371,8,10,HUL,2019,24,Yas Marina Circuit,105.371
502,1:45.278,7,11,HUL,2019,24,Yas Marina Circuit,105.278
503,1:44.753,6,12,HUL,2019,24,Yas Marina Circuit,104.753
504,1:44.202,5,13,HUL,2019,24,Yas Marina Circuit,104.202
505,1:44.614,4,14,HUL,2019,24,Yas Marina Circuit,104.614
506,1:44.655,4,15,HUL,2019,24,Yas Marina Circuit,104.655
507,1:44.474,4,16,HUL,2019,24,Yas Marina Circuit,104.474
508,1:45.441,4,17,HUL,2019,24,Yas Marina Circuit,105.441
509,1:47.732,7,18,HUL,2019,24,Yas Marina Circuit,107.732
510,2:04.370,12,19,HUL,2019,24,Yas Marina Circuit,124.37
511,1:45.263,12,20,HUL,2019,24,Yas Marina Circuit,105.263
512,1:44.718,11,21,HUL,2019,24,Yas Marina Circuit,104.718
513,1:45.005,11,22,HUL,2019,24,Yas Marina Circuit,105.005
514,1:44.484,10,23,HUL,2019,24,Yas Marina Circuit,104.484
515,1:44.243,10,24,HUL,2019,24,Yas Marina Circuit,104.243
516,1:44.603,10,25,HUL,2019,24,Yas Marina Circuit,104.603
517,1:44.800,10,26,HUL,2019,24,Yas Marina Circuit,104.8
518,1:44.380,10,27,HUL,2019,24,Yas Marina Circuit,104.38
519,1:44.400,10,28,HUL,2019,24,Yas Marina Circuit,104.4
520,1:44.317,10,29,HUL,2019,24,Yas Marina Circuit,104.317
521,1:44.324,10,30,HUL,2019,24,Yas Marina Circuit,104.324
522,1:44.358,10,31,HUL,2019,24,Yas Marina Circuit,104.358
523,1:44.527,10,32,HUL,2019,24,Yas Marina Circuit,104.527
524,1:43.961,10,33,HUL,2019,24,Yas Marina Circuit,103.961
525,1:44.281,10,34,HUL,2019,24,Yas Marina Circuit,104.281
526,1:43.993,10,35,HUL,2019,24,Yas Marina Circuit,103.993
527,1:44.225,10,36,HUL,2019,24,Yas Marina Circuit,104.225
528,1:43.990,10,37,HUL,2019,24,Yas Marina Circuit,103.99
529,1:43.743,9,38,HUL,2019,24,Yas Marina Circuit,103.743
530,1:43.807,9,39,HUL,2019,24,Yas Marina Circuit,103.807
531,1:43.894,9,40,HUL,2019,24,Yas Marina Circuit,103.894
532,1:43.483,8,41,HUL,2019,24,Yas Marina Circuit,103.483
533,1:43.683,8,42,HUL,2019,24,Yas Marina Circuit,103.683
534,1:45.203,8,43,HUL,2019,24,Yas Marina Circuit,105.203
535,1:43.655,8,44,HUL,2019,24,Yas Marina Circuit,103.655
536,1:44.893,9,45,HUL,2019,24,Yas Marina Circuit,104.893
537,1:45.415,10,46,HUL,2019,24,Yas Marina Circuit,105.415
538,1:43.631,10,47,HUL,2019,24,Yas Marina Circuit,103.631
539,1:45.323,10,48,HUL,2019,24,Yas Marina Circuit,105.323
540,1:43.439,10,49,HUL,2019,24,Yas Marina Circuit,103.439
541,1:43.778,10,50,HUL,2019,24,Yas Marina Circuit,103.778
542,1:43.412,10,51,HUL,2019,24,Yas Marina Circuit,103.412
543,1:43.274,10,52,HUL,2019,24,Yas Marina Circuit,103.274
544,1:43.409,10,53,HUL,2019,24,Yas Marina Circuit,103.409
545,1:46.988,12,54,HUL,2019,24,Yas Marina Circuit,106.988
546,1:53.503,11,1,PER,2019,24,Yas Marina Circuit,113.503
547,1:46.965,11,2,PER,2019,24,Yas Marina Circuit,106.965
548,1:46.092,11,3,PER,2019,24,Yas Marina Circuit,106.092
549,1:46.181,11,4,PER,2019,24,Yas Marina Circuit,106.181
550,1:46.270,11,5,PER,2019,24,Yas Marina Circuit,106.27
551,1:45.287,10,6,PER,2019,24,Yas Marina Circuit,105.287
552,1:44.984,10,7,PER,2019,24,Yas Marina Circuit,104.984
553,1:44.941,10,8,PER,2019,24,Yas Marina Circuit,104.941
554,1:44.922,9,9,PER,2019,24,Yas Marina Circuit,104.922
555,1:44.931,9,10,PER,2019,24,Yas Marina Circuit,104.931
556,1:45.307,9,11,PER,2019,24,Yas Marina Circuit,105.307
557,1:46.473,9,12,PER,2019,24,Yas Marina Circuit,106.473
558,1:46.191,8,13,PER,2019,24,Yas Marina Circuit,106.191
559,1:45.418,8,14,PER,2019,24,Yas Marina Circuit,105.418
560,1:44.876,8,15,PER,2019,24,Yas Marina Circuit,104.876
561,1:44.740,8,16,PER,2019,24,Yas Marina Circuit,104.74
562,1:44.869,8,17,PER,2019,24,Yas Marina Circuit,104.869
563,1:44.969,8,18,PER,2019,24,Yas Marina Circuit,104.969
564,1:44.638,7,19,PER,2019,24,Yas Marina Circuit,104.638
565,1:44.718,7,20,PER,2019,24,Yas Marina Circuit,104.718
566,1:44.637,7,21,PER,2019,24,Yas Marina Circuit,104.637
567,1:44.368,7,22,PER,2019,24,Yas Marina Circuit,104.368
568,1:44.557,7,23,PER,2019,24,Yas Marina Circuit,104.557
569,1:44.610,7,24,PER,2019,24,Yas Marina Circuit,104.61
570,1:44.433,7,25,PER,2019,24,Yas Marina Circuit,104.433
571,1:44.574,7,26,PER,2019,24,Yas Marina Circuit,104.574
572,1:44.276,7,27,PER,2019,24,Yas Marina Circuit,104.276
573,1:44.330,7,28,PER,2019,24,Yas Marina Circuit,104.33
574,1:44.397,7,29,PER,2019,24,Yas Marina Circuit,104.397
575,1:44.393,7,30,PER,2019,24,Yas Marina Circuit,104.393
576,1:44.127,7,31,PER,2019,24,Yas Marina Circuit,104.127
577,1:44.379,7,32,PER,2019,24,Yas Marina Circuit,104.379
578,1:44.343,7,33,PER,2019,24,Yas Marina Circuit,104.343
579,1:44.341,7,34,PER,2019,24,Yas Marina Circuit,104.341
580,1:44.890,7,35,PER,2019,24,Yas Marina Circuit,104.89
581,1:44.736,7,36,PER,2019,24,Yas Marina Circuit,104.736
582,1:46.690,7,37,PER,2019,24,Yas Marina Circuit,106.69
583,2:02.707,12,38,PER,2019,24,Yas Marina Circuit,122.707
584,1:42.639,12,39,PER,2019,24,Yas Marina Circuit,102.639
585,1:43.135,11,40,PER,2019,24,Yas Marina Circuit,103.135
586,1:43.188,9,41,PER,2019,24,Yas Marina Circuit,103.188
587,1:44.196,9,42,PER,2019,24,Yas Marina Circuit,104.196
588,1:42.846,9,43,PER,2019,24,Yas Marina Circuit,102.846
589,1:43.362,9,44,PER,2019,24,Yas Marina Circuit,103.362
590,1:42.654,8,45,PER,2019,24,Yas Marina Circuit,102.654
591,1:42.763,8,46,PER,2019,24,Yas Marina Circuit,102.763
592,1:42.901,8,47,PER,2019,24,Yas Marina Circuit,102.901
593,1:43.271,8,48,PER,2019,24,Yas Marina Circuit,103.271
594,1:43.144,8,49,PER,2019,24,Yas Marina Circuit,103.144
595,1:43.085,8,50,PER,2019,24,Yas Marina Circuit,103.085
596,1:43.055,8,51,PER,2019,24,Yas Marina Circuit,103.055
597,1:45.518,8,52,PER,2019,24,Yas Marina Circuit,105.518
598,1:44.173,8,53,PER,2019,24,Yas Marina Circuit,104.173
599,1:43.625,7,54,PER,2019,24,Yas Marina Circuit,103.625
600,1:54.188,12,1,STR,2019,24,Yas Marina Circuit,114.188
601,1:48.048,13,2,STR,2019,24,Yas Marina Circuit,108.048
602,1:46.690,13,3,STR,2019,24,Yas Marina Circuit,106.69
603,1:46.776,13,4,STR,2019,24,Yas Marina Circuit,106.776
604,1:48.982,15,5,STR,2019,24,Yas Marina Circuit,108.982
605,2:12.054,19,6,STR,2019,24,Yas Marina Circuit,132.054
606,1:44.867,19,7,STR,2019,24,Yas Marina Circuit,104.867
607,1:44.941,19,8,STR,2019,24,Yas Marina Circuit,104.941
608,1:44.810,19,9,STR,2019,24,Yas Marina Circuit,104.81
609,1:44.985,19,10,STR,2019,24,Yas Marina Circuit,104.985
610,1:45.001,19,11,STR,2019,24,Yas Marina Circuit,105.001
611,1:44.917,19,12,STR,2019,24,Yas Marina Circuit,104.917
612,1:45.188,19,13,STR,2019,24,Yas Marina Circuit,105.188
613,1:45.062,19,14,STR,2019,24,Yas Marina Circuit,105.062
614,1:45.243,19,15,STR,2019,24,Yas Marina Circuit,105.243
615,1:45.826,19,16,STR,2019,24,Yas Marina Circuit,105.826
616,1:46.231,19,17,STR,2019,24,Yas Marina Circuit,106.231
617,1:46.139,19,18,STR,2019,24,Yas Marina Circuit,106.139
618,1:47.286,18,19,STR,2019,24,Yas Marina Circuit,107.286
619,1:46.486,18,20,STR,2019,24,Yas Marina Circuit,106.486
620,1:46.456,18,21,STR,2019,24,Yas Marina Circuit,106.456
621,1:48.533,18,22,STR,2019,24,Yas Marina Circuit,108.533
622,1:48.960,19,23,STR,2019,24,Yas Marina Circuit,108.96
623,2:05.499,19,24,STR,2019,24,Yas Marina Circuit,125.499
624,1:43.326,18,25,STR,2019,24,Yas Marina Circuit,103.326
625,1:46.475,18,26,STR,2019,24,Yas Marina Circuit,106.475
626,1:43.842,18,27,STR,2019,24,Yas Marina Circuit,103.842
627,1:43.975,18,28,STR,2019,24,Yas Marina Circuit,103.975
628,1:43.384,18,29,STR,2019,24,Yas Marina Circuit,103.384
629,1:43.577,18,30,STR,2019,24,Yas Marina Circuit,103.577
630,1:43.864,18,31,STR,2019,24,Yas Marina Circuit,103.864
631,1:44.386,18,32,STR,2019,24,Yas Marina Circuit,104.386
632,1:44.176,17,33,STR,2019,24,Yas Marina Circuit,104.176
633,1:44.537,17,34,STR,2019,24,Yas Marina Circuit,104.537
634,1:44.271,17,35,STR,2019,24,Yas Marina Circuit,104.271
635,1:45.636,17,36,STR,2019,24,Yas Marina Circuit,105.636
636,1:44.308,17,37,STR,2019,24,Yas Marina Circuit,104.308
637,1:43.831,17,38,STR,2019,24,Yas Marina Circuit,103.831
638,1:46.019,17,39,STR,2019,24,Yas Marina Circuit,106.019
639,1:46.647,17,40,STR,2019,24,Yas Marina Circuit,106.647
640,1:46.966,17,41,STR,2019,24,Yas Marina Circuit,106.966
641,1:45.541,17,42,STR,2019,24,Yas Marina Circuit,105.541
642,1:45.718,17,43,STR,2019,24,Yas Marina Circuit,105.718
643,1:48.800,17,44,STR,2019,24,Yas Marina Circuit,108.8
644,1:50.482,18,45,STR,2019,24,Yas Marina Circuit,110.482
645,1:54.477,13,1,GIO,2019,24,Yas Marina Circuit,114.477
646,1:46.760,12,2,GIO,2019,24,Yas Marina Circuit,106.76
647,1:46.322,12,3,GIO,2019,24,Yas Marina Circuit,106.322
648,1:46.218,12,4,GIO,2019,24,Yas Marina Circuit,106.218
649,1:46.383,12,5,GIO,2019,24,Yas Marina Circuit,106.383
650,1:47.294,13,6,GIO,2019,24,Yas Marina Circuit,107.294
651,1:46.534,13,7,GIO,2019,24,Yas Marina Circuit,106.534
652,1:48.143,14,8,GIO,2019,24,Yas Marina Circuit,108.143
653,2:05.855,18,9,GIO,2019,24,Yas Marina Circuit,125.855
654,1:45.032,18,10,GIO,2019,24,Yas Marina Circuit,105.032
655,1:44.940,18,11,GIO,2019,24,Yas Marina Circuit,104.94
656,1:44.983,18,12,GIO,2019,24,Yas Marina Circuit,104.983
657,1:45.292,18,13,GIO,2019,24,Yas Marina Circuit,105.292
658,1:45.579,18,14,GIO,2019,24,Yas Marina Circuit,105.579
659,1:46.045,18,15,GIO,2019,24,Yas Marina Circuit,106.045
660,1:46.520,18,16,GIO,2019,24,Yas Marina Circuit,106.52
661,1:46.515,18,17,GIO,2019,24,Yas Marina Circuit,106.515
662,1:46.181,18,18,GIO,2019,24,Yas Marina Circuit,106.181
663,1:45.575,16,19,GIO,2019,24,Yas Marina Circuit,105.575
664,1:46.235,16,20,GIO,2019,24,Yas Marina Circuit,106.235
665,1:46.313,16,21,GIO,2019,24,Yas Marina Circuit,106.313
666,1:47.815,16,22,GIO,2019,24,Yas Marina Circuit,107.815
667,1:47.720,16,23,GIO,2019,24,Yas Marina Circuit,107.72
668,1:45.274,15,24,GIO,2019,24,Yas Marina Circuit,105.274
669,1:45.348,15,25,GIO,2019,24,Yas Marina Circuit,105.348
670,1:46.816,15,26,GIO,2019,24,Yas Marina Circuit,106.816
671,2:05.589,17,27,GIO,2019,24,Yas Marina Circuit,125.589
672,1:43.256,17,28,GIO,2019,24,Yas Marina Circuit,103.256
673,1:43.297,17,29,GIO,2019,24,Yas Marina Circuit,103.297
674,1:43.628,17,30,GIO,2019,24,Yas Marina Circuit,103.628
675,1:43.945,17,31,GIO,2019,24,Yas Marina Circuit,103.945
676,1:44.256,17,32,GIO,2019,24,Yas Marina Circuit,104.256
677,1:43.907,16,33,GIO,2019,24,Yas Marina Circuit,103.907
678,1:43.963,16,34,GIO,2019,24,Yas Marina Circuit,103.963
679,1:43.642,16,35,GIO,2019,24,Yas Marina Circuit,103.642
680,1:43.793,16,36,GIO,2019,24,Yas Marina Circuit,103.793
681,1:44.100,16,37,GIO,2019,24,Yas Marina Circuit,104.1
682,1:43.957,16,38,GIO,2019,24,Yas Marina Circuit,103.957
683,1:44.124,16,39,GIO,2019,24,Yas Marina Circuit,104.124
684,1:44.083,16,40,GIO,2019,24,Yas Marina Circuit,104.083
685,1:45.531,16,41,GIO,2019,24,Yas Marina Circuit,105.531
686,1:44.516,16,42,GIO,2019,24,Yas Marina Circuit,104.516
687,1:45.524,16,43,GIO,2019,24,Yas Marina Circuit,105.524
688,1:44.322,16,44,GIO,2019,24,Yas Marina Circuit,104.322
689,1:46.175,16,45,GIO,2019,24,Yas Marina Circuit,106.175
690,1:44.527,16,46,GIO,2019,24,Yas Marina Circuit,104.527
691,1:46.148,16,47,GIO,2019,24,Yas Marina Circuit,106.148
692,1:44.370,16,48,GIO,2019,24,Yas Marina Circuit,104.37
693,1:44.172,16,49,GIO,2019,24,Yas Marina Circuit,104.172
694,1:44.268,16,50,GIO,2019,24,Yas Marina Circuit,104.268
695,1:44.021,16,51,GIO,2019,24,Yas Marina Circuit,104.021
696,1:44.332,16,52,GIO,2019,24,Yas Marina Circuit,104.332
697,1:44.305,16,53,GIO,2019,24,Yas Marina Circuit,104.305
698,1:44.562,16,54,GIO,2019,24,Yas Marina Circuit,104.562
699,1:54.906,14,1,RAI,2019,24,Yas Marina Circuit,114.906
700,1:48.246,15,2,RAI,2019,24,Yas Marina Circuit,108.246
701,1:47.032,15,3,RAI,2019,24,Yas Marina Circuit,107.032
702,1:46.667,15,4,RAI,2019,24,Yas Marina Circuit,106.667
703,1:46.663,14,5,RAI,2019,24,Yas Marina Circuit,106.663
704,1:45.630,14,6,RAI,2019,24,Yas Marina Circuit,105.63
705,1:45.745,14,7,RAI,2019,24,Yas Marina Circuit,105.745
706,1:46.175,13,8,RAI,2019,24,Yas Marina Circuit,106.175
707,1:45.471,12,9,RAI,2019,24,Yas Marina Circuit,105.471
708,1:45.992,12,10,RAI,2019,24,Yas Marina Circuit,105.992
709,1:45.972,12,11,RAI,2019,24,Yas Marina Circuit,105.972
710,1:45.811,11,12,RAI,2019,24,Yas Marina Circuit,105.811
711,1:45.634,10,13,RAI,2019,24,Yas Marina Circuit,105.634
712,1:45.607,10,14,RAI,2019,24,Yas Marina Circuit,105.607
713,1:45.501,10,15,RAI,2019,24,Yas Marina Circuit,105.501
714,1:45.365,10,16,RAI,2019,24,Yas Marina Circuit,105.365
715,1:45.762,10,17,RAI,2019,24,Yas Marina Circuit,105.762
716,1:45.364,10,18,RAI,2019,24,Yas Marina Circuit,105.364
717,1:45.547,9,19,RAI,2019,24,Yas Marina Circuit,105.547
718,1:45.222,8,20,RAI,2019,24,Yas Marina Circuit,105.222
719,1:46.397,9,21,RAI,2019,24,Yas Marina Circuit,106.397
720,1:47.583,9,22,RAI,2019,24,Yas Marina Circuit,107.583
721,2:04.375,14,23,RAI,2019,24,Yas Marina Circuit,124.375
722,1:43.214,14,24,RAI,2019,24,Yas Marina Circuit,103.214
723,1:43.142,14,25,RAI,2019,24,Yas Marina Circuit,103.142
724,1:43.583,14,26,RAI,2019,24,Yas Marina Circuit,103.583
725,1:43.356,14,27,RAI,2019,24,Yas Marina Circuit,103.356
726,1:44.493,14,28,RAI,2019,24,Yas Marina Circuit,104.493
727,1:43.555,14,29,RAI,2019,24,Yas Marina Circuit,103.555
728,1:43.631,14,30,RAI,2019,24,Yas Marina Circuit,103.631
729,1:43.476,14,31,RAI,2019,24,Yas Marina Circuit,103.476
730,1:43.672,14,32,RAI,2019,24,Yas Marina Circuit,103.672
731,1:43.920,14,33,RAI,2019,24,Yas Marina Circuit,103.92
732,1:44.091,14,34,RAI,2019,24,Yas Marina Circuit,104.091
733,1:44.174,14,35,RAI,2019,24,Yas Marina Circuit,104.174
734,1:44.366,14,36,RAI,2019,24,Yas Marina Circuit,104.366
735,1:45.727,14,37,RAI,2019,24,Yas Marina Circuit,105.727
736,1:43.371,13,38,RAI,2019,24,Yas Marina Circuit,103.371
737,1:44.139,13,39,RAI,2019,24,Yas Marina Circuit,104.139
738,1:43.863,13,40,RAI,2019,24,Yas Marina Circuit,103.863
739,1:43.686,13,41,RAI,2019,24,Yas Marina Circuit,103.686
740,1:43.325,12,42,RAI,2019,24,Yas Marina Circuit,103.325
741,1:43.403,11,43,RAI,2019,24,Yas Marina Circuit,103.403
742,1:45.900,11,44,RAI,2019,24,Yas Marina Circuit,105.9
743,1:43.216,11,45,RAI,2019,24,Yas Marina Circuit,103.216
744,1:45.176,12,46,RAI,2019,24,Yas Marina Circuit,105.176
745,1:43.950,6,13,BOT,2019,24,Yas Marina Circuit,103.95
746,1:44.362,5,14,BOT,2019,24,Yas Marina Circuit,104.362
747,1:44.608,5,15,BOT,2019,24,Yas Marina Circuit,104.608
748,1:44.406,5,16,BOT,2019,24,Yas Marina Circuit,104.406
749,1:45.423,5,17,BOT,2019,24,Yas Marina Circuit,105.423
750,1:43.384,4,18,BOT,2019,24,Yas Marina Circuit,103.384
751,1:43.312,4,19,BOT,2019,24,Yas Marina Circuit,103.312
752,1:42.747,4,20,BOT,2019,24,Yas Marina Circuit,102.747
753,1:42.608,4,21,BOT,2019,24,Yas Marina Circuit,102.608
754,1:42.809,4,22,BOT,2019,24,Yas Marina Circuit,102.809
755,1:42.590,4,23,BOT,2019,24,Yas Marina Circuit,102.59
756,1:42.753,4,24,BOT,2019,24,Yas Marina Circuit,102.753
757,1:42.518,4,25,BOT,2019,24,Yas Marina Circuit,102.518
758,1:42.904,4,26,BOT,2019,24,Yas Marina Circuit,102.904
759,1:42.828,4,27,BOT,2019,24,Yas Marina Circuit,102.828
760,1:42.912,4,28,BOT,2019,24,Yas Marina Circuit,102.912
761,1:44.574,4,29,BOT,2019,24,Yas Marina Circuit,104.574
762,2:01.245,6,30,BOT,2019,24,Yas Marina Circuit,121.245
763,1:39.715,6,31,BOT,2019,24,Yas Marina Circuit,99.715
764,1:40.953,6,32,BOT,2019,24,Yas Marina Circuit,100.953
765,1:41.269,6,33,BOT,2019,24,Yas Marina Circuit,101.269
766,1:41.403,6,34,BOT,2019,24,Yas Marina Circuit,101.403
767,1:42.600,6,35,BOT,2019,24,Yas Marina Circuit,102.6
768,1:41.693,6,36,BOT,2019,24,Yas Marina Circuit,101.693
769,1:42.014,6,37,BOT,2019,24,Yas Marina Circuit,102.014
770,1:42.780,5,38,BOT,2019,24,Yas Marina Circuit,102.78
771,1:41.785,4,39,BOT,2019,24,Yas Marina Circuit,101.785
772,1:42.305,4,40,BOT,2019,24,Yas Marina Circuit,102.305
773,1:42.246,4,41,BOT,2019,24,Yas Marina Circuit,102.246
774,1:41.706,4,42,BOT,2019,24,Yas Marina Circuit,101.706
775,1:42.048,4,43,BOT,2019,24,Yas Marina Circuit,102.048
776,1:41.409,4,44,BOT,2019,24,Yas Marina Circuit,101.409
777,1:40.852,4,45,BOT,2019,24,Yas Marina Circuit,100.852
778,1:40.865,4,46,BOT,2019,24,Yas Marina Circuit,100.865
779,1:41.009,4,47,BOT,2019,24,Yas Marina Circuit,101.009
780,1:40.844,4,48,BOT,2019,24,Yas Marina Circuit,100.844
781,1:40.517,4,49,BOT,2019,24,Yas Marina Circuit,100.517
782,1:40.864,4,50,BOT,2019,24,Yas Marina Circuit,100.864
783,1:41.390,4,51,BOT,2019,24,Yas Marina Circuit,101.39
784,1:41.054,4,52,BOT,2019,24,Yas Marina Circuit,101.054
785,1:41.553,4,53,BOT,2019,24,Yas Marina Circuit,101.553
786,1:41.001,4,54,BOT,2019,24,Yas Marina Circuit,101.001
787,1:42.180,4,55,BOT,2019,24,Yas Marina Circuit,102.18
788,1:55.917,16,1,KVY,2019,24,Yas Marina Circuit,115.917
789,1:48.069,16,2,KVY,2019,24,Yas Marina Circuit,108.069
790,1:47.238,16,3,KVY,2019,24,Yas Marina Circuit,107.238
791,1:46.754,16,4,KVY,2019,24,Yas Marina Circuit,106.754
792,1:46.950,16,5,KVY,2019,24,Yas Marina Circuit,106.95
793,1:45.771,15,6,KVY,2019,24,Yas Marina Circuit,105.771
794,1:45.579,15,7,KVY,2019,24,Yas Marina Circuit,105.579
795,1:45.908,15,8,KVY,2019,24,Yas Marina Circuit,105.908
796,1:45.494,13,9,KVY,2019,24,Yas Marina Circuit,105.494
797,1:45.769,13,10,KVY,2019,24,Yas Marina Circuit,105.769
798,1:45.907,13,11,KVY,2019,24,Yas Marina Circuit,105.907
799,1:45.952,12,12,KVY,2019,24,Yas Marina Circuit,105.952
800,1:45.784,11,13,KVY,2019,24,Yas Marina Circuit,105.784
801,1:45.475,11,14,KVY,2019,24,Yas Marina Circuit,105.475
802,1:45.543,11,15,KVY,2019,24,Yas Marina Circuit,105.543
803,1:45.401,11,16,KVY,2019,24,Yas Marina Circuit,105.401
804,1:45.691,11,17,KVY,2019,24,Yas Marina Circuit,105.691
805,1:45.496,11,18,KVY,2019,24,Yas Marina Circuit,105.496
806,1:45.411,10,19,KVY,2019,24,Yas Marina Circuit,105.411
807,1:45.145,10,20,KVY,2019,24,Yas Marina Circuit,105.145
808,1:43.768,8,21,KVY,2019,24,Yas Marina Circuit,103.768
809,1:44.516,8,22,KVY,2019,24,Yas Marina Circuit,104.516
810,1:44.188,8,23,KVY,2019,24,Yas Marina Circuit,104.188
811,1:44.020,8,24,KVY,2019,24,Yas Marina Circuit,104.02
812,1:43.933,8,25,KVY,2019,24,Yas Marina Circuit,103.933
813,1:43.688,8,26,KVY,2019,24,Yas Marina Circuit,103.688
814,1:43.661,8,27,KVY,2019,24,Yas Marina Circuit,103.661
815,1:43.587,8,28,KVY,2019,24,Yas Marina Circuit,103.587
816,1:43.529,8,29,KVY,2019,24,Yas Marina Circuit,103.529
817,1:43.484,8,30,KVY,2019,24,Yas Marina Circuit,103.484
818,1:43.648,8,31,KVY,2019,24,Yas Marina Circuit,103.648
819,1:43.579,8,32,KVY,2019,24,Yas Marina Circuit,103.579
820,1:43.294,8,33,KVY,2019,24,Yas Marina Circuit,103.294
821,1:43.415,8,34,KVY,2019,24,Yas Marina Circuit,103.415
822,1:43.559,8,35,KVY,2019,24,Yas Marina Circuit,103.559
823,1:44.235,8,36,KVY,2019,24,Yas Marina Circuit,104.235
824,1:45.941,8,37,KVY,2019,24,Yas Marina Circuit,105.941
825,1:43.424,7,38,KVY,2019,24,Yas Marina Circuit,103.424
826,1:43.607,7,39,KVY,2019,24,Yas Marina Circuit,103.607
827,1:45.782,7,40,KVY,2019,24,Yas Marina Circuit,105.782
828,2:03.697,12,41,KVY,2019,24,Yas Marina Circuit,123.697
829,1:42.222,10,42,KVY,2019,24,Yas Marina Circuit,102.222
830,1:42.578,10,43,KVY,2019,24,Yas Marina Circuit,102.578
831,1:42.404,10,44,KVY,2019,24,Yas Marina Circuit,102.404
832,1:42.575,10,45,KVY,2019,24,Yas Marina Circuit,102.575
833,1:43.362,9,46,KVY,2019,24,Yas Marina Circuit,103.362
834,1:43.653,9,47,KVY,2019,24,Yas Marina Circuit,103.653
835,1:43.069,9,48,KVY,2019,24,Yas Marina Circuit,103.069
836,1:45.030,9,49,KVY,2019,24,Yas Marina Circuit,105.03
837,1:43.032,9,50,KVY,2019,24,Yas Marina Circuit,103.032
838,1:43.109,9,51,KVY,2019,24,Yas Marina Circuit,103.109
839,1:43.372,9,52,KVY,2019,24,Yas Marina Circuit,103.372
840,1:43.322,9,53,KVY,2019,24,Yas Marina Circuit,103.322
841,1:43.699,9,54,KVY,2019,24,Yas Marina Circuit,103.699
842,1:56.282,17,1,GRO,2019,24,Yas Marina Circuit,116.282
843,1:48.297,17,2,GRO,2019,24,Yas Marina Circuit,108.297
844,1:47.533,17,3,GRO,2019,24,Yas Marina Circuit,107.533
845,1:47.210,17,4,GRO,2019,24,Yas Marina Circuit,107.21
846,1:46.641,17,5,GRO,2019,24,Yas Marina Circuit,106.641
847,1:46.670,16,6,GRO,2019,24,Yas Marina Circuit,106.67
848,1:46.300,16,7,GRO,2019,24,Yas Marina Circuit,106.3
849,1:46.235,16,8,GRO,2019,24,Yas Marina Circuit,106.235
850,1:46.048,14,9,GRO,2019,24,Yas Marina Circuit,106.048
851,1:46.225,14,10,GRO,2019,24,Yas Marina Circuit,106.225
852,1:46.042,14,11,GRO,2019,24,Yas Marina Circuit,106.042
853,1:45.917,13,12,GRO,2019,24,Yas Marina Circuit,105.917
854,1:45.871,12,13,GRO,2019,24,Yas Marina Circuit,105.871
855,1:45.573,12,14,GRO,2019,24,Yas Marina Circuit,105.573
856,1:45.594,12,15,GRO,2019,24,Yas Marina Circuit,105.594
857,1:45.577,12,16,GRO,2019,24,Yas Marina Circuit,105.577
858,1:45.330,12,17,GRO,2019,24,Yas Marina Circuit,105.33
859,1:49.975,15,18,GRO,2019,24,Yas Marina Circuit,109.975
860,2:05.987,19,19,GRO,2019,24,Yas Marina Circuit,125.987
861,1:45.146,19,20,GRO,2019,24,Yas Marina Circuit,105.146
862,1:46.289,19,21,GRO,2019,24,Yas Marina Circuit,106.289
863,1:44.952,19,22,GRO,2019,24,Yas Marina Circuit,104.952
864,1:46.589,18,23,GRO,2019,24,Yas Marina Circuit,106.589
865,1:45.725,18,24,GRO,2019,24,Yas Marina Circuit,105.725
866,1:45.493,17,25,GRO,2019,24,Yas Marina Circuit,105.493
867,1:44.628,16,26,GRO,2019,24,Yas Marina Circuit,104.628
868,1:44.032,15,27,GRO,2019,24,Yas Marina Circuit,104.032
869,1:44.002,15,28,GRO,2019,24,Yas Marina Circuit,104.002
870,1:46.501,15,29,GRO,2019,24,Yas Marina Circuit,106.501
871,1:43.959,15,30,GRO,2019,24,Yas Marina Circuit,103.959
872,1:43.866,15,31,GRO,2019,24,Yas Marina Circuit,103.866
873,1:43.702,15,32,GRO,2019,24,Yas Marina Circuit,103.702
874,1:43.666,15,33,GRO,2019,24,Yas Marina Circuit,103.666
875,1:43.736,15,34,GRO,2019,24,Yas Marina Circuit,103.736
876,1:44.021,15,35,GRO,2019,24,Yas Marina Circuit,104.021
877,1:46.517,15,36,GRO,2019,24,Yas Marina Circuit,106.517
878,1:43.958,15,37,GRO,2019,24,Yas Marina Circuit,103.958
879,1:43.887,15,38,GRO,2019,24,Yas Marina Circuit,103.887
880,1:43.909,15,39,GRO,2019,24,Yas Marina Circuit,103.909
881,1:44.646,15,40,GRO,2019,24,Yas Marina Circuit,104.646
882,1:44.258,15,41,GRO,2019,24,Yas Marina Circuit,104.258
883,1:43.999,15,42,GRO,2019,24,Yas Marina Circuit,103.999
884,1:44.082,15,43,GRO,2019,24,Yas Marina Circuit,104.082
885,1:49.178,15,44,GRO,2019,24,Yas Marina Circuit,109.178
886,1:43.787,15,45,GRO,2019,24,Yas Marina Circuit,103.787
887,1:45.965,15,46,GRO,2019,24,Yas Marina Circuit,105.965
888,1:44.101,15,47,GRO,2019,24,Yas Marina Circuit,104.101
889,1:43.961,15,48,GRO,2019,24,Yas Marina Circuit,103.961
890,1:44.003,15,49,GRO,2019,24,Yas Marina Circuit,104.003
891,1:43.851,15,50,GRO,2019,24,Yas Marina Circuit,103.851
892,1:47.784,15,51,GRO,2019,24,Yas Marina Circuit,107.784
893,1:43.900,15,52,GRO,2019,24,Yas Marina Circuit,103.9
894,1:44.875,15,53,GRO,2019,24,Yas Marina Circuit,104.875
895,1:44.192,15,54,GRO,2019,24,Yas Marina Circuit,104.192
896,1:57.409,18,1,KUB,2019,24,Yas Marina Circuit,117.409
897,1:48.621,18,2,KUB,2019,24,Yas Marina Circuit,108.621
898,1:47.740,18,3,KUB,2019,24,Yas Marina Circuit,107.74
899,1:47.584,18,4,KUB,2019,24,Yas Marina Circuit,107.584
900,1:47.599,18,5,KUB,2019,24,Yas Marina Circuit,107.599
901,1:47.126,17,6,KUB,2019,24,Yas Marina Circuit,107.126
902,1:47.021,17,7,KUB,2019,24,Yas Marina Circuit,107.021
903,1:46.566,17,8,KUB,2019,24,Yas Marina Circuit,106.566
904,1:46.619,15,9,KUB,2019,24,Yas Marina Circuit,106.619
905,1:47.430,16,10,KUB,2019,24,Yas Marina Circuit,107.43
906,1:46.924,16,11,KUB,2019,24,Yas Marina Circuit,106.924
907,1:46.870,16,12,KUB,2019,24,Yas Marina Circuit,106.87
908,1:47.047,16,13,KUB,2019,24,Yas Marina Circuit,107.047
909,1:46.704,16,14,KUB,2019,24,Yas Marina Circuit,106.704
910,1:46.344,16,15,KUB,2019,24,Yas Marina Circuit,106.344
911,1:46.538,16,16,KUB,2019,24,Yas Marina Circuit,106.538
912,1:46.332,16,17,KUB,2019,24,Yas Marina Circuit,106.332
913,1:46.314,16,18,KUB,2019,24,Yas Marina Circuit,106.314
914,1:46.614,15,19,KUB,2019,24,Yas Marina Circuit,106.614
915,1:46.279,15,20,KUB,2019,24,Yas Marina Circuit,106.279
916,1:46.501,15,21,KUB,2019,24,Yas Marina Circuit,106.501
917,1:48.044,15,22,KUB,2019,24,Yas Marina Circuit,108.044
918,1:47.675,15,23,KUB,2019,24,Yas Marina Circuit,107.675
919,1:49.673,17,24,KUB,2019,24,Yas Marina Circuit,109.673
920,2:06.468,19,25,KUB,2019,24,Yas Marina Circuit,126.468
921,1:46.517,19,26,KUB,2019,24,Yas Marina Circuit,106.517
922,1:45.771,19,27,KUB,2019,24,Yas Marina Circuit,105.771
923,1:45.494,19,28,KUB,2019,24,Yas Marina Circuit,105.494
924,1:45.235,19,29,KUB,2019,24,Yas Marina Circuit,105.235
925,1:45.321,19,30,KUB,2019,24,Yas Marina Circuit,105.321
926,1:45.417,19,31,KUB,2019,24,Yas Marina Circuit,105.417
927,1:46.144,19,32,KUB,2019,24,Yas Marina Circuit,106.144
928,1:48.665,18,33,KUB,2019,24,Yas Marina Circuit,108.665
929,1:46.831,18,34,KUB,2019,24,Yas Marina Circuit,106.831
930,1:46.595,19,35,KUB,2019,24,Yas Marina Circuit,106.595
931,1:45.995,19,36,KUB,2019,24,Yas Marina Circuit,105.995
932,1:45.089,19,37,KUB,2019,24,Yas Marina Circuit,105.089
933,1:45.085,19,38,KUB,2019,24,Yas Marina Circuit,105.085
934,1:46.577,19,39,KUB,2019,24,Yas Marina Circuit,106.577
935,1:45.214,19,40,KUB,2019,24,Yas Marina Circuit,105.214
936,1:45.127,19,41,KUB,2019,24,Yas Marina Circuit,105.127
937,1:45.280,19,42,KUB,2019,24,Yas Marina Circuit,105.28
938,1:45.694,19,43,KUB,2019,24,Yas Marina Circuit,105.694
939,1:45.636,19,44,KUB,2019,24,Yas Marina Circuit,105.636
940,1:45.419,19,45,KUB,2019,24,Yas Marina Circuit,105.419
941,1:47.004,19,46,KUB,2019,24,Yas Marina Circuit,107.004
942,1:46.841,19,47,KUB,2019,24,Yas Marina Circuit,106.841
943,1:45.357,19,48,KUB,2019,24,Yas Marina Circuit,105.357
944,1:44.721,19,49,KUB,2019,24,Yas Marina Circuit,104.721
945,1:44.506,19,50,KUB,2019,24,Yas Marina Circuit,104.506
946,1:44.500,19,51,KUB,2019,24,Yas Marina Circuit,104.5
947,1:46.028,19,52,KUB,2019,24,Yas Marina Circuit,106.028
948,1:45.368,19,53,KUB,2019,24,Yas Marina Circuit,105.368
949,1:57.917,19,1,RUS,2019,24,Yas Marina Circuit,117.917
950,1:48.754,19,2,RUS,2019,24,Yas Marina Circuit,108.754
951,1:47.893,19,3,RUS,2019,24,Yas Marina Circuit,107.893
952,1:47.818,19,4,RUS,2019,24,Yas Marina Circuit,107.818
953,1:47.438,19,5,RUS,2019,24,Yas Marina Circuit,107.438
954,1:47.339,18,6,RUS,2019,24,Yas Marina Circuit,107.339
955,1:47.227,18,7,RUS,2019,24,Yas Marina Circuit,107.227
956,1:46.609,18,8,RUS,2019,24,Yas Marina Circuit,106.609
957,1:47.686,17,9,RUS,2019,24,Yas Marina Circuit,107.686
958,1:46.726,17,10,RUS,2019,24,Yas Marina Circuit,106.726
959,1:46.717,17,11,RUS,2019,24,Yas Marina Circuit,106.717
960,1:46.548,17,12,RUS,2019,24,Yas Marina Circuit,106.548
961,1:46.958,17,13,RUS,2019,24,Yas Marina Circuit,106.958
962,1:46.673,17,14,RUS,2019,24,Yas Marina Circuit,106.673
963,1:46.627,17,15,RUS,2019,24,Yas Marina Circuit,106.627
964,1:46.765,17,16,RUS,2019,24,Yas Marina Circuit,106.765
965,1:46.219,17,17,RUS,2019,24,Yas Marina Circuit,106.219
966,1:46.254,17,18,RUS,2019,24,Yas Marina Circuit,106.254
967,1:48.326,17,19,RUS,2019,24,Yas Marina Circuit,108.326
968,1:46.385,17,20,RUS,2019,24,Yas Marina Circuit,106.385
969,1:46.488,17,21,RUS,2019,24,Yas Marina Circuit,106.488
970,1:48.412,17,22,RUS,2019,24,Yas Marina Circuit,108.412
971,1:47.236,17,23,RUS,2019,24,Yas Marina Circuit,107.236
972,1:46.116,16,24,RUS,2019,24,Yas Marina Circuit,106.116
973,1:45.510,16,25,RUS,2019,24,Yas Marina Circuit,105.51
974,1:47.187,17,26,RUS,2019,24,Yas Marina Circuit,107.187
975,1:45.710,16,27,RUS,2019,24,Yas Marina Circuit,105.71
976,1:46.750,16,28,RUS,2019,24,Yas Marina Circuit,106.75
977,1:45.543,16,29,RUS,2019,24,Yas Marina Circuit,105.543
978,1:45.446,16,30,RUS,2019,24,Yas Marina Circuit,105.446
979,1:48.521,16,31,RUS,2019,24,Yas Marina Circuit,108.521
980,1:47.796,16,32,RUS,2019,24,Yas Marina Circuit,107.796
981,2:05.668,19,33,RUS,2019,24,Yas Marina Circuit,125.668
982,1:44.917,19,34,RUS,2019,24,Yas Marina Circuit,104.917
983,1:43.973,18,35,RUS,2019,24,Yas Marina Circuit,103.973
984,1:44.346,18,36,RUS,2019,24,Yas Marina Circuit,104.346
985,1:44.384,18,37,RUS,2019,24,Yas Marina Circuit,104.384
986,1:44.347,18,38,RUS,2019,24,Yas Marina Circuit,104.347
987,1:44.353,18,39,RUS,2019,24,Yas Marina Circuit,104.353
988,1:43.914,18,40,RUS,2019,24,Yas Marina Circuit,103.914
989,1:46.846,18,41,RUS,2019,24,Yas Marina Circuit,106.846
990,1:44.207,18,42,RUS,2019,24,Yas Marina Circuit,104.207
991,1:43.987,18,43,RUS,2019,24,Yas Marina Circuit,103.987
992,1:44.265,18,44,RUS,2019,24,Yas Marina Circuit,104.265
993,1:43.907,17,45,RUS,2019,24,Yas Marina Circuit,103.907
994,1:43.838,17,46,RUS,2019,24,Yas Marina Circuit,103.838
995,1:43.400,17,47,RUS,2019,24,Yas Marina Circuit,103.4
996,1:43.426,17,48,RUS,2019,24,Yas Marina Circuit,103.426
997,1:43.579,17,49,RUS,2019,24,Yas Marina Circuit,103.579
998,1:43.074,17,50,RUS,2019,24,Yas Marina Circuit,103.074
999,1:43.192,17,51,RUS,2019,24,Yas Marina Circuit,103.192
1000,1:43.187,17,52,RUS,2019,24,Yas Marina Circuit,103.187
1001,1:43.089,17,53,RUS,2019,24,Yas Marina Circuit,103.089
1002,1:44.006,17,54,RUS,2019,24,Yas Marina Circuit,104.006
1003,2:04.421,20,1,GAS,2019,24,Yas Marina Circuit,124.421
1004,3:01.543,20,2,GAS,2019,24,Yas Marina Circuit,181.543
1005,1:44.794,20,3,GAS,2019,24,Yas Marina Circuit,104.794
1006,1:46.761,20,4,GAS,2019,24,Yas Marina Circuit,106.761
1007,1:50.264,20,5,GAS,2019,24,Yas Marina Circuit,110.264
1008,1:45.844,20,6,GAS,2019,24,Yas Marina Circuit,105.844
1009,1:47.400,20,7,GAS,2019,24,Yas Marina Circuit,107.4
1010,1:45.217,20,8,GAS,2019,24,Yas Marina Circuit,105.217
1011,1:45.226,20,9,GAS,2019,24,Yas Marina Circuit,105.226
1012,1:45.253,20,10,GAS,2019,24,Yas Marina Circuit,105.253
1013,1:45.038,20,11,GAS,2019,24,Yas Marina Circuit,105.038
1014,1:45.142,20,12,GAS,2019,24,Yas Marina Circuit,105.142
1015,1:45.971,20,13,GAS,2019,24,Yas Marina Circuit,105.971
1016,1:44.726,20,14,GAS,2019,24,Yas Marina Circuit,104.726
1017,1:44.837,20,15,GAS,2019,24,Yas Marina Circuit,104.837
1018,1:44.866,20,16,GAS,2019,24,Yas Marina Circuit,104.866
1019,1:44.948,20,17,GAS,2019,24,Yas Marina Circuit,104.948
1020,1:44.422,20,18,GAS,2019,24,Yas Marina Circuit,104.422
1021,1:44.604,20,19,GAS,2019,24,Yas Marina Circuit,104.604
1022,1:44.427,20,20,GAS,2019,24,Yas Marina Circuit,104.427
1023,1:44.413,20,21,GAS,2019,24,Yas Marina Circuit,104.413
1024,1:46.524,20,22,GAS,2019,24,Yas Marina Circuit,106.524
1025,1:46.863,20,23,GAS,2019,24,Yas Marina Circuit,106.863
1026,1:46.202,20,24,GAS,2019,24,Yas Marina Circuit,106.202
1027,1:44.889,20,25,GAS,2019,24,Yas Marina Circuit,104.889
1028,1:44.631,20,26,GAS,2019,24,Yas Marina Circuit,104.631
1029,1:44.194,20,27,GAS,2019,24,Yas Marina Circuit,104.194
1030,1:44.161,20,28,GAS,2019,24,Yas Marina Circuit,104.161
1031,1:44.176,20,29,GAS,2019,24,Yas Marina Circuit,104.176
1032,1:45.412,20,30,GAS,2019,24,Yas Marina Circuit,105.412
1033,1:44.254,20,31,GAS,2019,24,Yas Marina Circuit,104.254
1034,1:43.827,20,32,GAS,2019,24,Yas Marina Circuit,103.827
1035,1:44.428,20,33,GAS,2019,24,Yas Marina Circuit,104.428
1036,1:44.120,20,34,GAS,2019,24,Yas Marina Circuit,104.12
1037,1:43.941,20,35,GAS,2019,24,Yas Marina Circuit,103.941
1038,1:43.805,20,36,GAS,2019,24,Yas Marina Circuit,103.805
1039,1:43.680,20,37,GAS,2019,24,Yas Marina Circuit,103.68
1040,1:46.152,20,38,GAS,2019,24,Yas Marina Circuit,106.152
1041,1:44.226,20,39,GAS,2019,24,Yas Marina Circuit,104.226
1042,1:44.066,20,40,GAS,2019,24,Yas Marina Circuit,104.066
1043,1:44.720,20,41,GAS,2019,24,Yas Marina Circuit,104.72
1044,1:45.016,20,42,GAS,2019,24,Yas Marina Circuit,105.016
1045,1:45.526,20,43,GAS,2019,24,Yas Marina Circuit,105.526
1046,1:45.596,20,44,GAS,2019,24,Yas Marina Circuit,105.596
1047,1:45.446,20,45,GAS,2019,24,Yas Marina Circuit,105.446
1048,1:44.633,18,46,GAS,2019,24,Yas Marina Circuit,104.633
1049,1:43.905,18,47,GAS,2019,24,Yas Marina Circuit,103.905
1050,1:45.470,18,48,GAS,2019,24,Yas Marina Circuit,105.47
1051,1:43.719,18,49,GAS,2019,24,Yas Marina Circuit,103.719
1052,1:42.820,18,50,GAS,2019,24,Yas Marina Circuit,102.82
1053,1:42.814,18,51,GAS,2019,24,Yas Marina Circuit,102.814
1054,1:45.254,18,52,GAS,2019,24,Yas Marina Circuit,105.254
1055,1:42.414,18,53,GAS,2019,24,Yas Marina Circuit,102.414
1056,1:43.561,12,47,RAI,2019,24,Yas Marina Circuit,103.561
1057,1:43.222,12,48,RAI,2019,24,Yas Marina Circuit,103.222
1058,1:44.116,13,49,RAI,2019,24,Yas Marina Circuit,104.116
1059,1:43.430,13,50,RAI,2019,24,Yas Marina Circuit,103.43
1060,1:43.609,13,51,RAI,2019,24,Yas Marina Circuit,103.609
1061,1:43.391,13,52,RAI,2019,24,Yas Marina Circuit,103.391
1062,1:44.614,13,53,RAI,2019,24,Yas Marina Circuit,104.614
1063,1:43.406,13,54,RAI,2019,24,Yas Marina Circuit,103.406
1064,1:55.218,15,1,BOT,2019,24,Yas Marina Circuit,115.218
1065,1:47.442,14,2,BOT,2019,24,Yas Marina Circuit,107.442
1066,1:46.669,14,3,BOT,2019,24,Yas Marina Circuit,106.669
1067,1:46.766,14,4,BOT,2019,24,Yas Marina Circuit,106.766
1068,1:44.794,13,5,BOT,2019,24,Yas Marina Circuit,104.794
1069,1:45.256,12,6,BOT,2019,24,Yas Marina Circuit,105.256
1070,1:44.608,11,7,BOT,2019,24,Yas Marina Circuit,104.608
1071,1:44.237,11,8,BOT,2019,24,Yas Marina Circuit,104.237
1072,1:44.742,10,9,BOT,2019,24,Yas Marina Circuit,104.742
1073,1:45.173,10,10,BOT,2019,24,Yas Marina Circuit,105.173
1074,1:45.062,10,11,BOT,2019,24,Yas Marina Circuit,105.062
