,lap,driver,position,time,secs
0,1,max_verstappen,1,1:38.603,98.603
1,1,hamilton,2,1:42.572,102.572
2,1,leclerc,3,1:47.198,107.198
3,1,perez,4,1:47.814,107.814
4,1,ricciardo,5,1:52.843,112.843
5,1,gasly,6,1:54.003,114.003
6,1,stroll,7,1:55.367,115.367
7,1,sainz,8,1:57.218,117.218
8,1,norris,9,1:59.977,119.977
9,1,bottas,10,2:00.892,120.892
10,1,russell,11,2:02.630,122.63
11,1,raikkonen,12,2:03.999,123.999
12,1,giovinazzi,13,2:05.332,125.332
13,1,ocon,14,2:05.387,125.387
14,1,tsunoda,15,2:09.267,129.267
15,1,mick_schumacher,16,2:09.679,129.679
16,1,alonso,17,2:10.127,130.127
17,1,vettel,18,2:11.207,131.207
18,1,mazepin,19,2:13.405,133.405
19,2,max_verstappen,1,2:29.163,149.163
20,2,hamilton,2,2:28.397,148.397
21,2,leclerc,3,2:25.323,145.323
22,2,perez,4,2:26.227,146.227
23,2,ricciardo,5,2:22.588,142.588
24,2,gasly,6,2:23.030,143.03
25,2,stroll,7,2:23.355,143.355
26,2,sainz,8,2:22.547,142.547
27,2,norris,9,2:22.471,142.471
28,2,bottas,10,2:22.900,142.9
29,2,russell,11,2:23.543,143.543
30,2,raikkonen,12,2:23.752,143.752
31,2,giovinazzi,13,2:23.868,143.868
32,2,tsunoda,14,2:21.016,141.016
33,2,mick_schumacher,15,2:21.704,141.704
34,2,alonso,16,2:23.276,143.276
35,2,vettel,17,2:24.647,144.647
36,2,mazepin,18,2:26.056,146.056
37,2,ocon,19,2:35.352,155.352
38,3,max_verstappen,1,2:23.247,143.247
39,3,hamilton,2,2:21.831,141.831
40,3,leclerc,3,2:21.062,141.062
41,3,perez,4,2:20.741,140.741
42,3,ricciardo,5,2:20.636,140.636
43,3,gasly,6,2:20.848,140.848
44,3,stroll,7,2:21.212,141.212
45,3,sainz,8,2:21.308,141.308
46,3,norris,9,2:19.843,139.843
47,3,bottas,10,2:20.725,140.725
48,3,russell,11,2:20.650,140.65
49,3,raikkonen,12,2:20.380,140.38
50,3,giovinazzi,13,2:20.385,140.385
51,3,tsunoda,14,2:20.548,140.548
52,3,mick_schumacher,15,2:20.080,140.08
53,3,alonso,16,2:19.978,139.978
54,3,mazepin,17,2:18.071,138.071
55,3,ocon,18,2:17.933,137.933
56,3,vettel,19,2:22.980,142.98
57,4,max_verstappen,1,2:20.332,140.332
58,4,hamilton,2,2:21.660,141.66
59,4,leclerc,3,2:22.840,142.84
60,4,perez,4,2:22.893,142.893
61,4,ricciardo,5,2:24.931,144.931
62,4,gasly,6,2:24.697,144.697
63,4,stroll,7,2:23.912,143.912
64,4,sainz,8,2:26.446,146.446
65,4,norris,9,2:27.079,147.079
66,4,bottas,10,2:25.912,145.912
67,4,russell,11,2:26.172,146.172
68,4,raikkonen,12,2:26.822,146.822
69,4,giovinazzi,13,2:26.814,146.814
70,4,tsunoda,14,2:26.700,146.7
71,4,alonso,15,2:25.540,145.54
72,4,mazepin,16,2:22.477,142.477
73,4,ocon,17,2:22.503,142.503
74,4,vettel,18,2:25.242,145.242
75,4,mick_schumacher,19,2:43.646,163.646
76,5,max_verstappen,1,2:25.691,145.691
77,5,hamilton,2,2:25.146,145.146
78,5,leclerc,3,2:25.489,145.489
79,5,perez,4,2:25.257,145.257
80,5,ricciardo,5,2:24.261,144.261
81,5,gasly,6,2:23.932,143.932
82,5,stroll,7,2:23.822,143.822
83,5,sainz,8,2:21.700,141.7
84,5,norris,9,2:21.984,141.984
85,5,bottas,10,2:23.930,143.93
86,5,russell,11,2:23.405,143.405
87,5,raikkonen,12,2:23.239,143.239
88,5,giovinazzi,13,2:23.313,143.313
89,5,tsunoda,14,2:23.251,143.251
90,5,alonso,15,2:22.849,142.849
91,5,mazepin,16,2:23.337,143.337
92,5,ocon,17,2:23.527,143.527
93,5,vettel,18,2:22.250,142.25
94,5,mick_schumacher,19,2:25.633,145.633
95,6,max_verstappen,1,2:20.804,140.804
96,6,hamilton,2,2:18.618,138.618
97,6,leclerc,3,2:16.873,136.873
98,6,perez,4,2:16.344,136.344
99,6,ricciardo,5,2:14.861,134.861
100,6,gasly,6,2:13.841,133.841
101,6,stroll,7,2:13.470,133.47
102,6,sainz,8,2:12.383,132.383
103,6,norris,9,2:10.516,130.516
104,6,bottas,10,2:07.949,127.949
105,6,russell,11,2:06.591,126.591
106,6,raikkonen,12,2:05.657,125.657
107,6,giovinazzi,13,2:04.766,124.766
108,6,tsunoda,14,2:04.808,124.808
109,6,alonso,15,2:04.153,124.153
110,6,mazepin,16,2:04.816,124.816
111,6,ocon,17,2:03.615,123.615
112,6,vettel,18,2:02.494,122.494
113,6,mick_schumacher,19,2:26.613,146.613
114,7,max_verstappen,1,1:36.303,96.303
115,7,hamilton,2,1:39.225,99.225
116,7,leclerc,3,1:39.585,99.585
117,7,perez,4,1:42.175,102.175
118,7,ricciardo,5,1:43.179,103.179
119,7,gasly,6,1:45.639,105.639
120,7,sainz,7,1:44.461,104.461
121,7,norris,8,1:44.428,104.428
122,7,stroll,9,1:45.488,105.488
123,7,bottas,10,1:44.829,104.829
124,7,russell,11,1:45.621,105.621
125,7,raikkonen,12,1:45.309,105.309
126,7,giovinazzi,13,1:45.362,105.362
127,7,tsunoda,14,1:45.185,105.185
128,7,alonso,15,1:44.943,104.943
129,7,ocon,16,1:43.577,103.577
130,7,vettel,17,1:43.631,103.631
131,7,mazepin,18,1:47.421,107.421
132,7,mick_schumacher,19,1:40.345,100.345
133,8,max_verstappen,1,1:32.925,92.925
134,8,hamilton,2,1:34.591,94.591
135,8,leclerc,3,1:34.848,94.848
136,8,perez,4,1:37.922,97.922
137,8,ricciardo,5,1:39.234,99.234
138,8,gasly,6,1:38.549,98.549
139,8,norris,7,1:38.389,98.389
140,8,sainz,8,1:40.499,100.499
141,8,stroll,9,1:40.872,100.872
142,8,bottas,10,1:41.601,101.601
143,8,russell,11,1:41.315,101.315
144,8,raikkonen,12,1:41.417,101.417
145,8,giovinazzi,13,1:41.536,101.536
146,8,tsunoda,14,1:41.228,101.228
147,8,alonso,15,1:41.792,101.792
148,8,ocon,16,1:41.365,101.365
149,8,vettel,17,1:41.300,101.3
150,8,mazepin,18,1:43.599,103.599
151,8,mick_schumacher,19,1:41.258,101.258
152,9,max_verstappen,1,1:30.953,90.953
153,9,hamilton,2,1:31.302,91.302
154,9,leclerc,3,1:32.511,92.511
155,9,perez,4,1:34.397,94.397
156,9,ricciardo,5,1:35.671,95.671
157,9,norris,6,1:34.898,94.898
158,9,sainz,7,1:36.901,96.901
159,9,gasly,8,1:40.324,100.324
160,9,stroll,9,1:37.859,97.859
161,9,bottas,10,1:37.303,97.303
162,9,russell,11,1:37.797,97.797
163,9,raikkonen,12,1:38.993,98.993
164,9,giovinazzi,13,1:38.446,98.446
165,9,tsunoda,14,1:39.778,99.778
166,9,alonso,15,1:39.432,99.432
167,9,ocon,16,1:39.646,99.646
168,9,vettel,17,1:39.784,99.784
169,9,mazepin,18,1:41.907,101.907
170,9,mick_schumacher,19,1:38.300,98.3
171,10,max_verstappen,1,1:30.130,90.13
172,10,hamilton,2,1:30.100,90.1
173,10,leclerc,3,1:31.679,91.679
174,10,perez,4,1:33.119,93.119
175,10,ricciardo,5,1:33.429,93.429
176,10,norris,6,1:33.029,93.029
177,10,sainz,7,1:36.070,96.07
178,10,gasly,8,1:37.475,97.475
179,10,stroll,9,1:37.471,97.471
180,10,bottas,10,1:37.736,97.736
181,10,russell,11,1:36.863,96.863
182,10,raikkonen,12,1:36.052,96.052
183,10,giovinazzi,13,1:36.764,96.764
184,10,tsunoda,14,1:36.507,96.507
185,10,ocon,15,1:36.693,96.693
186,10,vettel,16,1:36.740,96.74
187,10,alonso,17,1:39.713,99.713
188,10,mazepin,18,1:40.809,100.809
189,10,mick_schumacher,19,1:36.089,96.089
190,11,max_verstappen,1,1:29.168,89.168
191,11,hamilton,2,1:28.724,88.724
192,11,leclerc,3,1:30.706,90.706
193,11,perez,4,1:31.563,91.563
194,11,ricciardo,5,1:33.100,93.1
195,11,norris,6,1:32.971,92.971
196,11,sainz,7,1:30.757,90.757
197,11,stroll,8,1:35.223,95.223
198,11,gasly,9,1:38.770,98.77
199,11,bottas,10,1:37.553,97.553
200,11,russell,11,1:37.841,97.841
201,11,raikkonen,12,1:37.682,97.682
202,11,giovinazzi,13,1:37.105,97.105
203,11,tsunoda,14,1:36.254,96.254
204,11,ocon,15,1:35.556,95.556
205,11,vettel,16,1:35.300,95.3
206,11,alonso,17,1:35.079,95.079
207,11,mazepin,18,1:41.711,101.711
208,11,mick_schumacher,19,1:34.933,94.933
209,12,max_verstappen,1,1:28.814,88.814
210,12,hamilton,2,1:28.592,88.592
211,12,leclerc,3,1:30.268,90.268
212,12,perez,4,1:30.344,90.344
213,12,ricciardo,5,1:31.484,91.484
214,12,norris,6,1:31.482,91.482
215,12,sainz,7,1:29.461,89.461
216,12,stroll,8,1:33.429,93.429
217,12,bottas,9,1:32.386,92.386
218,12,gasly,10,1:37.121,97.121
219,12,russell,11,1:36.096,96.096
220,12,raikkonen,12,1:36.037,96.037
221,12,giovinazzi,13,1:36.193,96.193
222,12,tsunoda,14,1:36.303,96.303
223,12,ocon,15,1:36.049,96.049
224,12,vettel,16,1:36.106,96.106
225,12,alonso,17,1:35.295,95.295
226,12,mazepin,18,1:45.258,105.258
227,12,mick_schumacher,19,1:33.667,93.667
228,13,max_verstappen,1,1:28.119,88.119
229,13,hamilton,2,1:28.250,88.25
230,13,leclerc,3,1:29.440,89.44
231,13,perez,4,1:29.822,89.822
232,13,ricciardo,5,1:30.824,90.824
233,13,norris,6,1:31.918,91.918
234,13,sainz,7,1:38.279,98.279
235,13,stroll,8,1:31.981,91.981
236,13,bottas,9,1:31.538,91.538
237,13,russell,10,1:32.220,92.22
238,13,raikkonen,11,1:33.403,93.403
239,13,giovinazzi,12,1:34.176,94.176
240,13,tsunoda,13,1:36.642,96.642
241,13,gasly,14,1:40.823,100.823
242,13,vettel,15,1:37.804,97.804
243,13,ocon,16,1:38.886,98.886
244,13,alonso,17,1:38.046,98.046
245,13,mick_schumacher,18,1:37.606,97.606
246,13,mazepin,19,2:04.703,124.703
247,14,max_verstappen,1,1:27.740,87.74
248,14,hamilton,2,1:28.029,88.029
249,14,leclerc,3,1:29.089,89.089
250,14,perez,4,1:29.415,89.415
251,14,ricciardo,5,1:30.648,90.648
252,14,norris,6,1:29.719,89.719
253,14,sainz,7,1:29.581,89.581
254,14,stroll,8,1:31.126,91.126
255,14,bottas,9,1:31.124,91.124
256,14,russell,10,1:31.380,91.38
257,14,raikkonen,11,1:32.014,92.014
258,14,giovinazzi,12,1:31.684,91.684
259,14,tsunoda,13,1:31.729,91.729
260,14,vettel,14,1:31.392,91.392
261,14,ocon,15,1:34.603,94.603
262,14,alonso,16,1:35.044,95.044
263,14,gasly,17,1:40.055,100.055
264,14,mick_schumacher,18,1:33.178,93.178
265,14,mazepin,19,1:38.394,98.394
266,15,max_verstappen,1,1:27.059,87.059
267,15,hamilton,2,1:27.072,87.072
268,15,leclerc,3,1:28.806,88.806
269,15,perez,4,1:28.659,88.659
270,15,ricciardo,5,1:30.275,90.275
271,15,norris,6,1:30.113,90.113
272,15,sainz,7,1:28.696,88.696
273,15,stroll,8,1:30.689,90.689
274,15,bottas,9,1:30.774,90.774
275,15,russell,10,1:30.729,90.729
276,15,raikkonen,11,1:30.908,90.908
277,15,giovinazzi,12,1:31.168,91.168
278,15,tsunoda,13,1:30.978,90.978
279,15,vettel,14,1:30.759,90.759
280,15,ocon,15,1:30.935,90.935
281,15,alonso,16,1:31.981,91.981
282,15,mick_schumacher,17,1:33.651,93.651
283,15,gasly,18,2:01.674,121.674
284,15,mazepin,19,1:37.178,97.178
285,16,max_verstappen,1,1:26.597,86.597
286,16,hamilton,2,1:26.578,86.578
287,16,leclerc,3,1:29.571,89.571
288,16,perez,4,1:27.923,87.923
289,16,ricciardo,5,1:29.075,89.075
290,16,norris,6,1:28.964,88.964
291,16,sainz,7,1:28.981,88.981
292,16,stroll,8,1:29.930,89.93
293,16,bottas,9,1:29.260,89.26
294,16,russell,10,1:30.127,90.127
295,16,raikkonen,11,1:29.757,89.757
296,16,giovinazzi,12,1:30.411,90.411
297,16,tsunoda,13,1:29.997,89.997
298,16,vettel,14,1:30.212,90.212
299,16,ocon,15,1:29.687,89.687
300,16,alonso,16,1:30.330,90.33
301,16,mick_schumacher,17,1:31.196,91.196
302,16,gasly,18,1:29.982,89.982
303,16,mazepin,19,1:34.541,94.541
304,17,max_verstappen,1,1:26.605,86.605
305,17,hamilton,2,1:27.501,87.501
306,17,leclerc,3,1:28.137,88.137
307,17,perez,4,1:27.448,87.448
308,17,norris,5,1:27.946,87.946
309,17,ricciardo,6,1:31.383,91.383
310,17,sainz,7,1:27.878,87.878
311,17,stroll,8,1:29.564,89.564
312,17,bottas,9,1:29.446,89.446
313,17,russell,10,1:29.937,89.937
314,17,raikkonen,11,1:29.373,89.373
315,17,giovinazzi,12,1:29.378,89.378
316,17,tsunoda,13,1:29.331,89.331
317,17,vettel,14,1:29.953,89.953
318,17,ocon,15,1:29.123,89.123
319,17,alonso,16,1:29.978,89.978
320,17,mick_schumacher,17,1:30.704,90.704
321,17,gasly,18,1:30.990,90.99
322,17,mazepin,19,1:35.922,95.922
323,18,max_verstappen,1,1:27.002,87.002
324,18,hamilton,2,1:26.640,86.64
325,18,leclerc,3,1:27.540,87.54
326,18,perez,4,1:28.179,88.179
327,18,norris,5,1:27.101,87.101
328,18,ricciardo,6,1:28.578,88.578
329,18,sainz,7,1:28.087,88.087
330,18,stroll,8,1:29.866,89.866
331,18,bottas,9,1:29.931,89.931
332,18,russell,10,1:28.971,88.971
333,18,raikkonen,11,1:28.782,88.782
334,18,giovinazzi,12,1:29.283,89.283
335,18,tsunoda,13,1:29.281,89.281
336,18,vettel,14,1:29.497,89.497
337,18,ocon,15,1:28.971,88.971
338,18,alonso,16,1:30.802,90.802
339,18,mick_schumacher,17,1:31.330,91.33
340,18,gasly,18,1:28.948,88.948
341,18,mazepin,19,1:32.090,92.09
342,19,max_verstappen,1,1:27.068,87.068
343,19,hamilton,2,1:27.021,87.021
344,19,leclerc,3,1:28.092,88.092
345,19,perez,4,1:26.933,86.933
346,19,norris,5,1:27.049,87.049
347,19,ricciardo,6,1:28.823,88.823
348,19,sainz,7,1:27.853,87.853
349,19,stroll,8,1:28.700,88.7
350,19,bottas,9,1:28.844,88.844
351,19,russell,10,1:30.570,90.57
352,19,raikkonen,11,1:29.543,89.543
353,19,giovinazzi,12,1:29.946,89.946
354,19,tsunoda,13,1:29.051,89.051
355,19,vettel,14,1:30.034,90.034
356,19,ocon,15,1:28.708,88.708
357,19,alonso,16,1:28.275,88.275
358,19,mick_schumacher,17,1:30.214,90.214
359,19,gasly,18,1:29.568,89.568
360,19,mazepin,19,1:37.635,97.635
361,20,max_verstappen,1,1:27.097,87.097
362,20,hamilton,2,1:26.959,86.959
363,20,leclerc,3,1:28.526,88.526
364,20,perez,4,1:26.456,86.456
365,20,norris,5,1:27.419,87.419
366,20,ricciardo,6,1:28.221,88.221
367,20,sainz,7,1:28.537,88.537
368,20,stroll,8,1:28.349,88.349
369,20,bottas,9,1:28.511,88.511
370,20,russell,10,1:29.121,89.121
371,20,raikkonen,11,1:29.795,89.795
372,20,giovinazzi,12,1:29.746,89.746
373,20,tsunoda,13,1:29.392,89.392
374,20,ocon,14,1:32.243,92.243
375,20,alonso,15,1:29.093,89.093
376,20,vettel,16,1:38.583,98.583
377,20,gasly,17,1:28.735,88.735
378,20,mick_schumacher,18,1:34.379,94.379
379,20,mazepin,19,1:32.301,92.301
380,21,max_verstappen,1,1:28.626,88.626
381,21,hamilton,2,1:28.283,88.283
382,21,leclerc,3,1:27.624,87.624
383,21,perez,4,1:27.667,87.667
384,21,norris,5,1:27.988,87.988
385,21,ricciardo,6,1:28.726,88.726
386,21,sainz,7,1:28.890,88.89
387,21,stroll,8,1:29.650,89.65
388,21,bottas,9,1:28.778,88.778
389,21,russell,10,1:28.947,88.947
390,21,raikkonen,11,1:29.387,89.387
391,21,giovinazzi,12,1:29.854,89.854
392,21,tsunoda,13,1:29.088,89.088
393,21,ocon,14,1:29.913,89.913
394,21,alonso,15,1:31.414,91.414
395,21,gasly,16,1:30.048,90.048
396,21,vettel,17,2:02.627,122.627
397,21,mick_schumacher,18,1:38.836,98.836
398,21,mazepin,19,1:31.792,91.792
399,22,max_verstappen,1,1:28.257,88.257
400,22,hamilton,2,1:29.277,89.277
401,22,leclerc,3,1:27.050,87.05
402,22,perez,4,1:27.185,87.185
403,22,norris,5,1:28.538,88.538
404,22,ricciardo,6,1:29.264,89.264
405,22,sainz,7,1:28.734,88.734
406,22,stroll,8,1:29.851,89.851
407,22,bottas,9,1:30.124,90.124
408,22,russell,10,1:29.482,89.482
409,22,raikkonen,11,1:29.575,89.575
410,22,giovinazzi,12,1:30.082,90.082
411,22,tsunoda,13,1:30.206,90.206
412,22,ocon,14,1:31.931,91.931
413,22,alonso,15,1:30.010,90.01
414,22,gasly,16,1:28.688,88.688
415,22,vettel,17,1:38.889,98.889
416,22,mick_schumacher,18,2:12.310,132.31
417,22,mazepin,19,1:36.466,96.466
418,23,max_verstappen,1,1:29.532,89.532
419,23,hamilton,2,1:28.421,88.421
420,23,leclerc,3,1:27.210,87.21
421,23,perez,4,1:28.433,88.433
422,23,norris,5,1:28.908,88.908
423,23,ricciardo,6,1:29.409,89.409
424,23,sainz,7,1:27.844,87.844
425,23,stroll,8,1:30.052,90.052
426,23,bottas,9,1:30.068,90.068
427,23,russell,10,1:29.059,89.059
428,23,raikkonen,11,1:31.074,91.074
429,23,giovinazzi,12,1:30.485,90.485
430,23,tsunoda,13,1:30.709,90.709
431,23,ocon,14,1:31.503,91.503
432,23,alonso,15,1:31.219,91.219
433,23,gasly,16,1:30.218,90.218
434,23,vettel,17,2:13.009,133.009
435,23,mick_schumacher,18,1:36.313,96.313
436,23,mazepin,19,1:38.945,98.945
437,24,max_verstappen,1,1:29.794,89.794
438,24,hamilton,2,1:28.139,88.139
439,24,leclerc,3,1:26.790,86.79
440,24,perez,4,1:30.617,90.617
441,24,norris,5,1:28.592,88.592
442,24,ricciardo,6,1:29.316,89.316
443,24,sainz,7,1:28.225,88.225
444,24,stroll,8,1:30.463,90.463
445,24,bottas,9,1:30.479,90.479
446,24,russell,10,1:28.875,88.875
447,24,raikkonen,11,1:29.269,89.269
448,24,giovinazzi,12,1:30.155,90.155
449,24,tsunoda,13,1:36.118,96.118
450,24,ocon,14,1:30.854,90.854
451,24,alonso,15,1:31.392,91.392
452,24,gasly,16,1:30.053,90.053
453,24,vettel,17,1:30.311,90.311
454,24,mick_schumacher,18,1:32.818,92.818
455,24,mazepin,19,2:09.184,129.184
456,25,max_verstappen,1,1:28.967,88.967
457,25,hamilton,2,1:28.842,88.842
458,25,leclerc,3,1:28.310,88.31
459,25,perez,4,1:30.301,90.301
460,25,norris,5,1:29.157,89.157
461,25,ricciardo,6,1:30.023,90.023
462,25,sainz,7,1:29.873,89.873
463,25,stroll,8,1:30.380,90.38
464,25,bottas,9,1:30.295,90.295
465,25,russell,10,1:30.048,90.048
466,25,raikkonen,11,1:28.457,88.457
467,25,giovinazzi,12,1:29.089,89.089
468,25,ocon,13,1:29.646,89.646
469,25,tsunoda,14,1:34.886,94.886
470,25,alonso,15,1:29.980,89.98
471,25,gasly,16,1:29.771,89.771
472,25,vettel,17,1:27.106,87.106
473,25,mick_schumacher,18,1:28.198,88.198
474,25,mazepin,19,1:30.235,90.235
475,26,max_verstappen,1,1:28.182,88.182
476,26,hamilton,2,1:27.073,87.073
477,26,leclerc,3,1:28.054,88.054
478,26,perez,4,1:29.147,89.147
479,26,norris,5,1:29.051,89.051
480,26,sainz,6,1:27.382,87.382
481,26,ricciardo,7,1:31.584,91.584
482,26,stroll,8,1:29.322,89.322
483,26,bottas,9,1:29.615,89.615
484,26,russell,10,1:34.682,94.682
485,26,raikkonen,11,1:33.193,93.193
486,26,giovinazzi,12,1:32.546,92.546
487,26,ocon,13,1:29.302,89.302
488,26,alonso,14,1:29.486,89.486
489,26,tsunoda,15,1:55.551,115.551
490,26,gasly,16,1:36.337,96.337
491,26,vettel,17,1:25.524,85.524
492,26,mick_schumacher,18,1:26.717,86.717
493,26,mazepin,19,1:28.129,88.129
494,27,hamilton,1,1:26.959,86.959
495,27,max_verstappen,2,1:31.736,91.736
496,27,leclerc,3,1:27.537,87.537
497,27,perez,4,1:27.715,87.715
498,27,norris,5,1:28.315,88.315
499,27,sainz,6,1:32.015,92.015
500,27,ricciardo,7,1:34.113,94.113
501,27,bottas,8,1:28.984,88.984
502,27,stroll,9,1:33.507,93.507
503,27,giovinazzi,10,1:32.995,92.995
504,27,alonso,11,1:31.553,91.553
505,27,ocon,12,1:33.761,93.761
506,27,russell,13,1:53.763,113.763
507,27,raikkonen,14,1:54.991,114.991
508,27,tsunoda,15,1:26.004,86.004
509,27,gasly,16,2:00.643,120.643
510,27,vettel,17,1:27.508,87.508
511,27,mick_schumacher,18,1:31.879,91.879
512,27,mazepin,19,1:26.363,86.363
513,28,hamilton,1,1:30.425,90.425
514,28,leclerc,2,1:32.467,92.467
515,28,max_verstappen,3,1:51.252,111.252
516,28,perez,4,1:32.716,92.716
517,28,norris,5,1:32.204,92.204
518,28,bottas,6,1:33.667,93.667
519,28,sainz,7,1:55.179,115.179
520,28,ricciardo,8,2:00.052,120.052
521,28,stroll,9,1:55.935,115.935
522,28,russell,10,1:26.543,86.543
523,28,raikkonen,11,1:27.169,87.169
524,28,alonso,12,1:36.599,96.599
525,28,giovinazzi,13,1:57.324,117.324
526,28,tsunoda,14,1:28.730,88.73
527,28,ocon,15,1:53.457,113.457
528,28,gasly,16,1:28.310,88.31
529,28,vettel,17,1:23.756,83.756
530,28,mick_schumacher,18,1:30.596,90.596
531,28,mazepin,19,1:25.943,85.943
532,29,max_verstappen,1,1:24.169,84.169
533,29,hamilton,2,1:53.281,113.281
534,29,leclerc,3,1:53.853,113.853
535,29,norris,4,1:52.737,112.737
536,29,perez,5,2:07.522,127.522
537,29,sainz,6,1:25.280,85.28
538,29,ricciardo,7,1:25.815,85.815
539,29,bottas,8,1:55.306,115.306
540,29,stroll,9,1:29.899,89.899
541,29,russell,10,1:28.364,88.364
542,29,raikkonen,11,1:26.353,86.353
543,29,tsunoda,12,1:23.424,83.424
544,29,giovinazzi,13,1:25.859,85.859
545,29,ocon,14,1:27.488,87.488
546,29,alonso,15,1:55.858,115.858
547,29,gasly,16,1:24.198,84.198
548,29,vettel,17,1:22.722,82.722
549,29,mick_schumacher,18,1:28.569,88.569
550,29,mazepin,19,1:26.310,86.31
551,30,max_verstappen,1,1:26.433,86.433
552,30,hamilton,2,1:23.138,83.138
553,30,leclerc,3,1:24.319,84.319
554,30,norris,4,1:24.987,84.987
555,30,perez,5,1:24.005,84.005
556,30,sainz,6,1:23.353,83.353
557,30,ricciardo,7,1:23.860,83.86
558,30,stroll,8,1:24.867,84.867
559,30,bottas,9,1:28.485,88.485
560,30,russell,10,1:28.105,88.105
561,30,raikkonen,11,1:27.699,87.699
562,30,tsunoda,12,1:23.420,83.42
563,30,giovinazzi,13,1:23.033,83.033
564,30,ocon,14,1:25.409,85.409
565,30,alonso,15,1:26.822,86.822
566,30,gasly,16,1:35.377,95.377
567,30,vettel,17,1:33.841,93.841
568,30,mick_schumacher,18,1:49.105,109.105
569,30,mazepin,19,2:20.440,140.44
570,31,max_verstappen,1,1:22.954,82.954
571,31,leclerc,2,1:24.395,84.395
572,31,norris,3,1:33.211,93.211
573,31,perez,4,1:32.634,92.634
574,31,sainz,5,1:32.779,92.779
575,31,ricciardo,6,1:38.289,98.289
576,31,hamilton,7,2:47.042,167.042
577,31,stroll,8,1:46.014,106.014
578,31,raikkonen,9,1:48.040,108.04
579,31,tsunoda,10,1:50.753,110.753
580,31,giovinazzi,11,1:52.900,112.9
581,31,ocon,12,1:54.569,114.569
582,31,alonso,13,1:54.573,114.573
583,31,gasly,14,2:04.947,124.947
584,31,vettel,15,2:04.488,124.488
585,31,mick_schumacher,16,2:19.925,139.925
586,31,mazepin,17,1:52.033,112.033
587,32,max_verstappen,1,1:44.215,104.215
588,32,leclerc,2,1:51.855,111.855
589,32,norris,3,2:08.260,128.26
590,32,perez,4,2:10.043,130.043
591,32,sainz,5,2:08.371,128.371
592,32,ricciardo,6,1:57.501,117.501
593,32,stroll,7,2:21.217,141.217
594,32,raikkonen,8,2:17.370,137.37
595,32,hamilton,9,2:47.378,167.378
596,32,tsunoda,10,2:17.918,137.918
597,32,giovinazzi,11,2:16.380,136.38
598,32,alonso,12,2:01.804,121.804
599,32,ocon,13,2:24.671,144.671
600,32,gasly,14,1:59.472,119.472
601,32,vettel,15,2:00.470,120.47
602,32,mick_schumacher,16,27:04.753,1624.753
603,32,mazepin,17,26:45.967,1605.967
604,33,max_verstappen,1,2:24.051,144.051
605,33,leclerc,2,2:11.844,131.844
606,33,norris,3,1:56.233,116.233
607,33,perez,4,1:58.705,118.705
608,33,sainz,5,1:58.150,118.15
609,33,ricciardo,6,2:02.779,122.779
610,33,stroll,7,26:23.211,1583.211
611,33,raikkonen,8,26:26.346,1586.346
612,33,hamilton,9,26:30.280,1590.28
613,33,tsunoda,10,26:28.454,1588.454
614,33,giovinazzi,11,26:31.250,1591.25
615,33,alonso,12,26:30.538,1590.538
616,33,ocon,13,26:22.300,1582.3
617,33,gasly,14,25:54.705,1554.705
618,33,vettel,15,25:58.583,1558.583
619,33,mick_schumacher,16,2:25.957,145.957
620,33,mazepin,17,2:07.288,127.288
621,34,max_verstappen,1,29:32.740,1772.74
622,34,leclerc,2,29:16.098,1756.098
623,34,norris,3,28:39.827,1719.827
624,34,perez,4,28:35.146,1715.146
625,34,sainz,5,28:31.950,1711.95
626,34,ricciardo,6,28:21.389,1701.389
627,34,stroll,7,3:10.646,190.646
628,34,hamilton,8,2:59.588,179.588
629,34,tsunoda,9,2:54.647,174.647
630,34,raikkonen,10,3:05.643,185.643
631,34,giovinazzi,11,2:50.353,170.353
632,34,alonso,12,2:41.883,161.883
633,34,ocon,13,2:40.094,160.094
634,34,gasly,14,2:37.649,157.649
635,34,vettel,15,2:30.825,150.825
636,34,mick_schumacher,16,1:30.136,90.136
637,34,mazepin,17,1:33.235,93.235
638,35,max_verstappen,1,1:23.743,83.743
639,35,norris,2,1:23.618,83.618
640,35,leclerc,3,1:25.394,85.394
641,35,perez,4,1:25.696,85.696
642,35,sainz,5,1:26.614,86.614
643,35,ricciardo,6,1:27.006,87.006
644,35,stroll,7,1:28.089,88.089
645,35,hamilton,8,1:28.464,88.464
646,35,raikkonen,9,1:28.963,88.963
647,35,giovinazzi,10,1:29.248,89.248
648,35,alonso,11,1:29.201,89.201
649,35,gasly,12,1:29.219,89.219
650,35,ocon,13,1:29.847,89.847
651,35,vettel,14,1:29.896,89.896
652,35,tsunoda,15,1:51.291,111.291
653,35,mick_schumacher,16,1:24.263,84.263
654,35,mazepin,17,1:29.624,89.624
655,36,max_verstappen,1,1:21.006,81.006
656,36,norris,2,1:21.800,81.8
657,36,leclerc,3,1:21.509,81.509
658,36,perez,4,1:21.538,81.538
659,36,sainz,5,1:21.630,81.63
660,36,ricciardo,6,1:22.229,82.229
661,36,stroll,7,1:22.708,82.708
662,36,hamilton,8,1:23.218,83.218
663,36,raikkonen,9,1:23.404,83.404
664,36,giovinazzi,10,1:23.368,83.368
665,36,alonso,11,1:23.814,83.814
666,36,gasly,12,1:23.867,83.867
667,36,ocon,13,1:24.183,84.183
668,36,vettel,14,1:24.296,84.296
669,36,tsunoda,15,1:22.003,82.003
670,36,mick_schumacher,16,1:23.719,83.719
671,36,mazepin,17,1:25.506,85.506
672,37,max_verstappen,1,1:20.353,80.353
673,37,norris,2,1:20.748,80.748
674,37,leclerc,3,1:20.807,80.807
675,37,perez,4,1:20.627,80.627
676,37,sainz,5,1:20.714,80.714
677,37,ricciardo,6,1:21.303,81.303
678,37,stroll,7,1:21.469,81.469
679,37,hamilton,8,1:20.972,80.972
680,37,raikkonen,9,1:21.991,81.991
681,37,giovinazzi,10,1:22.181,82.181
682,37,alonso,11,1:22.342,82.342
683,37,gasly,12,1:22.344,82.344
684,37,ocon,13,1:22.552,82.552
685,37,vettel,14,1:22.651,82.651
686,37,tsunoda,15,1:22.135,82.135
687,37,mick_schumacher,16,1:23.893,83.893
688,37,mazepin,17,1:23.627,83.627
689,38,max_verstappen,1,1:19.726,79.726
690,38,norris,2,1:20.578,80.578
691,38,leclerc,3,1:20.439,80.439
692,38,sainz,4,1:20.538,80.538
693,38,ricciardo,5,1:21.063,81.063
694,38,stroll,6,1:21.449,81.449
695,38,hamilton,7,1:21.444,81.444
696,38,raikkonen,8,1:21.841,81.841
697,38,giovinazzi,9,1:21.999,81.999
698,38,alonso,10,1:22.190,82.19
699,38,gasly,11,1:22.267,82.267
700,38,ocon,12,1:22.271,82.271
701,38,vettel,13,1:22.463,82.463
702,38,perez,14,1:42.738,102.738
703,38,tsunoda,15,1:20.792,80.792
704,38,mick_schumacher,16,1:21.789,81.789
705,38,mazepin,17,1:24.669,84.669
706,39,max_verstappen,1,1:19.579,79.579
707,39,norris,2,1:19.946,79.946
708,39,leclerc,3,1:20.430,80.43
709,39,sainz,4,1:20.062,80.062
710,39,ricciardo,5,1:20.399,80.399
711,39,hamilton,6,1:19.479,79.479
712,39,stroll,7,1:23.660,83.66
713,39,raikkonen,8,1:21.813,81.813
714,39,giovinazzi,9,1:21.562,81.562
715,39,alonso,10,1:21.290,81.29
716,39,gasly,11,1:21.232,81.232
717,39,ocon,12,1:21.222,81.222
718,39,vettel,13,1:20.964,80.964
719,39,perez,14,1:21.377,81.377
720,39,tsunoda,15,1:19.867,79.867
721,39,mick_schumacher,16,1:21.534,81.534
722,39,mazepin,17,1:22.608,82.608
723,40,max_verstappen,1,1:18.935,78.935
724,40,norris,2,1:19.745,79.745
725,40,leclerc,3,1:19.512,79.512
726,40,sainz,4,1:19.998,79.998
727,40,ricciardo,5,1:20.249,80.249
728,40,hamilton,6,1:19.303,79.303
729,40,stroll,7,1:20.519,80.519
730,40,raikkonen,8,1:20.744,80.744
731,40,gasly,9,1:21.196,81.196
732,40,alonso,10,1:23.317,83.317
733,40,ocon,11,1:22.206,82.206
734,40,vettel,12,1:22.391,82.391
735,40,giovinazzi,13,1:26.123,86.123
736,40,perez,14,1:19.642,79.642
737,40,tsunoda,15,1:20.001,80.001
738,40,mick_schumacher,16,1:22.612,82.612
739,40,mazepin,17,1:23.024,83.024
740,41,max_verstappen,1,1:18.786,78.786
741,41,norris,2,1:19.386,79.386
742,41,leclerc,3,1:19.561,79.561
743,41,sainz,4,1:19.577,79.577
744,41,ricciardo,5,1:19.865,79.865
745,41,hamilton,6,1:19.206,79.206
746,41,stroll,7,1:20.426,80.426
747,41,raikkonen,8,1:20.975,80.975
748,41,gasly,9,1:20.018,80.018
749,41,ocon,10,1:19.766,79.766
750,41,alonso,11,1:21.542,81.542
751,41,vettel,12,1:21.290,81.29
752,41,perez,13,1:19.909,79.909
753,41,tsunoda,14,1:19.932,79.932
754,41,giovinazzi,15,1:43.562,103.562
755,41,mick_schumacher,16,1:21.006,81.006
756,41,mazepin,17,1:22.763,82.763
757,42,max_verstappen,1,1:18.680,78.68
758,42,norris,2,1:19.591,79.591
759,42,leclerc,3,1:19.446,79.446
760,42,sainz,4,1:19.355,79.355
761,42,hamilton,5,1:18.332,78.332
762,42,ricciardo,6,1:21.048,81.048
763,42,stroll,7,1:20.593,80.593
764,42,raikkonen,8,1:20.398,80.398
765,42,gasly,9,1:19.765,79.765
766,42,ocon,10,1:20.260,80.26
767,42,alonso,11,1:20.600,80.6
768,42,vettel,12,1:20.702,80.702
769,42,perez,13,1:19.600,79.6
770,42,tsunoda,14,1:19.610,79.61
771,42,giovinazzi,15,1:20.675,80.675
772,42,mick_schumacher,16,1:20.496,80.496
773,42,mazepin,17,1:24.993,84.993
774,43,max_verstappen,1,1:18.529,78.529
775,43,norris,2,1:19.484,79.484
776,43,leclerc,3,1:19.399,79.399
777,43,sainz,4,1:19.143,79.143
778,43,hamilton,5,1:18.648,78.648
779,43,ricciardo,6,1:20.033,80.033
780,43,stroll,7,1:20.100,80.1
781,43,raikkonen,8,1:20.299,80.299
782,43,gasly,9,1:19.715,79.715
783,43,ocon,10,1:20.049,80.049
784,43,alonso,11,1:20.679,80.679
785,43,vettel,12,1:20.505,80.505
786,43,perez,13,1:19.106,79.106
787,43,tsunoda,14,1:19.660,79.66
788,43,giovinazzi,15,1:20.293,80.293
789,43,mick_schumacher,16,1:20.823,80.823
790,43,mazepin,17,1:22.407,82.407
791,44,max_verstappen,1,1:18.403,78.403
792,44,norris,2,1:19.352,79.352
793,44,leclerc,3,1:19.237,79.237
794,44,sainz,4,1:19.063,79.063
795,44,hamilton,5,1:18.615,78.615
796,44,ricciardo,6,1:20.011,80.011
797,44,stroll,7,1:19.994,79.994
798,44,raikkonen,8,1:20.237,80.237
799,44,gasly,9,1:20.080,80.08
800,44,ocon,10,1:20.032,80.032
801,44,alonso,11,1:20.370,80.37
802,44,vettel,12,1:20.964,80.964
803,44,perez,13,1:20.542,80.542
804,44,tsunoda,14,1:19.890,79.89
805,44,giovinazzi,15,1:20.392,80.392
806,44,mick_schumacher,16,1:20.874,80.874
807,44,mazepin,17,1:22.346,82.346
808,45,max_verstappen,1,1:18.284,78.284
809,45,norris,2,1:19.388,79.388
810,45,leclerc,3,1:19.219,79.219
811,45,sainz,4,1:19.096,79.096
812,45,hamilton,5,1:18.716,78.716
813,45,ricciardo,6,1:20.272,80.272
814,45,stroll,7,1:20.050,80.05
815,45,raikkonen,8,1:20.361,80.361
816,45,gasly,9,1:20.026,80.026
817,45,ocon,10,1:19.980,79.98
818,45,alonso,11,1:20.014,80.014
819,45,vettel,12,1:21.216,81.216
820,45,perez,13,1:21.263,81.263
821,45,tsunoda,14,1:20.397,80.397
822,45,giovinazzi,15,1:20.615,80.615
823,45,mick_schumacher,16,1:22.309,82.309
824,45,mazepin,17,1:21.803,81.803
825,46,max_verstappen,1,1:18.011,78.011
826,46,norris,2,1:19.205,79.205
827,46,leclerc,3,1:19.370,79.37
828,46,sainz,4,1:19.078,79.078
829,46,hamilton,5,1:18.406,78.406
830,46,ricciardo,6,1:19.958,79.958
831,46,stroll,7,1:19.580,79.58
832,46,gasly,8,1:19.267,79.267
833,46,raikkonen,9,1:21.691,81.691
834,46,ocon,10,1:19.985,79.985
835,46,alonso,11,1:20.093,80.093
836,46,vettel,12,1:20.669,80.669
837,46,perez,13,1:20.629,80.629
838,46,tsunoda,14,1:19.991,79.991
839,46,giovinazzi,15,1:20.448,80.448
840,46,mick_schumacher,16,1:20.402,80.402
841,46,mazepin,17,1:21.356,81.356
842,47,max_verstappen,1,1:18.161,78.161
843,47,norris,2,1:18.979,78.979
844,47,leclerc,3,1:18.938,78.938
845,47,sainz,4,1:18.869,78.869
846,47,hamilton,5,1:18.538,78.538
847,47,ricciardo,6,1:20.129,80.129
848,47,stroll,7,1:19.805,79.805
849,47,gasly,8,1:19.232,79.232
850,47,raikkonen,9,1:20.200,80.2
851,47,ocon,10,1:19.998,79.998
852,47,alonso,11,1:20.029,80.029
853,47,vettel,12,1:22.093,82.093
854,47,perez,13,1:22.119,82.119
855,47,tsunoda,14,1:19.720,79.72
856,47,giovinazzi,15,1:20.186,80.186
857,47,mick_schumacher,16,1:20.314,80.314
858,47,mazepin,17,1:21.748,81.748
859,48,max_verstappen,1,1:18.087,78.087
860,48,norris,2,1:18.984,78.984
861,48,leclerc,3,1:19.145,79.145
862,48,sainz,4,1:19.038,79.038
863,48,hamilton,5,1:18.868,78.868
864,48,ricciardo,6,1:20.170,80.17
865,48,stroll,7,1:19.535,79.535
866,48,gasly,8,1:19.225,79.225
867,48,raikkonen,9,1:20.140,80.14
868,48,ocon,10,1:19.921,79.921
869,48,alonso,11,1:19.985,79.985
870,48,perez,12,1:18.924,78.924
871,48,vettel,13,1:21.986,81.986
872,48,tsunoda,14,1:20.268,80.268
873,48,giovinazzi,15,1:20.282,80.282
874,48,mick_schumacher,16,1:19.882,79.882
875,48,mazepin,17,1:23.412,83.412
876,49,max_verstappen,1,1:18.171,78.171
877,49,norris,2,1:19.025,79.025
878,49,leclerc,3,1:19.025,79.025
879,49,sainz,4,1:19.269,79.269
880,49,hamilton,5,1:19.154,79.154
881,49,ricciardo,6,1:20.276,80.276
882,49,stroll,7,1:19.464,79.464
883,49,gasly,8,1:19.348,79.348
884,49,raikkonen,9,1:20.536,80.536
885,49,ocon,10,1:20.303,80.303
886,49,alonso,11,1:19.882,79.882
887,49,perez,12,1:18.334,78.334
888,49,vettel,13,1:20.593,80.593
889,49,tsunoda,14,1:20.314,80.314
890,49,giovinazzi,15,1:19.690,79.69
891,49,mick_schumacher,16,1:20.277,80.277
892,49,mazepin,17,1:21.181,81.181
893,50,max_verstappen,1,1:18.576,78.576
894,50,norris,2,1:19.074,79.074
895,50,leclerc,3,1:18.818,78.818
896,50,hamilton,4,1:17.858,77.858
897,50,sainz,5,1:19.905,79.905
898,50,ricciardo,6,1:19.713,79.713
899,50,stroll,7,1:19.143,79.143
900,50,gasly,8,1:19.008,79.008
901,50,raikkonen,9,1:20.139,80.139
902,50,ocon,10,1:20.202,80.202
903,50,alonso,11,1:19.757,79.757
904,50,perez,12,1:18.386,78.386
905,50,vettel,13,1:20.472,80.472
906,50,tsunoda,14,1:20.396,80.396
907,50,giovinazzi,15,1:19.763,79.763
908,50,mick_schumacher,16,1:20.498,80.498
909,50,mazepin,17,1:20.665,80.665
910,51,max_verstappen,1,1:18.158,78.158
911,51,norris,2,1:18.838,78.838
912,51,leclerc,3,1:18.784,78.784
913,51,hamilton,4,1:18.512,78.512
914,51,sainz,5,1:19.053,79.053
915,51,ricciardo,6,1:19.812,79.812
916,51,stroll,7,1:19.128,79.128
917,51,gasly,8,1:18.828,78.828
918,51,raikkonen,9,1:20.256,80.256
919,51,ocon,10,1:20.278,80.278
920,51,alonso,11,1:19.562,79.562
921,51,perez,12,1:18.343,78.343
922,51,vettel,13,1:20.527,80.527
923,51,tsunoda,14,1:20.405,80.405
924,51,giovinazzi,15,1:19.934,79.934
925,51,mick_schumacher,16,1:20.702,80.702
926,51,mazepin,17,1:20.919,80.919
927,52,max_verstappen,1,1:17.963,77.963
928,52,norris,2,1:18.950,78.95
929,52,leclerc,3,1:19.094,79.094
930,52,hamilton,4,1:19.001,79.001
931,52,sainz,5,1:18.549,78.549
932,52,ricciardo,6,1:19.612,79.612
933,52,stroll,7,1:18.994,78.994
934,52,gasly,8,1:18.972,78.972
935,52,raikkonen,9,1:20.146,80.146
936,52,ocon,10,1:20.081,80.081
937,52,alonso,11,1:19.719,79.719
938,52,perez,12,1:19.646,79.646
939,52,tsunoda,13,1:19.149,79.149
940,52,vettel,14,1:21.470,81.47
941,52,giovinazzi,15,1:19.706,79.706
942,52,mick_schumacher,16,1:20.260,80.26
943,52,mazepin,17,1:21.073,81.073
944,53,max_verstappen,1,1:17.937,77.937
945,53,norris,2,1:18.787,78.787
946,53,leclerc,3,1:18.739,78.739
947,53,hamilton,4,1:18.805,78.805
948,53,sainz,5,1:19.020,79.02
949,53,ricciardo,6,1:19.809,79.809
950,53,stroll,7,1:19.183,79.183
951,53,gasly,8,1:19.142,79.142
952,53,raikkonen,9,1:20.218,80.218
953,53,ocon,10,1:20.369,80.369
954,53,alonso,11,1:20.289,80.289
955,53,perez,12,1:20.264,80.264
956,53,tsunoda,13,1:19.711,79.711
957,53,vettel,14,1:20.389,80.389
958,53,giovinazzi,15,1:19.756,79.756
959,53,mick_schumacher,16,1:20.306,80.306
960,53,mazepin,17,1:27.691,87.691
961,54,max_verstappen,1,1:17.766,77.766
962,54,norris,2,1:19.053,79.053
963,54,leclerc,3,1:19.310,79.31
964,54,hamilton,4,1:19.206,79.206
965,54,sainz,5,1:19.214,79.214
966,54,ricciardo,6,1:19.341,79.341
967,54,stroll,7,1:19.241,79.241
968,54,gasly,8,1:19.098,79.098
969,54,raikkonen,9,1:20.139,80.139
970,54,ocon,10,1:20.105,80.105
971,54,alonso,11,1:20.148,80.148
972,54,perez,12,1:20.119,80.119
973,54,tsunoda,13,1:19.874,79.874
974,54,vettel,14,1:19.942,79.942
975,54,giovinazzi,15,1:19.707,79.707
976,54,mick_schumacher,16,1:19.553,79.553
977,54,mazepin,17,1:20.622,80.622
978,55,max_verstappen,1,1:17.803,77.803
979,55,norris,2,1:18.717,78.717
980,55,hamilton,3,1:17.950,77.95
981,55,leclerc,4,1:20.016,80.016
982,55,sainz,5,1:19.123,79.123
983,55,ricciardo,6,1:19.580,79.58
984,55,stroll,7,1:19.464,79.464
985,55,gasly,8,1:19.407,79.407
986,55,raikkonen,9,1:19.866,79.866
987,55,ocon,10,1:20.081,80.081
988,55,alonso,11,1:20.059,80.059
989,55,perez,12,1:20.047,80.047
990,55,tsunoda,13,1:19.512,79.512
991,55,vettel,14,1:19.615,79.615
992,55,giovinazzi,15,1:19.694,79.694
993,55,mick_schumacher,16,1:20.025,80.025
994,55,mazepin,17,1:20.402,80.402
995,56,max_verstappen,1,1:17.909,77.909
996,56,norris,2,1:18.756,78.756
997,56,hamilton,3,1:18.505,78.505
998,56,leclerc,4,1:18.970,78.97
999,56,sainz,5,1:18.763,78.763
1000,56,ricciardo,6,1:19.425,79.425
1001,56,stroll,7,1:19.221,79.221
1002,56,gasly,8,1:19.093,79.093
1003,56,raikkonen,9,1:19.577,79.577
1004,56,ocon,10,1:19.611,79.611
1005,56,alonso,11,1:19.714,79.714
1006,56,perez,12,1:19.805,79.805
1007,56,tsunoda,13,1:19.446,79.446
1008,56,vettel,14,1:19.810,79.81
1009,56,giovinazzi,15,1:22.056,82.056
1010,56,mick_schumacher,16,1:19.735,79.735
1011,56,mazepin,17,1:20.674,80.674
1012,57,max_verstappen,1,1:18.396,78.396
1013,57,norris,2,1:18.653,78.653
1014,57,hamilton,3,1:18.622,78.622
1015,57,leclerc,4,1:18.622,78.622
1016,57,sainz,5,1:18.684,78.684
1017,57,ricciardo,6,1:19.418,79.418
1018,57,stroll,7,1:19.456,79.456
1019,57,gasly,8,1:21.250,81.25
1020,57,raikkonen,9,1:19.845,79.845
1021,57,ocon,10,1:19.680,79.68
1022,57,alonso,11,1:19.553,79.553
1023,57,perez,12,1:19.636,79.636
1024,57,tsunoda,13,1:19.040,79.04
1025,57,vettel,14,1:19.622,79.622
1026,57,giovinazzi,15,1:19.470,79.47
1027,57,mick_schumacher,16,1:19.875,79.875
1028,57,mazepin,17,1:20.474,80.474
1029,58,max_verstappen,1,1:18.032,78.032
1030,58,norris,2,1:18.951,78.951
1031,58,hamilton,3,1:18.957,78.957
1032,58,leclerc,4,1:18.676,78.676
1033,58,sainz,5,1:18.612,78.612
1034,58,ricciardo,6,1:19.786,79.786
1035,58,stroll,7,1:19.741,79.741
1036,58,gasly,8,1:19.354,79.354
1037,58,raikkonen,9,1:19.993,79.993
1038,58,ocon,10,1:19.813,79.813
1039,58,alonso,11,1:19.750,79.75
1040,58,perez,12,1:19.584,79.584
1041,58,tsunoda,13,1:19.131,79.131
1042,58,vettel,14,1:19.170,79.17
1043,58,giovinazzi,15,1:19.761,79.761
1044,58,mick_schumacher,16,1:19.193,79.193
1045,58,mazepin,17,1:20.681,80.681
1046,59,max_verstappen,1,1:17.993,77.993
1047,59,norris,2,1:18.659,78.659
1048,59,hamilton,3,1:18.534,78.534
1049,59,leclerc,4,1:18.689,78.689
1050,59,sainz,5,1:18.678,78.678
1051,59,ricciardo,6,1:19.697,79.697
1052,59,stroll,7,1:19.957,79.957
1053,59,gasly,8,1:18.782,78.782
1054,59,raikkonen,9,1:19.722,79.722
1055,59,ocon,10,1:19.723,79.723
1056,59,alonso,11,1:19.848,79.848
1057,59,perez,12,1:19.836,79.836
1058,59,tsunoda,13,1:18.863,78.863
1059,59,vettel,14,1:19.074,79.074
1060,59,giovinazzi,15,1:19.574,79.574
1061,59,mick_schumacher,16,1:19.886,79.886
1062,59,mazepin,17,1:35.212,95.212
1063,60,max_verstappen,1,1:17.524,77.524
1064,60,hamilton,2,1:16.702,76.702
1065,60,norris,3,1:19.342,79.342
1066,60,leclerc,4,1:18.379,78.379
1067,60,sainz,5,1:18.490,78.49
1068,60,ricciardo,6,1:19.811,79.811
1069,60,stroll,7,1:19.465,79.465
1070,60,gasly,8,1:19.229,79.229
1071,60,raikkonen,9,1:19.933,79.933
1072,60,ocon,10,1:19.943,79.943
1073,60,alonso,11,1:19.852,79.852
1074,60,perez,12,1:20.036,80.036
1075,60,tsunoda,13,1:18.771,78.771
1076,60,vettel,14,1:19.095,79.095
1077,60,giovinazzi,15,1:19.549,79.549
1078,60,mick_schumacher,16,1:19.991,79.991
1079,60,mazepin,17,1:23.452,83.452
1080,61,max_verstappen,1,1:18.261,78.261
1081,61,hamilton,2,1:18.824,78.824
1082,61,norris,3,1:18.557,78.557
1083,61,leclerc,4,1:18.575,78.575
1084,61,sainz,5,1:18.571,78.571
1085,61,ricciardo,6,1:20.049,80.049
1086,61,stroll,7,1:20.138,80.138
1087,61,gasly,8,1:19.820,79.82
1088,61,raikkonen,9,1:19.515,79.515
1089,61,ocon,10,1:19.606,79.606
1090,61,alonso,11,1:19.647,79.647
1091,61,perez,12,1:19.445,79.445
1092,61,tsunoda,13,1:18.698,78.698
1093,61,vettel,14,1:27.605,87.605
1094,61,giovinazzi,15,1:19.765,79.765
1095,61,mick_schumacher,16,1:22.102,82.102
1096,61,mazepin,17,1:27.971,87.971
1097,62,max_verstappen,1,1:17.526,77.526
1098,62,hamilton,2,1:18.787,78.787
1099,62,norris,3,1:18.571,78.571
1100,62,leclerc,4,1:18.461,78.461
1101,62,sainz,5,1:18.764,78.764
1102,62,ricciardo,6,1:19.443,79.443
1103,62,stroll,7,1:19.283,79.283
1104,62,gasly,8,1:19.205,79.205
1105,62,raikkonen,9,1:19.422,79.422
1106,62,ocon,10,1:19.417,79.417
1107,62,alonso,11,1:19.396,79.396
1108,62,perez,12,1:19.419,79.419
1109,62,tsunoda,13,1:18.353,78.353
1110,62,giovinazzi,14,1:19.483,79.483
1111,63,max_verstappen,1,1:17.972,77.972
1112,63,hamilton,2,1:18.038,78.038
1113,63,norris,3,1:18.259,78.259
1114,63,leclerc,4,1:18.624,78.624
1115,63,sainz,5,1:18.496,78.496
1116,63,ricciardo,6,1:20.147,80.147
1117,63,stroll,7,1:19.953,79.953
1118,63,gasly,8,1:20.007,80.007
1119,63,raikkonen,9,1:19.527,79.527
1120,63,ocon,10,1:19.561,79.561
1121,63,alonso,11,1:19.660,79.66
1122,63,perez,12,1:19.672,79.672
1123,63,tsunoda,13,1:18.408,78.408
