,time,position,lap,code,year,circuitId,name,secs
0,1:38.727,16,3,GIO,2019,3,Bahrain International Circuit,98.727
1,1:37.542,1,1,VET,2019,3,Bahrain International Circuit,97.542
2,1:36.605,1,2,VET,2019,3,Bahrain International Circuit,96.605
3,1:36.961,1,3,VET,2019,3,Bahrain International Circuit,96.961
4,1:37.329,1,4,VET,2019,3,Bahrain International Circuit,97.329
5,1:37.554,1,5,VET,2019,3,Bahrain International Circuit,97.554
6,1:38.630,2,6,VET,2019,3,Bahrain International Circuit,98.63
7,1:37.550,2,7,VET,2019,3,Bahrain International Circuit,97.55
8,1:37.696,2,8,VET,2019,3,Bahrain International Circuit,97.696
9,1:37.618,2,9,VET,2019,3,Bahrain International Circuit,97.618
10,1:37.831,2,10,VET,2019,3,Bahrain International Circuit,97.831
11,1:37.809,2,11,VET,2019,3,Bahrain International Circuit,97.809
12,1:37.651,2,12,VET,2019,3,Bahrain International Circuit,97.651
13,1:37.803,2,13,VET,2019,3,Bahrain International Circuit,97.803
14,1:40.434,1,14,VET,2019,3,Bahrain International Circuit,100.434
15,1:55.111,4,15,VET,2019,3,Bahrain International Circuit,115.111
16,1:35.184,3,16,VET,2019,3,Bahrain International Circuit,95.184
17,1:35.297,3,17,VET,2019,3,Bahrain International Circuit,95.297
18,1:35.652,3,18,VET,2019,3,Bahrain International Circuit,95.652
19,1:35.547,3,19,VET,2019,3,Bahrain International Circuit,95.547
20,1:36.120,3,20,VET,2019,3,Bahrain International Circuit,96.12
21,1:36.178,3,21,VET,2019,3,Bahrain International Circuit,96.178
22,1:36.495,3,22,VET,2019,3,Bahrain International Circuit,96.495
23,1:36.015,2,23,VET,2019,3,Bahrain International Circuit,96.015
24,1:36.728,2,24,VET,2019,3,Bahrain International Circuit,96.728
25,1:36.277,2,25,VET,2019,3,Bahrain International Circuit,96.277
26,1:36.283,2,26,VET,2019,3,Bahrain International Circuit,96.283
27,1:37.251,2,27,VET,2019,3,Bahrain International Circuit,97.251
28,1:37.149,2,28,VET,2019,3,Bahrain International Circuit,97.149
29,1:36.935,2,29,VET,2019,3,Bahrain International Circuit,96.935
30,1:36.899,2,30,VET,2019,3,Bahrain International Circuit,96.899
31,1:37.160,2,31,VET,2019,3,Bahrain International Circuit,97.16
32,1:36.971,2,32,VET,2019,3,Bahrain International Circuit,96.971
33,1:37.008,2,33,VET,2019,3,Bahrain International Circuit,97.008
34,1:36.827,2,34,VET,2019,3,Bahrain International Circuit,96.827
35,1:40.527,2,35,VET,2019,3,Bahrain International Circuit,100.527
36,1:53.846,3,36,VET,2019,3,Bahrain International Circuit,113.846
37,1:34.918,2,37,VET,2019,3,Bahrain International Circuit,94.918
38,2:03.493,4,38,VET,2019,3,Bahrain International Circuit,123.493
39,2:06.012,9,39,VET,2019,3,Bahrain International Circuit,126.012
40,1:35.930,8,40,VET,2019,3,Bahrain International Circuit,95.93
41,1:35.043,6,41,VET,2019,3,Bahrain International Circuit,95.043
42,1:36.012,6,42,VET,2019,3,Bahrain International Circuit,96.012
43,1:34.895,5,43,VET,2019,3,Bahrain International Circuit,94.895
44,1:36.102,5,44,VET,2019,3,Bahrain International Circuit,96.102
45,1:35.679,5,45,VET,2019,3,Bahrain International Circuit,95.679
46,1:35.766,5,46,VET,2019,3,Bahrain International Circuit,95.766
47,1:35.720,5,47,VET,2019,3,Bahrain International Circuit,95.72
48,1:35.842,5,48,VET,2019,3,Bahrain International Circuit,95.842
49,1:36.063,5,49,VET,2019,3,Bahrain International Circuit,96.063
50,1:36.077,5,50,VET,2019,3,Bahrain International Circuit,96.077
51,1:36.425,5,51,VET,2019,3,Bahrain International Circuit,96.425
52,1:35.764,5,52,VET,2019,3,Bahrain International Circuit,95.764
53,1:36.194,5,53,VET,2019,3,Bahrain International Circuit,96.194
54,1:36.263,5,54,VET,2019,3,Bahrain International Circuit,96.263
55,2:10.492,5,55,VET,2019,3,Bahrain International Circuit,130.492
56,2:13.029,5,56,VET,2019,3,Bahrain International Circuit,133.029
57,2:01.171,5,57,VET,2019,3,Bahrain International Circuit,121.171
58,1:38.944,2,1,BOT,2019,3,Bahrain International Circuit,98.944
59,1:40.173,4,2,BOT,2019,3,Bahrain International Circuit,100.173
60,1:38.041,4,3,BOT,2019,3,Bahrain International Circuit,98.041
61,1:38.212,4,4,BOT,2019,3,Bahrain International Circuit,98.212
62,1:37.905,4,5,BOT,2019,3,Bahrain International Circuit,97.905
63,1:37.171,4,6,BOT,2019,3,Bahrain International Circuit,97.171
64,1:37.161,4,7,BOT,2019,3,Bahrain International Circuit,97.161
65,1:37.639,4,8,BOT,2019,3,Bahrain International Circuit,97.639
66,1:37.297,4,9,BOT,2019,3,Bahrain International Circuit,97.297
67,1:37.680,4,10,BOT,2019,3,Bahrain International Circuit,97.68
68,1:38.158,4,11,BOT,2019,3,Bahrain International Circuit,98.158
69,1:40.185,4,12,BOT,2019,3,Bahrain International Circuit,100.185
70,1:57.030,6,13,BOT,2019,3,Bahrain International Circuit,117.03
71,1:35.786,5,14,BOT,2019,3,Bahrain International Circuit,95.786
72,1:35.798,5,15,BOT,2019,3,Bahrain International Circuit,95.798
73,1:36.572,5,16,BOT,2019,3,Bahrain International Circuit,96.572
74,1:36.656,5,17,BOT,2019,3,Bahrain International Circuit,96.656
75,1:36.660,4,18,BOT,2019,3,Bahrain International Circuit,96.66
76,1:36.555,4,19,BOT,2019,3,Bahrain International Circuit,96.555
77,1:36.443,4,20,BOT,2019,3,Bahrain International Circuit,96.443
78,1:36.569,4,21,BOT,2019,3,Bahrain International Circuit,96.569
79,1:36.543,4,22,BOT,2019,3,Bahrain International Circuit,96.543
80,1:36.668,4,23,BOT,2019,3,Bahrain International Circuit,96.668
81,1:36.953,4,24,BOT,2019,3,Bahrain International Circuit,96.953
82,1:37.307,4,25,BOT,2019,3,Bahrain International Circuit,97.307
83,1:37.348,4,26,BOT,2019,3,Bahrain International Circuit,97.348
84,1:37.390,4,27,BOT,2019,3,Bahrain International Circuit,97.39
85,1:38.113,4,28,BOT,2019,3,Bahrain International Circuit,98.113
86,1:37.226,4,29,BOT,2019,3,Bahrain International Circuit,97.226
87,1:37.520,4,30,BOT,2019,3,Bahrain International Circuit,97.52
88,1:37.321,4,31,BOT,2019,3,Bahrain International Circuit,97.321
89,1:37.922,4,32,BOT,2019,3,Bahrain International Circuit,97.922
90,1:37.656,4,33,BOT,2019,3,Bahrain International Circuit,97.656
91,1:37.438,4,34,BOT,2019,3,Bahrain International Circuit,97.438
92,1:36.896,3,35,BOT,2019,3,Bahrain International Circuit,96.896
93,1:37.928,2,36,BOT,2019,3,Bahrain International Circuit,97.928
94,1:41.713,4,37,BOT,2019,3,Bahrain International Circuit,101.713
95,1:57.545,3,38,BOT,2019,3,Bahrain International Circuit,117.545
96,1:35.757,3,39,BOT,2019,3,Bahrain International Circuit,95.757
97,1:35.904,3,40,BOT,2019,3,Bahrain International Circuit,95.904
98,1:36.039,3,41,BOT,2019,3,Bahrain International Circuit,96.039
99,1:34.209,3,42,BOT,2019,3,Bahrain International Circuit,94.209
100,1:37.991,3,43,BOT,2019,3,Bahrain International Circuit,97.991
101,1:36.180,3,44,BOT,2019,3,Bahrain International Circuit,96.18
102,1:35.909,3,45,BOT,2019,3,Bahrain International Circuit,95.909
103,1:35.670,3,46,BOT,2019,3,Bahrain International Circuit,95.67
104,1:35.356,3,47,BOT,2019,3,Bahrain International Circuit,95.356
105,1:35.317,3,48,BOT,2019,3,Bahrain International Circuit,95.317
106,1:35.368,3,49,BOT,2019,3,Bahrain International Circuit,95.368
107,1:35.406,3,50,BOT,2019,3,Bahrain International Circuit,95.406
108,1:35.638,3,51,BOT,2019,3,Bahrain International Circuit,95.638
109,1:35.696,3,52,BOT,2019,3,Bahrain International Circuit,95.696
110,1:36.460,3,53,BOT,2019,3,Bahrain International Circuit,96.46
111,1:35.797,2,54,BOT,2019,3,Bahrain International Circuit,95.797
112,1:57.754,2,55,BOT,2019,3,Bahrain International Circuit,117.754
113,2:13.625,2,56,BOT,2019,3,Bahrain International Circuit,133.625
114,2:14.077,2,57,BOT,2019,3,Bahrain International Circuit,134.077
115,1:39.466,3,1,LEC,2019,3,Bahrain International Circuit,99.466
116,1:36.602,2,2,LEC,2019,3,Bahrain International Circuit,96.602
117,1:36.383,2,3,LEC,2019,3,Bahrain International Circuit,96.383
118,1:36.874,2,4,LEC,2019,3,Bahrain International Circuit,96.874
119,1:37.214,2,5,LEC,2019,3,Bahrain International Circuit,97.214
120,1:36.911,1,6,LEC,2019,3,Bahrain International Circuit,96.911
121,1:37.068,1,7,LEC,2019,3,Bahrain International Circuit,97.068
122,1:37.789,1,8,LEC,2019,3,Bahrain International Circuit,97.789
123,1:37.205,1,9,LEC,2019,3,Bahrain International Circuit,97.205
124,1:37.271,1,10,LEC,2019,3,Bahrain International Circuit,97.271
125,1:37.193,1,11,LEC,2019,3,Bahrain International Circuit,97.193
126,1:37.452,1,12,LEC,2019,3,Bahrain International Circuit,97.452
127,1:39.996,1,13,LEC,2019,3,Bahrain International Circuit,99.996
128,1:56.203,3,14,LEC,2019,3,Bahrain International Circuit,116.203
129,1:33.914,1,15,LEC,2019,3,Bahrain International Circuit,93.914
130,1:34.829,1,16,LEC,2019,3,Bahrain International Circuit,94.829
131,1:35.211,1,17,LEC,2019,3,Bahrain International Circuit,95.211
132,1:35.467,1,18,LEC,2019,3,Bahrain International Circuit,95.467
133,1:35.773,1,19,LEC,2019,3,Bahrain International Circuit,95.773
134,1:36.051,1,20,LEC,2019,3,Bahrain International Circuit,96.051
135,1:35.988,1,21,LEC,2019,3,Bahrain International Circuit,95.988
136,1:36.107,1,22,LEC,2019,3,Bahrain International Circuit,96.107
137,1:36.103,1,23,LEC,2019,3,Bahrain International Circuit,96.103
138,1:36.225,1,24,LEC,2019,3,Bahrain International Circuit,96.225
139,1:36.284,1,25,LEC,2019,3,Bahrain International Circuit,96.284
140,1:36.303,1,26,LEC,2019,3,Bahrain International Circuit,96.303
141,1:36.967,1,27,LEC,2019,3,Bahrain International Circuit,96.967
142,1:37.236,1,28,LEC,2019,3,Bahrain International Circuit,97.236
143,1:36.764,1,29,LEC,2019,3,Bahrain International Circuit,96.764
144,1:37.032,1,30,LEC,2019,3,Bahrain International Circuit,97.032
145,1:36.677,1,31,LEC,2019,3,Bahrain International Circuit,96.677
146,1:37.167,1,32,LEC,2019,3,Bahrain International Circuit,97.167
147,1:36.635,1,33,LEC,2019,3,Bahrain International Circuit,96.635
148,1:37.094,1,34,LEC,2019,3,Bahrain International Circuit,97.094
149,1:36.916,1,35,LEC,2019,3,Bahrain International Circuit,96.916
150,1:40.447,1,36,LEC,2019,3,Bahrain International Circuit,100.447
151,1:55.016,1,37,LEC,2019,3,Bahrain International Circuit,115.016
152,1:33.411,1,38,LEC,2019,3,Bahrain International Circuit,93.411
153,1:34.496,1,39,LEC,2019,3,Bahrain International Circuit,94.496
154,1:34.396,1,40,LEC,2019,3,Bahrain International Circuit,94.396
155,1:34.430,1,41,LEC,2019,3,Bahrain International Circuit,94.43
156,1:34.654,1,42,LEC,2019,3,Bahrain International Circuit,94.654
157,1:35.303,1,43,LEC,2019,3,Bahrain International Circuit,95.303
158,1:35.487,1,44,LEC,2019,3,Bahrain International Circuit,95.487
159,1:36.041,1,45,LEC,2019,3,Bahrain International Circuit,96.041
160,1:38.056,1,46,LEC,2019,3,Bahrain International Circuit,98.056
161,1:39.796,1,47,LEC,2019,3,Bahrain International Circuit,99.796
162,1:40.426,2,48,LEC,2019,3,Bahrain International Circuit,100.426
163,1:40.670,2,49,LEC,2019,3,Bahrain International Circuit,100.67
164,1:42.317,2,50,LEC,2019,3,Bahrain International Circuit,102.317
165,1:40.227,2,51,LEC,2019,3,Bahrain International Circuit,100.227
166,1:41.485,2,52,LEC,2019,3,Bahrain International Circuit,101.485
167,1:41.544,2,53,LEC,2019,3,Bahrain International Circuit,101.544
168,1:40.563,3,54,LEC,2019,3,Bahrain International Circuit,100.563
169,1:59.610,3,55,LEC,2019,3,Bahrain International Circuit,119.61
170,2:12.635,3,56,LEC,2019,3,Bahrain International Circuit,132.635
171,2:12.046,3,57,LEC,2019,3,Bahrain International Circuit,132.046
172,1:39.941,4,1,HAM,2019,3,Bahrain International Circuit,99.941
173,1:37.993,3,2,HAM,2019,3,Bahrain International Circuit,97.993
174,1:36.759,3,3,HAM,2019,3,Bahrain International Circuit,96.759
175,1:37.569,3,4,HAM,2019,3,Bahrain International Circuit,97.569
176,1:36.967,3,5,HAM,2019,3,Bahrain International Circuit,96.967
177,1:37.029,3,6,HAM,2019,3,Bahrain International Circuit,97.029
178,1:37.637,3,7,HAM,2019,3,Bahrain International Circuit,97.637
179,1:37.495,3,8,HAM,2019,3,Bahrain International Circuit,97.495
180,1:37.308,3,9,HAM,2019,3,Bahrain International Circuit,97.308
181,1:38.351,3,10,HAM,2019,3,Bahrain International Circuit,98.351
182,1:37.316,3,11,HAM,2019,3,Bahrain International Circuit,97.316
183,1:37.283,3,12,HAM,2019,3,Bahrain International Circuit,97.283
184,1:40.720,3,13,HAM,2019,3,Bahrain International Circuit,100.72
185,1:54.285,4,14,HAM,2019,3,Bahrain International Circuit,114.285
186,1:34.851,3,15,HAM,2019,3,Bahrain International Circuit,94.851
187,1:34.644,2,16,HAM,2019,3,Bahrain International Circuit,94.644
188,1:35.504,2,17,HAM,2019,3,Bahrain International Circuit,95.504
189,1:35.952,2,18,HAM,2019,3,Bahrain International Circuit,95.952
190,1:36.476,2,19,HAM,2019,3,Bahrain International Circuit,96.476
191,1:36.362,2,20,HAM,2019,3,Bahrain International Circuit,96.362
192,1:36.640,2,21,HAM,2019,3,Bahrain International Circuit,96.64
193,1:36.608,2,22,HAM,2019,3,Bahrain International Circuit,96.608
194,1:37.852,3,23,HAM,2019,3,Bahrain International Circuit,97.852
195,1:37.017,3,24,HAM,2019,3,Bahrain International Circuit,97.017
196,1:36.935,3,25,HAM,2019,3,Bahrain International Circuit,96.935
197,1:36.836,3,26,HAM,2019,3,Bahrain International Circuit,96.836
198,1:37.084,3,27,HAM,2019,3,Bahrain International Circuit,97.084
199,1:37.229,3,28,HAM,2019,3,Bahrain International Circuit,97.229
200,1:37.486,3,29,HAM,2019,3,Bahrain International Circuit,97.486
201,1:37.125,3,30,HAM,2019,3,Bahrain International Circuit,97.125
202,1:37.447,3,31,HAM,2019,3,Bahrain International Circuit,97.447
203,1:38.086,3,32,HAM,2019,3,Bahrain International Circuit,98.086
204,1:37.167,3,33,HAM,2019,3,Bahrain International Circuit,97.167
205,1:40.157,3,34,HAM,2019,3,Bahrain International Circuit,100.157
206,1:53.602,4,35,HAM,2019,3,Bahrain International Circuit,113.602
207,1:33.528,4,36,HAM,2019,3,Bahrain International Circuit,93.528
208,1:34.722,3,37,HAM,2019,3,Bahrain International Circuit,94.722
209,1:34.382,2,38,HAM,2019,3,Bahrain International Circuit,94.382
210,1:35.247,2,39,HAM,2019,3,Bahrain International Circuit,95.247
211,1:35.315,2,40,HAM,2019,3,Bahrain International Circuit,95.315
212,1:35.419,2,41,HAM,2019,3,Bahrain International Circuit,95.419
213,1:35.335,2,42,HAM,2019,3,Bahrain International Circuit,95.335
214,1:34.703,2,43,HAM,2019,3,Bahrain International Circuit,94.703
215,1:35.078,2,44,HAM,2019,3,Bahrain International Circuit,95.078
216,1:35.113,2,45,HAM,2019,3,Bahrain International Circuit,95.113
217,1:36.387,2,46,HAM,2019,3,Bahrain International Circuit,96.387
218,1:35.666,2,47,HAM,2019,3,Bahrain International Circuit,95.666
219,1:37.037,1,48,HAM,2019,3,Bahrain International Circuit,97.037
220,1:36.802,1,49,HAM,2019,3,Bahrain International Circuit,96.802
221,1:36.306,1,50,HAM,2019,3,Bahrain International Circuit,96.306
222,1:36.403,1,51,HAM,2019,3,Bahrain International Circuit,96.403
223,1:37.958,1,52,HAM,2019,3,Bahrain International Circuit,97.958
224,1:36.694,1,53,HAM,2019,3,Bahrain International Circuit,96.694
225,1:36.821,1,54,HAM,2019,3,Bahrain International Circuit,96.821
226,1:49.969,1,55,HAM,2019,3,Bahrain International Circuit,109.969
227,2:22.483,1,56,HAM,2019,3,Bahrain International Circuit,142.483
228,2:32.214,1,57,HAM,2019,3,Bahrain International Circuit,152.214
229,1:41.170,5,1,VER,2019,3,Bahrain International Circuit,101.17
230,1:38.718,5,2,VER,2019,3,Bahrain International Circuit,98.718
231,1:38.747,5,3,VER,2019,3,Bahrain International Circuit,98.747
232,1:38.408,5,4,VER,2019,3,Bahrain International Circuit,98.408
233,1:37.871,5,5,VER,2019,3,Bahrain International Circuit,97.871
234,1:37.649,5,6,VER,2019,3,Bahrain International Circuit,97.649
235,1:37.303,5,7,VER,2019,3,Bahrain International Circuit,97.303
236,1:37.659,5,8,VER,2019,3,Bahrain International Circuit,97.659
237,1:37.489,5,9,VER,2019,3,Bahrain International Circuit,97.489
238,1:37.650,5,10,VER,2019,3,Bahrain International Circuit,97.65
239,1:40.633,5,11,VER,2019,3,Bahrain International Circuit,100.633
240,1:56.420,8,12,VER,2019,3,Bahrain International Circuit,116.42
241,1:35.387,5,13,VER,2019,3,Bahrain International Circuit,95.387
242,1:37.277,6,14,VER,2019,3,Bahrain International Circuit,97.277
243,1:36.197,6,15,VER,2019,3,Bahrain International Circuit,96.197
244,1:36.911,6,16,VER,2019,3,Bahrain International Circuit,96.911
245,1:36.752,6,17,VER,2019,3,Bahrain International Circuit,96.752
246,1:36.914,5,18,VER,2019,3,Bahrain International Circuit,96.914
247,1:36.706,5,19,VER,2019,3,Bahrain International Circuit,96.706
248,1:37.067,5,20,VER,2019,3,Bahrain International Circuit,97.067
249,1:36.661,5,21,VER,2019,3,Bahrain International Circuit,96.661
250,1:37.138,5,22,VER,2019,3,Bahrain International Circuit,97.138
251,1:37.399,5,23,VER,2019,3,Bahrain International Circuit,97.399
252,1:37.482,5,24,VER,2019,3,Bahrain International Circuit,97.482
253,1:37.677,5,25,VER,2019,3,Bahrain International Circuit,97.677
254,1:37.626,5,26,VER,2019,3,Bahrain International Circuit,97.626
255,1:38.020,5,27,VER,2019,3,Bahrain International Circuit,98.02
256,1:37.944,5,28,VER,2019,3,Bahrain International Circuit,97.944
257,1:37.844,5,29,VER,2019,3,Bahrain International Circuit,97.844
258,1:38.541,5,30,VER,2019,3,Bahrain International Circuit,98.541
259,1:38.847,5,31,VER,2019,3,Bahrain International Circuit,98.847
260,1:41.540,5,32,VER,2019,3,Bahrain International Circuit,101.54
261,1:59.409,6,33,VER,2019,3,Bahrain International Circuit,119.409
262,1:36.440,5,34,VER,2019,3,Bahrain International Circuit,96.44
263,1:35.354,5,35,VER,2019,3,Bahrain International Circuit,95.354
264,1:36.435,5,36,VER,2019,3,Bahrain International Circuit,96.435
265,1:36.181,5,37,VER,2019,3,Bahrain International Circuit,96.181
266,1:36.076,5,38,VER,2019,3,Bahrain International Circuit,96.076
267,1:36.360,4,39,VER,2019,3,Bahrain International Circuit,96.36
268,1:36.240,4,40,VER,2019,3,Bahrain International Circuit,96.24
269,1:36.205,4,41,VER,2019,3,Bahrain International Circuit,96.205
270,1:36.194,4,42,VER,2019,3,Bahrain International Circuit,96.194
271,1:36.101,4,43,VER,2019,3,Bahrain International Circuit,96.101
272,1:35.947,4,44,VER,2019,3,Bahrain International Circuit,95.947
273,1:35.777,4,45,VER,2019,3,Bahrain International Circuit,95.777
274,1:35.943,4,46,VER,2019,3,Bahrain International Circuit,95.943
275,1:35.311,4,47,VER,2019,3,Bahrain International Circuit,95.311
276,1:35.719,4,48,VER,2019,3,Bahrain International Circuit,95.719
277,1:36.551,4,49,VER,2019,3,Bahrain International Circuit,96.551
278,1:35.970,4,50,VER,2019,3,Bahrain International Circuit,95.97
279,1:36.032,4,51,VER,2019,3,Bahrain International Circuit,96.032
280,1:36.069,4,52,VER,2019,3,Bahrain International Circuit,96.069
281,1:36.011,4,53,VER,2019,3,Bahrain International Circuit,96.011
282,1:36.232,4,54,VER,2019,3,Bahrain International Circuit,96.232
283,1:59.056,4,55,VER,2019,3,Bahrain International Circuit,119.056
284,2:11.832,4,56,VER,2019,3,Bahrain International Circuit,131.832
285,2:10.611,4,57,VER,2019,3,Bahrain International Circuit,130.611
286,1:41.786,6,1,SAI,2019,3,Bahrain International Circuit,101.786
287,1:38.869,6,2,SAI,2019,3,Bahrain International Circuit,98.869
288,1:38.570,6,3,SAI,2019,3,Bahrain International Circuit,98.57
289,2:15.038,18,4,SAI,2019,3,Bahrain International Circuit,135.038
290,2:18.084,20,5,SAI,2019,3,Bahrain International Circuit,138.084
291,1:35.842,20,6,SAI,2019,3,Bahrain International Circuit,95.842
292,1:36.762,20,7,SAI,2019,3,Bahrain International Circuit,96.762
293,1:36.803,20,8,SAI,2019,3,Bahrain International Circuit,96.803
294,1:37.523,20,9,SAI,2019,3,Bahrain International Circuit,97.523
295,1:37.275,20,10,SAI,2019,3,Bahrain International Circuit,97.275
296,1:37.811,20,11,SAI,2019,3,Bahrain International Circuit,97.811
297,1:37.697,20,12,SAI,2019,3,Bahrain International Circuit,97.697
298,1:38.264,20,13,SAI,2019,3,Bahrain International Circuit,98.264
299,1:38.401,20,14,SAI,2019,3,Bahrain International Circuit,98.401
300,1:38.616,20,15,SAI,2019,3,Bahrain International Circuit,98.616
301,1:38.870,19,16,SAI,2019,3,Bahrain International Circuit,98.87
302,1:38.419,19,17,SAI,2019,3,Bahrain International Circuit,98.419
303,1:38.718,19,18,SAI,2019,3,Bahrain International Circuit,98.718
304,1:38.709,19,19,SAI,2019,3,Bahrain International Circuit,98.709
305,1:39.073,19,20,SAI,2019,3,Bahrain International Circuit,99.073
306,1:38.813,19,21,SAI,2019,3,Bahrain International Circuit,98.813
307,1:38.932,19,22,SAI,2019,3,Bahrain International Circuit,98.932
308,1:39.312,18,23,SAI,2019,3,Bahrain International Circuit,99.312
309,1:44.566,18,24,SAI,2019,3,Bahrain International Circuit,104.566
310,1:58.416,19,25,SAI,2019,3,Bahrain International Circuit,118.416
311,1:37.197,19,26,SAI,2019,3,Bahrain International Circuit,97.197
312,1:37.288,19,27,SAI,2019,3,Bahrain International Circuit,97.288
313,1:37.979,19,28,SAI,2019,3,Bahrain International Circuit,97.979
314,1:38.126,19,29,SAI,2019,3,Bahrain International Circuit,98.126
315,1:38.886,19,30,SAI,2019,3,Bahrain International Circuit,98.886
316,1:37.303,18,31,SAI,2019,3,Bahrain International Circuit,97.303
317,1:37.179,18,32,SAI,2019,3,Bahrain International Circuit,97.179
318,1:37.799,18,33,SAI,2019,3,Bahrain International Circuit,97.799
319,1:38.979,18,34,SAI,2019,3,Bahrain International Circuit,98.979
320,1:37.593,18,35,SAI,2019,3,Bahrain International Circuit,97.593
321,1:38.075,18,36,SAI,2019,3,Bahrain International Circuit,98.075
322,1:39.371,18,37,SAI,2019,3,Bahrain International Circuit,99.371
323,1:39.370,18,38,SAI,2019,3,Bahrain International Circuit,99.37
324,1:38.945,18,39,SAI,2019,3,Bahrain International Circuit,98.945
325,1:41.310,18,40,SAI,2019,3,Bahrain International Circuit,101.31
326,1:56.052,19,41,SAI,2019,3,Bahrain International Circuit,116.052
327,1:35.586,19,42,SAI,2019,3,Bahrain International Circuit,95.586
328,1:36.436,18,43,SAI,2019,3,Bahrain International Circuit,96.436
329,1:35.705,18,44,SAI,2019,3,Bahrain International Circuit,95.705
330,1:36.469,18,45,SAI,2019,3,Bahrain International Circuit,96.469
331,1:36.301,18,46,SAI,2019,3,Bahrain International Circuit,96.301
332,1:36.225,18,47,SAI,2019,3,Bahrain International Circuit,96.225
333,1:37.403,18,48,SAI,2019,3,Bahrain International Circuit,97.403
334,1:35.719,17,49,SAI,2019,3,Bahrain International Circuit,95.719
335,1:36.116,17,50,SAI,2019,3,Bahrain International Circuit,96.116
336,1:36.235,17,51,SAI,2019,3,Bahrain International Circuit,96.235
337,1:36.500,17,52,SAI,2019,3,Bahrain International Circuit,96.5
338,1:44.824,17,53,SAI,2019,3,Bahrain International Circuit,104.824
339,1:42.541,7,1,MAG,2019,3,Bahrain International Circuit,102.541
340,1:38.870,7,2,MAG,2019,3,Bahrain International Circuit,98.87
341,1:38.828,7,3,MAG,2019,3,Bahrain International Circuit,98.828
342,1:39.104,6,4,MAG,2019,3,Bahrain International Circuit,99.104
343,1:38.917,6,5,MAG,2019,3,Bahrain International Circuit,98.917
344,1:42.033,9,6,MAG,2019,3,Bahrain International Circuit,102.033
345,1:39.833,10,7,MAG,2019,3,Bahrain International Circuit,99.833
346,1:39.275,9,8,MAG,2019,3,Bahrain International Circuit,99.275
347,1:40.131,10,9,MAG,2019,3,Bahrain International Circuit,100.131
348,1:41.536,11,10,MAG,2019,3,Bahrain International Circuit,101.536
349,1:56.838,15,11,MAG,2019,3,Bahrain International Circuit,116.838
350,1:37.033,12,12,MAG,2019,3,Bahrain International Circuit,97.033
351,1:36.672,12,13,MAG,2019,3,Bahrain International Circuit,96.672
352,1:36.902,12,14,MAG,2019,3,Bahrain International Circuit,96.902
353,1:37.784,12,15,MAG,2019,3,Bahrain International Circuit,97.784
354,1:37.838,12,16,MAG,2019,3,Bahrain International Circuit,97.838
355,1:39.624,12,17,MAG,2019,3,Bahrain International Circuit,99.624
356,1:39.768,13,18,MAG,2019,3,Bahrain International Circuit,99.768
357,1:39.100,13,19,MAG,2019,3,Bahrain International Circuit,99.1
358,1:38.641,13,20,MAG,2019,3,Bahrain International Circuit,98.641
359,1:38.566,13,21,MAG,2019,3,Bahrain International Circuit,98.566
360,1:38.865,13,22,MAG,2019,3,Bahrain International Circuit,98.865
361,1:38.768,13,23,MAG,2019,3,Bahrain International Circuit,98.768
362,1:38.768,13,24,MAG,2019,3,Bahrain International Circuit,98.768
363,1:38.599,11,25,MAG,2019,3,Bahrain International Circuit,98.599
364,1:39.214,11,26,MAG,2019,3,Bahrain International Circuit,99.214
365,1:39.329,11,27,MAG,2019,3,Bahrain International Circuit,99.329
366,1:39.483,11,28,MAG,2019,3,Bahrain International Circuit,99.483
367,1:39.584,11,29,MAG,2019,3,Bahrain International Circuit,99.584
368,1:40.298,12,30,MAG,2019,3,Bahrain International Circuit,100.298
369,1:39.678,12,31,MAG,2019,3,Bahrain International Circuit,99.678
370,1:39.345,12,32,MAG,2019,3,Bahrain International Circuit,99.345
371,1:40.710,13,33,MAG,2019,3,Bahrain International Circuit,100.71
372,1:39.297,11,34,MAG,2019,3,Bahrain International Circuit,99.297
373,1:40.653,12,35,MAG,2019,3,Bahrain International Circuit,100.653
374,1:40.976,13,36,MAG,2019,3,Bahrain International Circuit,100.976
375,1:39.897,13,37,MAG,2019,3,Bahrain International Circuit,99.897
376,1:44.498,15,38,MAG,2019,3,Bahrain International Circuit,104.498
377,1:59.086,14,39,MAG,2019,3,Bahrain International Circuit,119.086
378,1:36.585,14,40,MAG,2019,3,Bahrain International Circuit,96.585
379,1:35.892,14,41,MAG,2019,3,Bahrain International Circuit,95.892
380,1:37.994,15,42,MAG,2019,3,Bahrain International Circuit,97.994
381,1:37.104,15,43,MAG,2019,3,Bahrain International Circuit,97.104
382,1:36.788,15,44,MAG,2019,3,Bahrain International Circuit,96.788
383,1:37.734,15,45,MAG,2019,3,Bahrain International Circuit,97.734
384,1:37.000,15,46,MAG,2019,3,Bahrain International Circuit,97.0
385,1:37.407,15,47,MAG,2019,3,Bahrain International Circuit,97.407
386,1:36.836,15,48,MAG,2019,3,Bahrain International Circuit,96.836
387,1:36.962,15,49,MAG,2019,3,Bahrain International Circuit,96.962
388,1:37.354,15,50,MAG,2019,3,Bahrain International Circuit,97.354
389,1:37.164,15,51,MAG,2019,3,Bahrain International Circuit,97.164
390,1:37.116,15,52,MAG,2019,3,Bahrain International Circuit,97.116
391,1:36.908,15,53,MAG,2019,3,Bahrain International Circuit,96.908
392,1:57.595,13,54,MAG,2019,3,Bahrain International Circuit,117.595
393,2:12.559,13,55,MAG,2019,3,Bahrain International Circuit,132.559
394,2:17.962,13,56,MAG,2019,3,Bahrain International Circuit,137.962
395,1:43.097,8,1,RAI,2019,3,Bahrain International Circuit,103.097
396,1:38.792,8,2,RAI,2019,3,Bahrain International Circuit,98.792
397,1:38.882,8,3,RAI,2019,3,Bahrain International Circuit,98.882
398,1:40.218,8,4,RAI,2019,3,Bahrain International Circuit,100.218
399,1:38.460,8,5,RAI,2019,3,Bahrain International Circuit,98.46
400,1:39.405,7,6,RAI,2019,3,Bahrain International Circuit,99.405
401,1:38.243,7,7,RAI,2019,3,Bahrain International Circuit,98.243
402,1:38.310,7,8,RAI,2019,3,Bahrain International Circuit,98.31
403,1:40.696,8,9,RAI,2019,3,Bahrain International Circuit,100.696
404,1:57.408,14,10,RAI,2019,3,Bahrain International Circuit,117.408
405,1:36.252,10,11,RAI,2019,3,Bahrain International Circuit,96.252
406,1:36.727,9,12,RAI,2019,3,Bahrain International Circuit,96.727
407,1:36.310,8,13,RAI,2019,3,Bahrain International Circuit,96.31
408,1:36.931,8,14,RAI,2019,3,Bahrain International Circuit,96.931
409,1:37.213,7,15,RAI,2019,3,Bahrain International Circuit,97.213
410,1:37.173,7,16,RAI,2019,3,Bahrain International Circuit,97.173
411,1:37.917,7,17,RAI,2019,3,Bahrain International Circuit,97.917
412,1:37.505,7,18,RAI,2019,3,Bahrain International Circuit,97.505
413,1:37.759,7,19,RAI,2019,3,Bahrain International Circuit,97.759
414,1:38.397,7,20,RAI,2019,3,Bahrain International Circuit,98.397
415,1:38.775,8,21,RAI,2019,3,Bahrain International Circuit,98.775
416,1:37.720,8,22,RAI,2019,3,Bahrain International Circuit,97.72
417,1:38.925,8,23,RAI,2019,3,Bahrain International Circuit,98.925
418,1:38.348,7,24,RAI,2019,3,Bahrain International Circuit,98.348
419,1:39.033,7,25,RAI,2019,3,Bahrain International Circuit,99.033
420,1:39.473,8,26,RAI,2019,3,Bahrain International Circuit,99.473
421,1:38.841,8,27,RAI,2019,3,Bahrain International Circuit,98.841
422,1:39.168,8,28,RAI,2019,3,Bahrain International Circuit,99.168
423,1:38.701,8,29,RAI,2019,3,Bahrain International Circuit,98.701
424,1:39.532,8,30,RAI,2019,3,Bahrain International Circuit,99.532
425,1:38.492,8,31,RAI,2019,3,Bahrain International Circuit,98.492
426,1:38.746,8,32,RAI,2019,3,Bahrain International Circuit,98.746
427,1:43.346,8,33,RAI,2019,3,Bahrain International Circuit,103.346
428,1:58.677,12,34,RAI,2019,3,Bahrain International Circuit,118.677
429,1:36.813,11,35,RAI,2019,3,Bahrain International Circuit,96.813
430,1:36.818,10,36,RAI,2019,3,Bahrain International Circuit,96.818
431,1:35.967,10,37,RAI,2019,3,Bahrain International Circuit,95.967
432,1:36.611,10,38,RAI,2019,3,Bahrain International Circuit,96.611
433,1:36.552,10,39,RAI,2019,3,Bahrain International Circuit,96.552
434,1:36.382,9,40,RAI,2019,3,Bahrain International Circuit,96.382
435,1:36.497,9,41,RAI,2019,3,Bahrain International Circuit,96.497
436,1:36.406,9,42,RAI,2019,3,Bahrain International Circuit,96.406
437,1:36.084,9,43,RAI,2019,3,Bahrain International Circuit,96.084
438,1:37.341,9,44,RAI,2019,3,Bahrain International Circuit,97.341
439,1:35.589,8,45,RAI,2019,3,Bahrain International Circuit,95.589
440,1:36.660,8,46,RAI,2019,3,Bahrain International Circuit,96.66
441,1:36.416,8,47,RAI,2019,3,Bahrain International Circuit,96.416
442,1:36.562,8,48,RAI,2019,3,Bahrain International Circuit,96.562
443,1:36.471,8,49,RAI,2019,3,Bahrain International Circuit,96.471
444,1:36.598,8,50,RAI,2019,3,Bahrain International Circuit,96.598
445,1:37.125,8,51,RAI,2019,3,Bahrain International Circuit,97.125
446,1:37.069,8,52,RAI,2019,3,Bahrain International Circuit,97.069
447,1:37.453,8,53,RAI,2019,3,Bahrain International Circuit,97.453
448,1:36.945,7,54,RAI,2019,3,Bahrain International Circuit,96.945
449,2:17.327,7,55,RAI,2019,3,Bahrain International Circuit,137.327
450,2:12.091,7,56,RAI,2019,3,Bahrain International Circuit,132.091
451,1:53.516,7,57,RAI,2019,3,Bahrain International Circuit,113.516
452,1:43.535,9,1,RIC,2019,3,Bahrain International Circuit,103.535
453,1:38.949,9,2,RIC,2019,3,Bahrain International Circuit,98.949
454,1:38.702,9,3,RIC,2019,3,Bahrain International Circuit,98.702
455,1:38.942,7,4,RIC,2019,3,Bahrain International Circuit,98.942
456,1:38.580,7,5,RIC,2019,3,Bahrain International Circuit,98.58
457,1:38.523,6,6,RIC,2019,3,Bahrain International Circuit,98.523
458,1:38.189,6,7,RIC,2019,3,Bahrain International Circuit,98.189
459,1:37.922,6,8,RIC,2019,3,Bahrain International Circuit,97.922
460,1:38.158,6,9,RIC,2019,3,Bahrain International Circuit,98.158
461,1:38.025,6,10,RIC,2019,3,Bahrain International Circuit,98.025
462,1:38.146,6,11,RIC,2019,3,Bahrain International Circuit,98.146
463,1:38.416,5,12,RIC,2019,3,Bahrain International Circuit,98.416
464,1:38.060,4,13,RIC,2019,3,Bahrain International Circuit,98.06
465,1:38.283,2,14,RIC,2019,3,Bahrain International Circuit,98.283
466,1:38.967,2,15,RIC,2019,3,Bahrain International Circuit,98.967
467,1:39.755,4,16,RIC,2019,3,Bahrain International Circuit,99.755
468,1:38.720,4,17,RIC,2019,3,Bahrain International Circuit,98.72
469,1:40.673,6,18,RIC,2019,3,Bahrain International Circuit,100.673
470,1:39.195,6,19,RIC,2019,3,Bahrain International Circuit,99.195
471,1:39.538,6,20,RIC,2019,3,Bahrain International Circuit,99.538
472,1:38.998,6,21,RIC,2019,3,Bahrain International Circuit,98.998
473,1:39.449,6,22,RIC,2019,3,Bahrain International Circuit,99.449
474,1:39.975,6,23,RIC,2019,3,Bahrain International Circuit,99.975
475,1:42.732,9,24,RIC,2019,3,Bahrain International Circuit,102.732
476,2:00.073,13,25,RIC,2019,3,Bahrain International Circuit,120.073
477,1:37.833,12,26,RIC,2019,3,Bahrain International Circuit,97.833
478,1:38.027,12,27,RIC,2019,3,Bahrain International Circuit,98.027
479,1:37.973,12,28,RIC,2019,3,Bahrain International Circuit,97.973
480,1:38.367,12,29,RIC,2019,3,Bahrain International Circuit,98.367
481,1:37.417,11,30,RIC,2019,3,Bahrain International Circuit,97.417
482,1:37.830,11,31,RIC,2019,3,Bahrain International Circuit,97.83
483,1:37.888,11,32,RIC,2019,3,Bahrain International Circuit,97.888
484,1:37.369,9,33,RIC,2019,3,Bahrain International Circuit,97.369
485,1:37.935,8,34,RIC,2019,3,Bahrain International Circuit,97.935
486,1:37.791,7,35,RIC,2019,3,Bahrain International Circuit,97.791
487,1:37.696,7,36,RIC,2019,3,Bahrain International Circuit,97.696
488,1:38.162,7,37,RIC,2019,3,Bahrain International Circuit,98.162
489,1:38.083,7,38,RIC,2019,3,Bahrain International Circuit,98.083
490,1:38.575,7,39,RIC,2019,3,Bahrain International Circuit,98.575
491,1:37.573,6,40,RIC,2019,3,Bahrain International Circuit,97.573
492,1:37.928,7,41,RIC,2019,3,Bahrain International Circuit,97.928
493,1:36.697,7,42,RIC,2019,3,Bahrain International Circuit,96.697
494,1:36.716,7,43,RIC,2019,3,Bahrain International Circuit,96.716
495,1:38.222,8,44,RIC,2019,3,Bahrain International Circuit,98.222
496,1:37.621,9,45,RIC,2019,3,Bahrain International Circuit,97.621
497,1:37.282,9,46,RIC,2019,3,Bahrain International Circuit,97.282
498,1:37.307,9,47,RIC,2019,3,Bahrain International Circuit,97.307
499,1:37.090,9,48,RIC,2019,3,Bahrain International Circuit,97.09
500,1:37.440,9,49,RIC,2019,3,Bahrain International Circuit,97.44
501,1:37.432,9,50,RIC,2019,3,Bahrain International Circuit,97.432
502,1:37.112,9,51,RIC,2019,3,Bahrain International Circuit,97.112
503,1:38.617,10,52,RIC,2019,3,Bahrain International Circuit,98.617
504,1:37.994,10,53,RIC,2019,3,Bahrain International Circuit,97.994
505,1:44.180,10,1,PER,2019,3,Bahrain International Circuit,104.18
506,1:38.832,10,2,PER,2019,3,Bahrain International Circuit,98.832
507,1:38.951,10,3,PER,2019,3,Bahrain International Circuit,98.951
508,1:40.747,10,4,PER,2019,3,Bahrain International Circuit,100.747
509,1:38.503,10,5,PER,2019,3,Bahrain International Circuit,98.503
510,1:39.449,10,6,PER,2019,3,Bahrain International Circuit,99.449
511,1:38.311,9,7,PER,2019,3,Bahrain International Circuit,98.311
512,1:41.397,11,8,PER,2019,3,Bahrain International Circuit,101.397
513,1:58.412,17,9,PER,2019,3,Bahrain International Circuit,118.412
514,1:36.666,15,10,PER,2019,3,Bahrain International Circuit,96.666
515,1:37.326,11,11,PER,2019,3,Bahrain International Circuit,97.326
516,1:37.414,10,12,PER,2019,3,Bahrain International Circuit,97.414
517,1:37.278,9,13,PER,2019,3,Bahrain International Circuit,97.278
518,1:38.381,11,14,PER,2019,3,Bahrain International Circuit,98.381
519,1:37.920,11,15,PER,2019,3,Bahrain International Circuit,97.92
520,1:38.064,11,16,PER,2019,3,Bahrain International Circuit,98.064
521,1:37.755,10,17,PER,2019,3,Bahrain International Circuit,97.755
522,1:38.152,10,18,PER,2019,3,Bahrain International Circuit,98.152
523,1:38.369,10,19,PER,2019,3,Bahrain International Circuit,98.369
524,1:38.499,10,20,PER,2019,3,Bahrain International Circuit,98.499
525,1:38.247,10,21,PER,2019,3,Bahrain International Circuit,98.247
526,1:39.909,11,22,PER,2019,3,Bahrain International Circuit,99.909
527,1:39.261,11,23,PER,2019,3,Bahrain International Circuit,99.261
528,1:38.662,11,24,PER,2019,3,Bahrain International Circuit,98.662
529,1:39.225,10,25,PER,2019,3,Bahrain International Circuit,99.225
530,1:38.927,10,26,PER,2019,3,Bahrain International Circuit,98.927
531,1:39.390,10,27,PER,2019,3,Bahrain International Circuit,99.39
532,1:39.629,10,28,PER,2019,3,Bahrain International Circuit,99.629
533,1:39.177,10,29,PER,2019,3,Bahrain International Circuit,99.177
534,1:39.347,10,30,PER,2019,3,Bahrain International Circuit,99.347
535,1:39.292,10,31,PER,2019,3,Bahrain International Circuit,99.292
536,1:39.799,10,32,PER,2019,3,Bahrain International Circuit,99.799
537,1:43.857,11,33,PER,2019,3,Bahrain International Circuit,103.857
538,2:00.338,15,34,PER,2019,3,Bahrain International Circuit,120.338
539,1:36.856,15,35,PER,2019,3,Bahrain International Circuit,96.856
540,1:36.722,15,36,PER,2019,3,Bahrain International Circuit,96.722
541,1:37.248,15,37,PER,2019,3,Bahrain International Circuit,97.248
542,1:37.252,14,38,PER,2019,3,Bahrain International Circuit,97.252
543,1:36.712,13,39,PER,2019,3,Bahrain International Circuit,96.712
544,1:36.628,13,40,PER,2019,3,Bahrain International Circuit,96.628
545,1:36.441,12,41,PER,2019,3,Bahrain International Circuit,96.441
546,1:36.419,12,42,PER,2019,3,Bahrain International Circuit,96.419
547,1:36.568,12,43,PER,2019,3,Bahrain International Circuit,96.568
548,1:38.298,12,44,PER,2019,3,Bahrain International Circuit,98.298
549,1:37.871,12,45,PER,2019,3,Bahrain International Circuit,97.871
550,1:36.348,12,46,PER,2019,3,Bahrain International Circuit,96.348
551,1:36.462,12,47,PER,2019,3,Bahrain International Circuit,96.462
552,1:36.529,12,48,PER,2019,3,Bahrain International Circuit,96.529
553,1:36.627,12,49,PER,2019,3,Bahrain International Circuit,96.627
554,1:36.468,12,50,PER,2019,3,Bahrain International Circuit,96.468
555,1:36.330,12,51,PER,2019,3,Bahrain International Circuit,96.33
556,1:37.153,12,52,PER,2019,3,Bahrain International Circuit,97.153
557,1:37.192,12,53,PER,2019,3,Bahrain International Circuit,97.192
558,1:48.817,10,54,PER,2019,3,Bahrain International Circuit,108.817
559,2:09.462,10,55,PER,2019,3,Bahrain International Circuit,129.462
560,1:56.399,10,56,PER,2019,3,Bahrain International Circuit,116.399
561,2:00.523,10,57,PER,2019,3,Bahrain International Circuit,120.523
562,1:44.549,11,1,HUL,2019,3,Bahrain International Circuit,104.549
563,1:38.850,11,2,HUL,2019,3,Bahrain International Circuit,98.85
564,1:39.065,11,3,HUL,2019,3,Bahrain International Circuit,99.065
565,1:39.698,9,4,HUL,2019,3,Bahrain International Circuit,99.698
566,1:38.139,9,5,HUL,2019,3,Bahrain International Circuit,98.139
567,1:39.082,8,6,HUL,2019,3,Bahrain International Circuit,99.082
568,1:38.404,8,7,HUL,2019,3,Bahrain International Circuit,98.404
569,1:38.526,8,8,HUL,2019,3,Bahrain International Circuit,98.526
570,1:37.956,7,9,HUL,2019,3,Bahrain International Circuit,97.956
571,1:37.309,7,10,HUL,2019,3,Bahrain International Circuit,97.309
572,1:38.088,7,11,HUL,2019,3,Bahrain International Circuit,98.088
573,1:40.753,6,12,HUL,2019,3,Bahrain International Circuit,100.753
574,1:57.266,10,13,HUL,2019,3,Bahrain International Circuit,117.266
575,1:35.215,9,14,HUL,2019,3,Bahrain International Circuit,95.215
576,1:36.746,9,15,HUL,2019,3,Bahrain International Circuit,96.746
577,1:37.105,8,16,HUL,2019,3,Bahrain International Circuit,97.105
578,1:37.173,8,17,HUL,2019,3,Bahrain International Circuit,97.173
579,1:37.131,8,18,HUL,2019,3,Bahrain International Circuit,97.131
580,1:37.058,8,19,HUL,2019,3,Bahrain International Circuit,97.058
581,1:38.068,8,20,HUL,2019,3,Bahrain International Circuit,98.068
582,1:37.063,7,21,HUL,2019,3,Bahrain International Circuit,97.063
583,1:37.620,7,22,HUL,2019,3,Bahrain International Circuit,97.62
584,1:37.940,7,23,HUL,2019,3,Bahrain International Circuit,97.94
585,1:39.253,6,24,HUL,2019,3,Bahrain International Circuit,99.253
586,1:37.526,6,25,HUL,2019,3,Bahrain International Circuit,97.526
587,1:37.925,6,26,HUL,2019,3,Bahrain International Circuit,97.925
588,1:38.513,6,27,HUL,2019,3,Bahrain International Circuit,98.513
589,1:38.624,6,28,HUL,2019,3,Bahrain International Circuit,98.624
590,1:38.405,6,29,HUL,2019,3,Bahrain International Circuit,98.405
591,1:38.428,6,30,HUL,2019,3,Bahrain International Circuit,98.428
592,1:38.584,6,31,HUL,2019,3,Bahrain International Circuit,98.584
593,1:41.252,6,32,HUL,2019,3,Bahrain International Circuit,101.252
594,1:59.247,10,33,HUL,2019,3,Bahrain International Circuit,119.247
595,1:36.547,9,34,HUL,2019,3,Bahrain International Circuit,96.547
596,1:37.889,8,35,HUL,2019,3,Bahrain International Circuit,97.889
597,1:37.863,8,36,HUL,2019,3,Bahrain International Circuit,97.863
598,1:37.371,8,37,HUL,2019,3,Bahrain International Circuit,97.371
599,1:37.190,8,38,HUL,2019,3,Bahrain International Circuit,97.19
600,1:36.729,6,39,HUL,2019,3,Bahrain International Circuit,96.729
601,1:37.244,5,40,HUL,2019,3,Bahrain International Circuit,97.244
602,1:37.350,5,41,HUL,2019,3,Bahrain International Circuit,97.35
603,1:36.524,5,42,HUL,2019,3,Bahrain International Circuit,96.524
604,1:37.131,6,43,HUL,2019,3,Bahrain International Circuit,97.131
605,1:36.495,6,44,HUL,2019,3,Bahrain International Circuit,96.495
606,1:36.346,6,45,HUL,2019,3,Bahrain International Circuit,96.346
607,1:36.057,6,46,HUL,2019,3,Bahrain International Circuit,96.057
608,1:36.394,6,47,HUL,2019,3,Bahrain International Circuit,96.394
609,1:36.190,6,48,HUL,2019,3,Bahrain International Circuit,96.19
610,1:36.779,6,49,HUL,2019,3,Bahrain International Circuit,96.779
611,1:36.270,6,50,HUL,2019,3,Bahrain International Circuit,96.27
612,1:36.331,6,51,HUL,2019,3,Bahrain International Circuit,96.331
613,1:37.359,6,52,HUL,2019,3,Bahrain International Circuit,97.359
614,1:37.286,6,53,HUL,2019,3,Bahrain International Circuit,97.286
615,1:45.321,12,1,GAS,2019,3,Bahrain International Circuit,105.321
616,1:39.116,12,2,GAS,2019,3,Bahrain International Circuit,99.116
617,1:38.794,12,3,GAS,2019,3,Bahrain International Circuit,98.794
618,1:40.003,11,4,GAS,2019,3,Bahrain International Circuit,100.003
619,1:38.574,11,5,GAS,2019,3,Bahrain International Circuit,98.574
620,1:39.343,11,6,GAS,2019,3,Bahrain International Circuit,99.343
621,1:40.112,12,7,GAS,2019,3,Bahrain International Circuit,100.112
622,1:39.189,12,8,GAS,2019,3,Bahrain International Circuit,99.189
623,1:42.197,13,9,GAS,2019,3,Bahrain International Circuit,102.197
624,1:59.647,17,10,GAS,2019,3,Bahrain International Circuit,119.647
625,1:37.179,17,11,GAS,2019,3,Bahrain International Circuit,97.179
626,1:36.493,14,12,GAS,2019,3,Bahrain International Circuit,96.493
627,1:36.819,13,13,GAS,2019,3,Bahrain International Circuit,96.819
628,1:36.567,13,14,GAS,2019,3,Bahrain International Circuit,96.567
629,1:37.667,13,15,GAS,2019,3,Bahrain International Circuit,97.667
630,1:37.565,13,16,GAS,2019,3,Bahrain International Circuit,97.565
631,1:38.070,11,17,GAS,2019,3,Bahrain International Circuit,98.07
632,1:37.473,11,18,GAS,2019,3,Bahrain International Circuit,97.473
633,1:38.052,11,19,GAS,2019,3,Bahrain International Circuit,98.052
634,1:37.681,11,20,GAS,2019,3,Bahrain International Circuit,97.681
635,1:37.623,11,21,GAS,2019,3,Bahrain International Circuit,97.623
636,1:38.087,10,22,GAS,2019,3,Bahrain International Circuit,98.087
637,1:38.429,10,23,GAS,2019,3,Bahrain International Circuit,98.429
638,1:37.965,10,24,GAS,2019,3,Bahrain International Circuit,97.965
639,1:38.019,9,25,GAS,2019,3,Bahrain International Circuit,98.019
640,1:37.960,9,26,GAS,2019,3,Bahrain International Circuit,97.96
641,1:38.060,9,27,GAS,2019,3,Bahrain International Circuit,98.06
642,1:38.752,9,28,GAS,2019,3,Bahrain International Circuit,98.752
643,1:38.197,9,29,GAS,2019,3,Bahrain International Circuit,98.197
644,1:38.402,9,30,GAS,2019,3,Bahrain International Circuit,98.402
645,1:38.689,9,31,GAS,2019,3,Bahrain International Circuit,98.689
646,1:38.353,9,32,GAS,2019,3,Bahrain International Circuit,98.353
647,1:38.807,7,33,GAS,2019,3,Bahrain International Circuit,98.807
648,1:38.406,7,34,GAS,2019,3,Bahrain International Circuit,98.406
649,1:38.849,6,35,GAS,2019,3,Bahrain International Circuit,98.849
650,1:38.676,6,36,GAS,2019,3,Bahrain International Circuit,98.676
651,1:38.533,6,37,GAS,2019,3,Bahrain International Circuit,98.533
652,1:39.175,6,38,GAS,2019,3,Bahrain International Circuit,99.175
653,1:41.894,5,39,GAS,2019,3,Bahrain International Circuit,101.894
654,1:57.320,11,40,GAS,2019,3,Bahrain International Circuit,117.32
655,1:35.444,11,41,GAS,2019,3,Bahrain International Circuit,95.444
656,1:35.291,11,42,GAS,2019,3,Bahrain International Circuit,95.291
657,1:35.780,11,43,GAS,2019,3,Bahrain International Circuit,95.78
658,1:35.949,10,44,GAS,2019,3,Bahrain International Circuit,95.949
659,1:35.524,10,45,GAS,2019,3,Bahrain International Circuit,95.524
660,1:35.390,10,46,GAS,2019,3,Bahrain International Circuit,95.39
661,1:35.671,10,47,GAS,2019,3,Bahrain International Circuit,95.671
662,1:36.211,10,48,GAS,2019,3,Bahrain International Circuit,96.211
663,1:36.248,10,49,GAS,2019,3,Bahrain International Circuit,96.248
664,1:36.062,10,50,GAS,2019,3,Bahrain International Circuit,96.062
665,1:36.708,10,51,GAS,2019,3,Bahrain International Circuit,96.708
666,1:35.755,9,52,GAS,2019,3,Bahrain International Circuit,95.755
667,1:35.865,9,53,GAS,2019,3,Bahrain International Circuit,95.865
668,1:36.470,8,54,GAS,2019,3,Bahrain International Circuit,96.47
669,2:18.606,8,55,GAS,2019,3,Bahrain International Circuit,138.606
670,2:11.907,8,56,GAS,2019,3,Bahrain International Circuit,131.907
671,2:00.450,8,57,GAS,2019,3,Bahrain International Circuit,120.45
672,1:46.029,13,1,ALB,2019,3,Bahrain International Circuit,106.029
673,1:39.710,14,2,ALB,2019,3,Bahrain International Circuit,99.71
674,1:38.555,14,3,ALB,2019,3,Bahrain International Circuit,98.555
675,1:39.832,13,4,ALB,2019,3,Bahrain International Circuit,99.832
676,1:39.142,13,5,ALB,2019,3,Bahrain International Circuit,99.142
677,1:38.824,13,6,ALB,2019,3,Bahrain International Circuit,98.824
678,1:40.075,13,7,ALB,2019,3,Bahrain International Circuit,100.075
679,1:38.946,13,8,ALB,2019,3,Bahrain International Circuit,98.946
680,1:42.610,14,9,ALB,2019,3,Bahrain International Circuit,102.61
681,1:58.220,16,10,ALB,2019,3,Bahrain International Circuit,118.22
682,1:37.139,16,11,ALB,2019,3,Bahrain International Circuit,97.139
683,1:39.401,15,4,GIO,2019,3,Bahrain International Circuit,99.401
684,1:39.456,15,5,GIO,2019,3,Bahrain International Circuit,99.456
685,1:38.925,15,6,GIO,2019,3,Bahrain International Circuit,98.925
686,1:39.868,15,7,GIO,2019,3,Bahrain International Circuit,99.868
687,1:39.338,15,8,GIO,2019,3,Bahrain International Circuit,99.338
688,1:39.342,12,9,GIO,2019,3,Bahrain International Circuit,99.342
689,1:38.232,10,10,GIO,2019,3,Bahrain International Circuit,98.232
690,1:38.993,9,11,GIO,2019,3,Bahrain International Circuit,98.993
691,1:40.487,7,12,GIO,2019,3,Bahrain International Circuit,100.487
692,1:39.188,7,13,GIO,2019,3,Bahrain International Circuit,99.188
693,1:39.698,7,14,GIO,2019,3,Bahrain International Circuit,99.698
694,1:40.080,8,15,GIO,2019,3,Bahrain International Circuit,100.08
695,1:42.938,10,16,GIO,2019,3,Bahrain International Circuit,102.938
696,2:00.447,14,17,GIO,2019,3,Bahrain International Circuit,120.447
697,1:36.400,14,18,GIO,2019,3,Bahrain International Circuit,96.4
698,1:36.884,14,19,GIO,2019,3,Bahrain International Circuit,96.884
699,1:37.043,14,20,GIO,2019,3,Bahrain International Circuit,97.043
700,1:37.478,14,21,GIO,2019,3,Bahrain International Circuit,97.478
701,1:38.117,14,22,GIO,2019,3,Bahrain International Circuit,98.117
702,1:38.145,14,23,GIO,2019,3,Bahrain International Circuit,98.145
703,1:37.753,14,24,GIO,2019,3,Bahrain International Circuit,97.753
704,1:38.469,14,25,GIO,2019,3,Bahrain International Circuit,98.469
705,1:38.538,13,26,GIO,2019,3,Bahrain International Circuit,98.538
706,1:38.389,13,27,GIO,2019,3,Bahrain International Circuit,98.389
707,1:38.485,13,28,GIO,2019,3,Bahrain International Circuit,98.485
708,1:38.435,13,29,GIO,2019,3,Bahrain International Circuit,98.435
709,1:38.734,13,30,GIO,2019,3,Bahrain International Circuit,98.734
710,1:38.951,13,31,GIO,2019,3,Bahrain International Circuit,98.951
711,1:38.625,13,32,GIO,2019,3,Bahrain International Circuit,98.625
712,1:39.012,12,33,GIO,2019,3,Bahrain International Circuit,99.012
713,1:38.620,10,34,GIO,2019,3,Bahrain International Circuit,98.62
714,1:38.870,10,35,GIO,2019,3,Bahrain International Circuit,98.87
715,1:39.964,11,36,GIO,2019,3,Bahrain International Circuit,99.964
716,1:38.251,11,37,GIO,2019,3,Bahrain International Circuit,98.251
717,1:38.394,11,38,GIO,2019,3,Bahrain International Circuit,98.394
718,1:39.217,12,39,GIO,2019,3,Bahrain International Circuit,99.217
719,1:41.438,12,40,GIO,2019,3,Bahrain International Circuit,101.438
720,1:57.141,13,41,GIO,2019,3,Bahrain International Circuit,117.141
721,1:35.237,13,42,GIO,2019,3,Bahrain International Circuit,95.237
722,1:35.311,13,43,GIO,2019,3,Bahrain International Circuit,95.311
723,1:35.551,13,44,GIO,2019,3,Bahrain International Circuit,95.551
724,1:35.892,13,45,GIO,2019,3,Bahrain International Circuit,95.892
725,1:35.951,13,46,GIO,2019,3,Bahrain International Circuit,95.951
726,1:36.367,13,47,GIO,2019,3,Bahrain International Circuit,96.367
727,1:36.426,13,48,GIO,2019,3,Bahrain International Circuit,96.426
728,1:35.964,13,49,GIO,2019,3,Bahrain International Circuit,95.964
729,1:36.287,13,50,GIO,2019,3,Bahrain International Circuit,96.287
730,1:35.843,13,51,GIO,2019,3,Bahrain International Circuit,95.843
731,1:35.899,13,52,GIO,2019,3,Bahrain International Circuit,95.899
732,1:36.134,13,53,GIO,2019,3,Bahrain International Circuit,96.134
733,1:50.569,11,54,GIO,2019,3,Bahrain International Circuit,110.569
734,2:10.372,11,55,GIO,2019,3,Bahrain International Circuit,130.372
735,2:02.116,11,56,GIO,2019,3,Bahrain International Circuit,122.116
736,1:48.638,11,57,GIO,2019,3,Bahrain International Circuit,108.638
737,1:46.565,16,1,KVY,2019,3,Bahrain International Circuit,106.565
738,1:39.828,15,2,KVY,2019,3,Bahrain International Circuit,99.828
739,1:38.770,15,3,KVY,2019,3,Bahrain International Circuit,98.77
740,1:39.401,14,4,KVY,2019,3,Bahrain International Circuit,99.401
741,1:39.400,14,5,KVY,2019,3,Bahrain International Circuit,99.4
742,1:38.617,14,6,KVY,2019,3,Bahrain International Circuit,98.617
743,1:40.277,14,7,KVY,2019,3,Bahrain International Circuit,100.277
744,1:39.083,14,8,KVY,2019,3,Bahrain International Circuit,99.083
745,1:39.414,11,9,KVY,2019,3,Bahrain International Circuit,99.414
746,1:38.177,8,10,KVY,2019,3,Bahrain International Circuit,98.177
747,1:38.824,8,11,KVY,2019,3,Bahrain International Circuit,98.824
748,1:56.914,13,12,KVY,2019,3,Bahrain International Circuit,116.914
749,1:59.704,16,13,KVY,2019,3,Bahrain International Circuit,119.704
750,1:35.813,16,14,KVY,2019,3,Bahrain International Circuit,95.813
751,1:37.164,15,15,KVY,2019,3,Bahrain International Circuit,97.164
752,1:37.552,15,16,KVY,2019,3,Bahrain International Circuit,97.552
753,1:38.299,15,17,KVY,2019,3,Bahrain International Circuit,98.299
754,1:37.363,15,18,KVY,2019,3,Bahrain International Circuit,97.363
755,1:37.795,15,19,KVY,2019,3,Bahrain International Circuit,97.795
756,1:37.821,15,20,KVY,2019,3,Bahrain International Circuit,97.821
757,1:37.791,15,21,KVY,2019,3,Bahrain International Circuit,97.791
758,1:37.815,15,22,KVY,2019,3,Bahrain International Circuit,97.815
759,1:37.864,15,23,KVY,2019,3,Bahrain International Circuit,97.864
760,1:37.918,15,24,KVY,2019,3,Bahrain International Circuit,97.918
761,1:38.424,15,25,KVY,2019,3,Bahrain International Circuit,98.424
762,1:38.608,14,26,KVY,2019,3,Bahrain International Circuit,98.608
763,1:39.252,14,27,KVY,2019,3,Bahrain International Circuit,99.252
764,1:38.632,14,28,KVY,2019,3,Bahrain International Circuit,98.632
765,1:38.296,14,29,KVY,2019,3,Bahrain International Circuit,98.296
766,1:38.260,14,30,KVY,2019,3,Bahrain International Circuit,98.26
767,1:38.766,14,31,KVY,2019,3,Bahrain International Circuit,98.766
768,1:38.614,14,32,KVY,2019,3,Bahrain International Circuit,98.614
769,1:38.595,14,33,KVY,2019,3,Bahrain International Circuit,98.595
770,1:40.740,14,34,KVY,2019,3,Bahrain International Circuit,100.74
771,1:39.060,14,35,KVY,2019,3,Bahrain International Circuit,99.06
772,1:39.210,14,36,KVY,2019,3,Bahrain International Circuit,99.21
773,1:39.384,14,37,KVY,2019,3,Bahrain International Circuit,99.384
774,1:41.810,13,38,KVY,2019,3,Bahrain International Circuit,101.81
775,2:03.927,15,39,KVY,2019,3,Bahrain International Circuit,123.927
776,1:34.934,15,40,KVY,2019,3,Bahrain International Circuit,94.934
777,1:35.201,15,41,KVY,2019,3,Bahrain International Circuit,95.201
778,1:35.446,14,42,KVY,2019,3,Bahrain International Circuit,95.446
779,1:36.239,14,43,KVY,2019,3,Bahrain International Circuit,96.239
780,1:36.154,14,44,KVY,2019,3,Bahrain International Circuit,96.154
781,1:36.521,14,45,KVY,2019,3,Bahrain International Circuit,96.521
782,1:35.969,14,46,KVY,2019,3,Bahrain International Circuit,95.969
783,1:35.857,14,47,KVY,2019,3,Bahrain International Circuit,95.857
784,1:36.525,14,48,KVY,2019,3,Bahrain International Circuit,96.525
785,1:36.437,14,49,KVY,2019,3,Bahrain International Circuit,96.437
786,1:36.016,14,50,KVY,2019,3,Bahrain International Circuit,96.016
787,1:36.044,14,51,KVY,2019,3,Bahrain International Circuit,96.044
788,1:36.317,14,52,KVY,2019,3,Bahrain International Circuit,96.317
789,1:36.004,14,53,KVY,2019,3,Bahrain International Circuit,96.004
790,1:57.816,12,54,KVY,2019,3,Bahrain International Circuit,117.816
791,2:13.386,12,55,KVY,2019,3,Bahrain International Circuit,133.386
792,2:28.288,12,56,KVY,2019,3,Bahrain International Circuit,148.288
793,1:47.298,17,1,KUB,2019,3,Bahrain International Circuit,107.298
794,1:41.041,17,2,KUB,2019,3,Bahrain International Circuit,101.041
795,1:40.375,17,3,KUB,2019,3,Bahrain International Circuit,100.375
796,1:41.838,17,4,KUB,2019,3,Bahrain International Circuit,101.838
797,1:39.958,17,5,KUB,2019,3,Bahrain International Circuit,99.958
798,1:40.209,16,6,KUB,2019,3,Bahrain International Circuit,100.209
799,1:40.071,16,7,KUB,2019,3,Bahrain International Circuit,100.071
800,1:40.149,16,8,KUB,2019,3,Bahrain International Circuit,100.149
801,1:40.429,15,9,KUB,2019,3,Bahrain International Circuit,100.429
802,1:40.205,12,10,KUB,2019,3,Bahrain International Circuit,100.205
803,1:43.663,13,11,KUB,2019,3,Bahrain International Circuit,103.663
804,1:57.871,17,12,KUB,2019,3,Bahrain International Circuit,117.871
805,1:37.903,15,13,KUB,2019,3,Bahrain International Circuit,97.903
806,1:38.498,15,14,KUB,2019,3,Bahrain International Circuit,98.498
807,1:39.694,16,15,KUB,2019,3,Bahrain International Circuit,99.694
808,1:38.643,16,16,KUB,2019,3,Bahrain International Circuit,98.643
809,1:39.723,16,17,KUB,2019,3,Bahrain International Circuit,99.723
810,1:39.082,16,18,KUB,2019,3,Bahrain International Circuit,99.082
811,1:39.402,16,19,KUB,2019,3,Bahrain International Circuit,99.402
812,1:39.950,16,20,KUB,2019,3,Bahrain International Circuit,99.95
813,1:39.804,16,21,KUB,2019,3,Bahrain International Circuit,99.804
814,1:41.162,17,22,KUB,2019,3,Bahrain International Circuit,101.162
815,1:39.830,17,23,KUB,2019,3,Bahrain International Circuit,99.83
816,1:40.577,17,24,KUB,2019,3,Bahrain International Circuit,100.577
817,1:40.475,17,25,KUB,2019,3,Bahrain International Circuit,100.475
818,1:42.058,17,26,KUB,2019,3,Bahrain International Circuit,102.058
819,1:43.829,16,27,KUB,2019,3,Bahrain International Circuit,103.829
820,1:59.215,18,28,KUB,2019,3,Bahrain International Circuit,119.215
821,1:38.180,18,29,KUB,2019,3,Bahrain International Circuit,98.18
822,1:38.928,18,30,KUB,2019,3,Bahrain International Circuit,98.928
823,1:39.847,19,31,KUB,2019,3,Bahrain International Circuit,99.847
824,1:38.967,19,32,KUB,2019,3,Bahrain International Circuit,98.967
825,1:39.367,19,33,KUB,2019,3,Bahrain International Circuit,99.367
826,1:39.408,19,34,KUB,2019,3,Bahrain International Circuit,99.408
827,1:39.431,19,35,KUB,2019,3,Bahrain International Circuit,99.431
828,1:39.807,19,36,KUB,2019,3,Bahrain International Circuit,99.807
829,1:41.075,19,37,KUB,2019,3,Bahrain International Circuit,101.075
830,1:40.591,19,38,KUB,2019,3,Bahrain International Circuit,100.591
831,1:39.748,19,39,KUB,2019,3,Bahrain International Circuit,99.748
832,1:39.388,19,40,KUB,2019,3,Bahrain International Circuit,99.388
833,1:39.779,18,41,KUB,2019,3,Bahrain International Circuit,99.779
834,1:39.283,18,42,KUB,2019,3,Bahrain International Circuit,99.283
835,1:40.192,19,43,KUB,2019,3,Bahrain International Circuit,100.192
836,1:39.389,19,44,KUB,2019,3,Bahrain International Circuit,99.389
837,1:41.836,19,45,KUB,2019,3,Bahrain International Circuit,101.836
838,1:43.486,19,46,KUB,2019,3,Bahrain International Circuit,103.486
839,1:40.654,19,47,KUB,2019,3,Bahrain International Circuit,100.654
840,1:39.401,19,48,KUB,2019,3,Bahrain International Circuit,99.401
841,1:39.590,19,49,KUB,2019,3,Bahrain International Circuit,99.59
842,1:39.943,19,50,KUB,2019,3,Bahrain International Circuit,99.943
843,1:43.989,19,51,KUB,2019,3,Bahrain International Circuit,103.989
844,1:43.642,19,52,KUB,2019,3,Bahrain International Circuit,103.642
845,2:01.077,19,53,KUB,2019,3,Bahrain International Circuit,121.077
846,2:13.141,16,54,KUB,2019,3,Bahrain International Circuit,133.141
847,2:28.972,16,55,KUB,2019,3,Bahrain International Circuit,148.972
848,1:47.726,18,1,RUS,2019,3,Bahrain International Circuit,107.726
849,1:40.752,18,2,RUS,2019,3,Bahrain International Circuit,100.752
850,1:40.776,18,3,RUS,2019,3,Bahrain International Circuit,100.776
851,1:40.420,16,4,RUS,2019,3,Bahrain International Circuit,100.42
852,1:39.938,16,5,RUS,2019,3,Bahrain International Circuit,99.938
853,1:42.050,17,6,RUS,2019,3,Bahrain International Circuit,102.05
854,1:40.117,17,7,RUS,2019,3,Bahrain International Circuit,100.117
855,1:39.938,17,8,RUS,2019,3,Bahrain International Circuit,99.938
856,1:40.481,16,9,RUS,2019,3,Bahrain International Circuit,100.481
857,1:40.560,13,10,RUS,2019,3,Bahrain International Circuit,100.56
858,1:41.513,12,11,RUS,2019,3,Bahrain International Circuit,101.513
859,1:43.060,16,12,RUS,2019,3,Bahrain International Circuit,103.06
860,1:59.554,17,13,RUS,2019,3,Bahrain International Circuit,119.554
861,1:37.313,17,14,RUS,2019,3,Bahrain International Circuit,97.313
862,1:37.673,17,15,RUS,2019,3,Bahrain International Circuit,97.673
863,1:38.357,17,16,RUS,2019,3,Bahrain International Circuit,98.357
864,1:38.820,17,17,RUS,2019,3,Bahrain International Circuit,98.82
865,1:39.006,17,18,RUS,2019,3,Bahrain International Circuit,99.006
866,1:39.211,17,19,RUS,2019,3,Bahrain International Circuit,99.211
867,1:39.575,17,20,RUS,2019,3,Bahrain International Circuit,99.575
868,1:39.640,17,21,RUS,2019,3,Bahrain International Circuit,99.64
869,1:39.378,16,22,RUS,2019,3,Bahrain International Circuit,99.378
870,1:39.868,16,23,RUS,2019,3,Bahrain International Circuit,99.868
871,1:39.658,16,24,RUS,2019,3,Bahrain International Circuit,99.658
872,1:39.886,16,25,RUS,2019,3,Bahrain International Circuit,99.886
873,1:42.306,16,26,RUS,2019,3,Bahrain International Circuit,102.306
874,2:00.846,17,27,RUS,2019,3,Bahrain International Circuit,120.846
875,1:37.847,16,28,RUS,2019,3,Bahrain International Circuit,97.847
876,1:38.352,16,29,RUS,2019,3,Bahrain International Circuit,98.352
877,1:38.600,16,30,RUS,2019,3,Bahrain International Circuit,98.6
878,1:39.529,16,31,RUS,2019,3,Bahrain International Circuit,99.529
879,1:38.220,16,32,RUS,2019,3,Bahrain International Circuit,98.22
880,1:38.301,16,33,RUS,2019,3,Bahrain International Circuit,98.301
881,1:39.417,16,34,RUS,2019,3,Bahrain International Circuit,99.417
882,1:37.866,16,35,RUS,2019,3,Bahrain International Circuit,97.866
883,1:38.535,16,36,RUS,2019,3,Bahrain International Circuit,98.535
884,1:41.093,17,37,RUS,2019,3,Bahrain International Circuit,101.093
885,1:39.347,17,38,RUS,2019,3,Bahrain International Circuit,99.347
886,1:38.526,17,39,RUS,2019,3,Bahrain International Circuit,98.526
887,1:38.455,17,40,RUS,2019,3,Bahrain International Circuit,98.455
888,1:40.354,17,41,RUS,2019,3,Bahrain International Circuit,100.354
889,1:39.765,17,42,RUS,2019,3,Bahrain International Circuit,99.765
890,1:38.622,17,43,RUS,2019,3,Bahrain International Circuit,98.622
891,1:38.618,17,44,RUS,2019,3,Bahrain International Circuit,98.618
892,1:39.004,17,45,RUS,2019,3,Bahrain International Circuit,99.004
893,1:38.790,17,46,RUS,2019,3,Bahrain International Circuit,98.79
894,1:39.191,17,47,RUS,2019,3,Bahrain International Circuit,99.191
895,1:39.686,17,48,RUS,2019,3,Bahrain International Circuit,99.686
896,1:39.842,18,49,RUS,2019,3,Bahrain International Circuit,99.842
897,1:41.616,18,50,RUS,2019,3,Bahrain International Circuit,101.616
898,1:41.139,18,51,RUS,2019,3,Bahrain International Circuit,101.139
899,1:42.204,18,52,RUS,2019,3,Bahrain International Circuit,102.204
900,1:43.668,18,53,RUS,2019,3,Bahrain International Circuit,103.668
901,2:14.855,15,54,RUS,2019,3,Bahrain International Circuit,134.855
902,2:09.890,15,55,RUS,2019,3,Bahrain International Circuit,129.89
903,2:01.261,15,56,RUS,2019,3,Bahrain International Circuit,121.261
904,2:12.920,19,1,STR,2019,3,Bahrain International Circuit,132.92
905,2:07.111,19,2,STR,2019,3,Bahrain International Circuit,127.111
906,1:37.816,19,3,STR,2019,3,Bahrain International Circuit,97.816
907,1:38.329,19,4,STR,2019,3,Bahrain International Circuit,98.329
908,1:37.916,18,5,STR,2019,3,Bahrain International Circuit,97.916
909,1:37.911,18,6,STR,2019,3,Bahrain International Circuit,97.911
910,1:38.350,18,7,STR,2019,3,Bahrain International Circuit,98.35
911,1:38.413,18,8,STR,2019,3,Bahrain International Circuit,98.413
912,1:39.268,18,9,STR,2019,3,Bahrain International Circuit,99.268
913,1:38.382,18,10,STR,2019,3,Bahrain International Circuit,98.382
914,1:38.278,18,11,STR,2019,3,Bahrain International Circuit,98.278
915,1:38.210,18,12,STR,2019,3,Bahrain International Circuit,98.21
916,1:38.493,18,13,STR,2019,3,Bahrain International Circuit,98.493
917,1:38.406,18,14,STR,2019,3,Bahrain International Circuit,98.406
918,1:38.971,18,15,STR,2019,3,Bahrain International Circuit,98.971
919,1:38.779,18,16,STR,2019,3,Bahrain International Circuit,98.779
920,1:39.144,18,17,STR,2019,3,Bahrain International Circuit,99.144
921,1:39.148,18,18,STR,2019,3,Bahrain International Circuit,99.148
922,1:40.366,18,19,STR,2019,3,Bahrain International Circuit,100.366
923,1:39.513,18,20,STR,2019,3,Bahrain International Circuit,99.513
924,1:39.731,18,21,STR,2019,3,Bahrain International Circuit,99.731
925,1:40.297,18,22,STR,2019,3,Bahrain International Circuit,100.297
926,1:43.367,19,23,STR,2019,3,Bahrain International Circuit,103.367
927,2:01.811,19,24,STR,2019,3,Bahrain International Circuit,121.811
928,1:37.586,18,25,STR,2019,3,Bahrain International Circuit,97.586
929,1:37.854,18,26,STR,2019,3,Bahrain International Circuit,97.854
930,1:37.757,18,27,STR,2019,3,Bahrain International Circuit,97.757
931,1:37.980,17,28,STR,2019,3,Bahrain International Circuit,97.98
932,1:37.914,17,29,STR,2019,3,Bahrain International Circuit,97.914
933,1:38.729,17,30,STR,2019,3,Bahrain International Circuit,98.729
934,1:37.037,17,31,STR,2019,3,Bahrain International Circuit,97.037
935,1:37.822,17,32,STR,2019,3,Bahrain International Circuit,97.822
936,1:37.625,17,33,STR,2019,3,Bahrain International Circuit,97.625
937,1:38.703,17,34,STR,2019,3,Bahrain International Circuit,98.703
938,1:37.719,17,35,STR,2019,3,Bahrain International Circuit,97.719
939,1:38.384,17,36,STR,2019,3,Bahrain International Circuit,98.384
940,1:38.671,16,37,STR,2019,3,Bahrain International Circuit,98.671
941,1:38.290,16,38,STR,2019,3,Bahrain International Circuit,98.29
942,1:37.340,16,39,STR,2019,3,Bahrain International Circuit,97.34
943,1:37.908,16,40,STR,2019,3,Bahrain International Circuit,97.908
944,1:38.103,16,41,STR,2019,3,Bahrain International Circuit,98.103
945,1:40.301,16,42,STR,2019,3,Bahrain International Circuit,100.301
946,1:38.487,16,43,STR,2019,3,Bahrain International Circuit,98.487
947,1:39.068,16,44,STR,2019,3,Bahrain International Circuit,99.068
948,1:38.024,16,45,STR,2019,3,Bahrain International Circuit,98.024
949,1:37.987,16,46,STR,2019,3,Bahrain International Circuit,97.987
950,1:38.245,16,47,STR,2019,3,Bahrain International Circuit,98.245
951,1:38.199,16,48,STR,2019,3,Bahrain International Circuit,98.199
952,1:38.219,16,49,STR,2019,3,Bahrain International Circuit,98.219
953,1:38.363,16,50,STR,2019,3,Bahrain International Circuit,98.363
954,1:38.576,16,51,STR,2019,3,Bahrain International Circuit,98.576
955,1:38.470,16,52,STR,2019,3,Bahrain International Circuit,98.47
956,1:38.887,16,53,STR,2019,3,Bahrain International Circuit,98.887
957,2:11.191,14,54,STR,2019,3,Bahrain International Circuit,131.191
958,2:14.128,14,55,STR,2019,3,Bahrain International Circuit,134.128
959,1:47.007,14,56,STR,2019,3,Bahrain International Circuit,107.007
960,2:19.964,20,1,GRO,2019,3,Bahrain International Circuit,139.964
961,2:05.015,20,2,GRO,2019,3,Bahrain International Circuit,125.015
962,1:37.262,20,3,GRO,2019,3,Bahrain International Circuit,97.262
963,1:37.953,20,4,GRO,2019,3,Bahrain International Circuit,97.953
964,1:38.403,19,5,GRO,2019,3,Bahrain International Circuit,98.403
965,1:38.880,19,6,GRO,2019,3,Bahrain International Circuit,98.88
966,1:38.437,19,7,GRO,2019,3,Bahrain International Circuit,98.437
967,1:38.321,19,8,GRO,2019,3,Bahrain International Circuit,98.321
968,1:38.856,19,9,GRO,2019,3,Bahrain International Circuit,98.856
969,1:38.965,19,10,GRO,2019,3,Bahrain International Circuit,98.965
970,1:39.362,19,11,GRO,2019,3,Bahrain International Circuit,99.362
971,1:38.627,19,12,GRO,2019,3,Bahrain International Circuit,98.627
972,1:38.562,19,13,GRO,2019,3,Bahrain International Circuit,98.562
973,1:38.506,19,14,GRO,2019,3,Bahrain International Circuit,98.506
974,1:38.770,19,15,GRO,2019,3,Bahrain International Circuit,98.77
975,1:42.879,20,16,GRO,2019,3,Bahrain International Circuit,102.879
976,1:37.798,15,12,ALB,2019,3,Bahrain International Circuit,97.798
977,1:36.762,14,13,ALB,2019,3,Bahrain International Circuit,96.762
978,1:36.931,14,14,ALB,2019,3,Bahrain International Circuit,96.931
979,1:37.268,14,15,ALB,2019,3,Bahrain International Circuit,97.268
980,1:37.701,14,16,ALB,2019,3,Bahrain International Circuit,97.701
981,1:38.633,13,17,ALB,2019,3,Bahrain International Circuit,98.633
982,1:38.146,12,18,ALB,2019,3,Bahrain International Circuit,98.146
983,1:38.708,12,19,ALB,2019,3,Bahrain International Circuit,98.708
984,1:39.394,12,20,ALB,2019,3,Bahrain International Circuit,99.394
985,1:38.625,12,21,ALB,2019,3,Bahrain International Circuit,98.625
986,1:38.913,12,22,ALB,2019,3,Bahrain International Circuit,98.913
987,1:38.666,12,23,ALB,2019,3,Bahrain International Circuit,98.666
988,1:38.795,12,24,ALB,2019,3,Bahrain International Circuit,98.795
989,1:41.438,12,25,ALB,2019,3,Bahrain International Circuit,101.438
990,1:59.635,15,26,ALB,2019,3,Bahrain International Circuit,119.635
991,1:37.006,15,27,ALB,2019,3,Bahrain International Circuit,97.006
992,1:37.018,15,28,ALB,2019,3,Bahrain International Circuit,97.018
993,1:37.053,15,29,ALB,2019,3,Bahrain International Circuit,97.053
994,1:36.802,15,30,ALB,2019,3,Bahrain International Circuit,96.802
995,1:37.173,15,31,ALB,2019,3,Bahrain International Circuit,97.173
996,1:37.549,15,32,ALB,2019,3,Bahrain International Circuit,97.549
997,1:37.323,15,33,ALB,2019,3,Bahrain International Circuit,97.323
998,1:38.799,13,34,ALB,2019,3,Bahrain International Circuit,98.799
999,1:38.118,13,35,ALB,2019,3,Bahrain International Circuit,98.118
1000,1:37.594,12,36,ALB,2019,3,Bahrain International Circuit,97.594
1001,1:37.425,12,37,ALB,2019,3,Bahrain International Circuit,97.425
1002,1:37.820,12,38,ALB,2019,3,Bahrain International Circuit,97.82
1003,1:36.752,11,39,ALB,2019,3,Bahrain International Circuit,96.752
1004,1:37.868,10,40,ALB,2019,3,Bahrain International Circuit,97.868
1005,1:37.109,10,41,ALB,2019,3,Bahrain International Circuit,97.109
1006,1:37.092,10,42,ALB,2019,3,Bahrain International Circuit,97.092
1007,1:37.143,10,43,ALB,2019,3,Bahrain International Circuit,97.143
1008,1:38.038,11,44,ALB,2019,3,Bahrain International Circuit,98.038
1009,1:37.091,11,45,ALB,2019,3,Bahrain International Circuit,97.091
1010,1:37.227,11,46,ALB,2019,3,Bahrain International Circuit,97.227
1011,1:37.187,11,47,ALB,2019,3,Bahrain International Circuit,97.187
1012,1:37.695,11,48,ALB,2019,3,Bahrain International Circuit,97.695
1013,1:37.558,11,49,ALB,2019,3,Bahrain International Circuit,97.558
1014,1:37.549,11,50,ALB,2019,3,Bahrain International Circuit,97.549
1015,1:37.846,11,51,ALB,2019,3,Bahrain International Circuit,97.846
1016,1:37.376,11,52,ALB,2019,3,Bahrain International Circuit,97.376
1017,1:37.982,11,53,ALB,2019,3,Bahrain International Circuit,97.982
1018,1:46.876,9,54,ALB,2019,3,Bahrain International Circuit,106.876
1019,2:10.644,9,55,ALB,2019,3,Bahrain International Circuit,130.644
1020,1:57.419,9,56,ALB,2019,3,Bahrain International Circuit,117.419
1021,2:01.365,9,57,ALB,2019,3,Bahrain International Circuit,121.365
1022,1:46.113,14,1,NOR,2019,3,Bahrain International Circuit,106.113
1023,1:38.754,13,2,NOR,2019,3,Bahrain International Circuit,98.754
1024,1:38.879,13,3,NOR,2019,3,Bahrain International Circuit,98.879
1025,1:40.041,12,4,NOR,2019,3,Bahrain International Circuit,100.041
1026,1:38.588,12,5,NOR,2019,3,Bahrain International Circuit,98.588
1027,1:39.247,12,6,NOR,2019,3,Bahrain International Circuit,99.247
1028,1:39.239,11,7,NOR,2019,3,Bahrain International Circuit,99.239
1029,1:39.158,10,8,NOR,2019,3,Bahrain International Circuit,99.158
1030,1:38.595,9,9,NOR,2019,3,Bahrain International Circuit,98.595
1031,1:41.271,9,10,NOR,2019,3,Bahrain International Circuit,101.271
1032,1:56.018,14,11,NOR,2019,3,Bahrain International Circuit,116.018
1033,1:36.291,11,12,NOR,2019,3,Bahrain International Circuit,96.291
1034,1:36.357,11,13,NOR,2019,3,Bahrain International Circuit,96.357
1035,1:35.777,10,14,NOR,2019,3,Bahrain International Circuit,95.777
1036,1:36.678,10,15,NOR,2019,3,Bahrain International Circuit,96.678
1037,1:37.816,9,16,NOR,2019,3,Bahrain International Circuit,97.816
1038,1:37.185,9,17,NOR,2019,3,Bahrain International Circuit,97.185
1039,1:37.714,9,18,NOR,2019,3,Bahrain International Circuit,97.714
1040,1:37.428,9,19,NOR,2019,3,Bahrain International Circuit,97.428
1041,1:37.861,9,20,NOR,2019,3,Bahrain International Circuit,97.861
1042,1:37.650,9,21,NOR,2019,3,Bahrain International Circuit,97.65
1043,1:37.670,9,22,NOR,2019,3,Bahrain International Circuit,97.67
1044,1:38.178,9,23,NOR,2019,3,Bahrain International Circuit,98.178
1045,1:37.839,8,24,NOR,2019,3,Bahrain International Circuit,97.839
1046,1:38.776,8,25,NOR,2019,3,Bahrain International Circuit,98.776
1047,1:38.010,7,26,NOR,2019,3,Bahrain International Circuit,98.01
1048,1:38.561,7,27,NOR,2019,3,Bahrain International Circuit,98.561
1049,1:38.619,7,28,NOR,2019,3,Bahrain International Circuit,98.619
1050,1:38.194,7,29,NOR,2019,3,Bahrain International Circuit,98.194
1051,1:38.359,7,30,NOR,2019,3,Bahrain International Circuit,98.359
1052,1:38.314,7,31,NOR,2019,3,Bahrain International Circuit,98.314
1053,1:38.500,7,32,NOR,2019,3,Bahrain International Circuit,98.5
1054,1:38.726,5,33,NOR,2019,3,Bahrain International Circuit,98.726
1055,1:41.958,6,34,NOR,2019,3,Bahrain International Circuit,101.958
1056,1:57.591,9,35,NOR,2019,3,Bahrain International Circuit,117.591
1057,1:36.631,9,36,NOR,2019,3,Bahrain International Circuit,96.631
1058,1:36.849,9,37,NOR,2019,3,Bahrain International Circuit,96.849
1059,1:37.329,9,38,NOR,2019,3,Bahrain International Circuit,97.329
1060,1:37.052,8,39,NOR,2019,3,Bahrain International Circuit,97.052
1061,1:36.510,7,40,NOR,2019,3,Bahrain International Circuit,96.51
1062,1:37.793,8,41,NOR,2019,3,Bahrain International Circuit,97.793
1063,1:36.557,8,42,NOR,2019,3,Bahrain International Circuit,96.557
1064,1:36.228,8,43,NOR,2019,3,Bahrain International Circuit,96.228
1065,1:36.640,7,44,NOR,2019,3,Bahrain International Circuit,96.64
1066,1:36.434,7,45,NOR,2019,3,Bahrain International Circuit,96.434
1067,1:36.610,7,46,NOR,2019,3,Bahrain International Circuit,96.61
1068,1:36.281,7,47,NOR,2019,3,Bahrain International Circuit,96.281
1069,1:36.441,7,48,NOR,2019,3,Bahrain International Circuit,96.441
1070,1:36.686,7,49,NOR,2019,3,Bahrain International Circuit,96.686
1071,1:36.538,7,50,NOR,2019,3,Bahrain International Circuit,96.538
1072,1:37.093,7,51,NOR,2019,3,Bahrain International Circuit,97.093
1073,1:36.973,7,52,NOR,2019,3,Bahrain International Circuit,96.973
1074,1:37.387,7,53,NOR,2019,3,Bahrain International Circuit,97.387
1075,1:36.955,6,54,NOR,2019,3,Bahrain International Circuit,96.955
1076,2:15.769,6,55,NOR,2019,3,Bahrain International Circuit,135.769
1077,2:10.557,6,56,NOR,2019,3,Bahrain International Circuit,130.557
1078,1:55.781,6,57,NOR,2019,3,Bahrain International Circuit,115.781
1079,1:46.412,15,1,GIO,2019,3,Bahrain International Circuit,106.412
1080,1:40.452,16,2,GIO,2019,3,Bahrain International Circuit,100.452
