,lap,driver,position,time,secs
0,1,hamilton,1,2:07.777,127.777
1,1,max_verstappen,2,2:09.912,129.912
2,1,perez,3,2:12.787,132.787
3,1,albon,4,2:16.507,136.507
4,1,ricciardo,5,2:21.194,141.194
5,1,bottas,6,2:22.955,142.955
6,1,gasly,7,2:27.729,147.729
7,1,ocon,8,2:29.204,149.204
8,1,norris,9,2:38.866,158.866
9,1,leclerc,10,2:40.113,160.113
10,1,giovinazzi,11,2:43.748,163.748
11,1,stroll,12,2:45.807,165.807
12,1,sainz,13,2:47.457,167.457
13,1,kevin_magnussen,14,2:49.800,169.8
14,1,vettel,15,2:54.756,174.756
15,1,latifi,16,2:57.400,177.4
16,1,raikkonen,17,2:59.282,179.282
17,1,russell,18,3:01.946,181.946
18,1,kvyat,19,3:05.092,185.092
19,2,hamilton,1,22:30.326,1350.326
20,2,max_verstappen,2,22:29.157,1349.157
21,2,perez,3,22:28.556,1348.556
22,2,bottas,4,22:21.194,1341.194
23,2,albon,5,22:31.455,1351.455
24,2,ricciardo,6,22:28.165,1348.165
25,2,norris,7,22:12.675,1332.675
26,2,ocon,8,22:25.137,1345.137
27,2,gasly,9,22:31.087,1351.087
28,2,vettel,10,22:07.924,1327.924
29,2,stroll,11,22:21.179,1341.179
30,2,leclerc,12,22:28.168,1348.168
31,2,sainz,13,22:24.009,1344.009
32,2,giovinazzi,14,22:30.039,1350.039
33,2,kvyat,15,22:12.289,1332.289
34,2,raikkonen,16,22:20.840,1340.84
35,2,kevin_magnussen,17,22:34.973,1354.973
36,2,russell,18,22:24.558,1344.558
37,2,latifi,19,22:32.677,1352.677
38,3,hamilton,1,3:02.690,182.69
39,3,max_verstappen,2,3:02.539,182.539
40,3,perez,3,3:03.101,183.101
41,3,bottas,4,3:01.800,181.8
42,3,albon,5,3:00.226,180.226
43,3,norris,6,2:59.613,179.613
44,3,ocon,7,2:58.356,178.356
45,3,leclerc,8,2:46.325,166.325
46,3,ricciardo,9,3:07.603,187.603
47,3,gasly,10,2:58.869,178.869
48,3,sainz,11,2:47.707,167.707
49,3,kvyat,12,2:43.743,163.743
50,3,raikkonen,13,2:42.852,162.852
51,3,latifi,14,2:34.173,154.173
52,3,russell,15,2:39.069,159.069
53,3,vettel,16,3:04.558,184.558
54,3,giovinazzi,17,2:54.564,174.564
55,3,kevin_magnussen,18,2:46.780,166.78
56,4,hamilton,1,2:24.304,144.304
57,4,max_verstappen,2,2:24.266,144.266
58,4,perez,3,2:22.056,142.056
59,4,albon,4,2:19.742,139.742
60,4,bottas,5,2:23.108,143.108
61,4,norris,6,2:18.927,138.927
62,4,ocon,7,2:18.854,138.854
63,4,leclerc,8,2:18.031,138.031
64,4,ricciardo,9,2:17.846,137.846
65,4,gasly,10,2:18.822,138.822
66,4,sainz,11,2:18.441,138.441
67,4,kvyat,12,2:17.510,137.51
68,4,raikkonen,13,2:17.286,137.286
69,4,latifi,14,2:17.274,137.274
70,4,russell,15,2:16.391,136.391
71,4,vettel,16,2:17.077,137.077
72,4,giovinazzi,17,2:17.289,137.289
73,4,kevin_magnussen,18,2:26.852,146.852
74,5,hamilton,1,2:27.673,147.673
75,5,max_verstappen,2,2:28.753,148.753
76,5,perez,3,2:29.086,149.086
77,5,albon,4,2:28.957,148.957
78,5,norris,5,2:29.443,149.443
79,5,ocon,6,2:29.805,149.805
80,5,leclerc,7,2:30.201,150.201
81,5,ricciardo,8,2:31.497,151.497
82,5,gasly,9,2:31.355,151.355
83,5,sainz,10,2:30.961,150.961
84,5,kvyat,11,2:31.376,151.376
85,5,raikkonen,12,2:31.959,151.959
86,5,latifi,13,2:31.462,151.462
87,5,russell,14,2:32.735,152.735
88,5,vettel,15,2:31.604,151.604
89,5,bottas,16,2:48.560,168.56
90,5,giovinazzi,17,2:33.142,153.142
91,5,kevin_magnussen,18,2:22.898,142.898
92,6,hamilton,1,2:20.062,140.062
93,6,max_verstappen,2,2:18.960,138.96
94,6,perez,3,2:19.412,139.412
95,6,albon,4,2:18.973,138.973
96,6,norris,5,2:18.794,138.794
97,6,ocon,6,2:19.003,139.003
98,6,leclerc,7,2:18.696,138.696
99,6,ricciardo,8,2:17.064,137.064
100,6,gasly,9,2:17.801,137.801
101,6,sainz,10,2:18.223,138.223
102,6,kvyat,11,2:18.712,138.712
103,6,raikkonen,12,2:17.412,137.412
104,6,latifi,13,2:18.521,138.521
105,6,russell,14,2:17.714,137.714
106,6,vettel,15,2:18.466,138.466
107,6,bottas,16,2:17.765,137.765
108,6,giovinazzi,17,2:17.741,137.741
109,6,kevin_magnussen,18,2:16.727,136.727
110,7,hamilton,1,2:18.867,138.867
111,7,max_verstappen,2,2:18.648,138.648
112,7,perez,3,2:18.327,138.327
113,7,albon,4,2:19.135,139.135
114,7,norris,5,2:18.451,138.451
115,7,ocon,6,2:17.864,137.864
116,7,leclerc,7,2:17.543,137.543
117,7,ricciardo,8,2:19.581,139.581
118,7,gasly,9,2:18.209,138.209
119,7,sainz,10,2:18.097,138.097
120,7,kvyat,11,2:17.759,137.759
121,7,raikkonen,12,2:18.675,138.675
122,7,latifi,13,2:18.493,138.493
123,7,russell,14,2:20.018,140.018
124,7,vettel,15,2:20.070,140.07
125,7,bottas,16,2:20.284,140.284
126,7,giovinazzi,17,2:20.933,140.933
127,7,kevin_magnussen,18,2:21.154,141.154
128,8,hamilton,1,2:36.107,156.107
129,8,max_verstappen,2,2:36.293,156.293
130,8,perez,3,2:35.590,155.59
131,8,albon,4,2:34.383,154.383
132,8,norris,5,2:32.909,152.909
133,8,ocon,6,2:31.974,151.974
134,8,leclerc,7,2:31.449,151.449
135,8,ricciardo,8,2:27.921,147.921
136,8,gasly,9,2:27.312,147.312
137,8,sainz,10,2:26.467,146.467
138,8,kvyat,11,2:25.449,145.449
139,8,raikkonen,12,2:24.534,144.534
140,8,latifi,13,2:22.993,142.993
141,8,russell,14,2:20.962,140.962
142,8,vettel,15,2:19.571,139.571
143,8,bottas,16,2:18.453,138.453
144,8,giovinazzi,17,2:17.039,137.039
145,8,kevin_magnussen,18,2:15.889,135.889
146,9,hamilton,1,1:33.733,93.733
147,9,max_verstappen,2,1:34.185,94.185
148,9,perez,3,1:35.363,95.363
149,9,albon,4,1:35.862,95.862
150,9,norris,5,1:36.844,96.844
151,9,ocon,6,1:36.999,96.999
152,9,leclerc,7,1:37.425,97.425
153,9,sainz,8,1:37.163,97.163
154,9,ricciardo,9,1:38.313,98.313
155,9,gasly,10,1:38.480,98.48
156,9,kvyat,11,1:38.300,98.3
157,9,raikkonen,12,1:38.702,98.702
158,9,russell,13,1:38.335,98.335
159,9,latifi,14,1:39.644,99.644
160,9,vettel,15,1:39.435,99.435
161,9,bottas,16,1:39.509,99.509
162,9,giovinazzi,17,1:39.418,99.418
163,9,kevin_magnussen,18,1:39.638,99.638
164,10,hamilton,1,1:34.357,94.357
165,10,max_verstappen,2,1:34.535,94.535
166,10,perez,3,1:35.087,95.087
167,10,albon,4,1:35.545,95.545
168,10,norris,5,1:36.554,96.554
169,10,ocon,6,1:36.930,96.93
170,10,leclerc,7,1:37.030,97.03
171,10,sainz,8,1:37.117,97.117
172,10,ricciardo,9,1:37.168,97.168
173,10,gasly,10,1:37.427,97.427
174,10,kvyat,11,1:37.701,97.701
175,10,russell,12,1:37.878,97.878
176,10,raikkonen,13,1:38.958,98.958
177,10,latifi,14,1:38.539,98.539
178,10,vettel,15,1:38.559,98.559
179,10,bottas,16,1:38.747,98.747
180,10,giovinazzi,17,1:39.061,99.061
181,10,kevin_magnussen,18,1:39.126,99.126
182,11,hamilton,1,1:34.490,94.49
183,11,max_verstappen,2,1:34.705,94.705
184,11,perez,3,1:35.386,95.386
185,11,albon,4,1:35.652,95.652
186,11,norris,5,1:36.243,96.243
187,11,ocon,6,1:36.474,96.474
188,11,leclerc,7,1:37.009,97.009
189,11,sainz,8,1:36.821,96.821
190,11,ricciardo,9,1:37.044,97.044
191,11,gasly,10,1:36.932,96.932
192,11,kvyat,11,1:36.976,96.976
193,11,russell,12,1:37.590,97.59
194,11,raikkonen,13,1:37.835,97.835
195,11,latifi,14,1:37.869,97.869
196,11,vettel,15,1:38.170,98.17
197,11,bottas,16,1:37.959,97.959
198,11,giovinazzi,17,1:38.016,98.016
199,11,kevin_magnussen,18,1:38.449,98.449
200,12,hamilton,1,1:34.464,94.464
201,12,max_verstappen,2,1:34.699,94.699
202,12,perez,3,1:35.647,95.647
203,12,albon,4,1:35.831,95.831
204,12,norris,5,1:36.261,96.261
205,12,ocon,6,1:36.622,96.622
206,12,sainz,7,1:36.850,96.85
207,12,ricciardo,8,1:37.346,97.346
208,12,leclerc,9,1:39.949,99.949
209,12,gasly,10,1:38.410,98.41
210,12,kvyat,11,1:38.214,98.214
211,12,russell,12,1:37.830,97.83
212,12,raikkonen,13,1:37.769,97.769
213,12,latifi,14,1:37.979,97.979
214,12,bottas,15,1:37.276,97.276
215,12,giovinazzi,16,1:37.941,97.941
216,12,kevin_magnussen,17,1:38.275,98.275
217,12,vettel,18,1:43.717,103.717
218,13,hamilton,1,1:34.883,94.883
219,13,max_verstappen,2,1:35.153,95.153
220,13,perez,3,1:35.636,95.636
221,13,albon,4,1:35.807,95.807
222,13,norris,5,1:36.451,96.451
223,13,ocon,6,1:36.524,96.524
224,13,sainz,7,1:36.418,96.418
225,13,ricciardo,8,1:36.642,96.642
226,13,gasly,9,1:36.677,96.677
227,13,leclerc,10,1:38.543,98.543
228,13,kvyat,11,1:38.077,98.077
229,13,russell,12,1:38.248,98.248
230,13,raikkonen,13,1:38.125,98.125
231,13,latifi,14,1:38.289,98.289
232,13,bottas,15,1:38.325,98.325
233,13,giovinazzi,16,1:37.814,97.814
234,13,kevin_magnussen,17,1:37.987,97.987
235,13,vettel,18,1:37.451,97.451
236,14,hamilton,1,1:34.785,94.785
237,14,max_verstappen,2,1:35.200,95.2
238,14,perez,3,1:35.625,95.625
239,14,albon,4,1:35.910,95.91
240,14,norris,5,1:36.654,96.654
241,14,ocon,6,1:36.617,96.617
242,14,sainz,7,1:36.576,96.576
243,14,ricciardo,8,1:36.871,96.871
244,14,gasly,9,1:36.753,96.753
245,14,leclerc,10,1:37.471,97.471
246,14,kvyat,11,1:37.803,97.803
247,14,russell,12,1:37.967,97.967
248,14,raikkonen,13,1:37.884,97.884
249,14,bottas,14,1:36.867,96.867
250,14,latifi,15,1:39.051,99.051
251,14,giovinazzi,16,1:38.422,98.422
252,14,kevin_magnussen,17,1:38.278,98.278
253,14,vettel,18,1:37.596,97.596
254,15,hamilton,1,1:34.824,94.824
255,15,max_verstappen,2,1:35.052,95.052
256,15,perez,3,1:35.590,95.59
257,15,albon,4,1:35.886,95.886
258,15,norris,5,1:36.668,96.668
259,15,ocon,6,1:37.001,97.001
260,15,sainz,7,1:37.044,97.044
261,15,ricciardo,8,1:36.868,96.868
262,15,gasly,9,1:36.998,96.998
263,15,leclerc,10,1:37.516,97.516
264,15,kvyat,11,1:37.729,97.729
265,15,russell,12,1:38.159,98.159
266,15,raikkonen,13,1:38.328,98.328
267,15,bottas,14,1:38.058,98.058
268,15,latifi,15,1:38.546,98.546
269,15,giovinazzi,16,1:38.363,98.363
270,15,kevin_magnussen,17,1:38.545,98.545
271,15,vettel,18,1:38.085,98.085
272,16,hamilton,1,1:34.838,94.838
273,16,max_verstappen,2,1:35.589,95.589
274,16,perez,3,1:35.873,95.873
275,16,albon,4,1:36.556,96.556
276,16,norris,5,1:36.670,96.67
277,16,ocon,6,1:36.875,96.875
278,16,sainz,7,1:36.943,96.943
279,16,gasly,8,1:36.933,96.933
280,16,ricciardo,9,1:39.735,99.735
281,16,leclerc,10,1:37.123,97.123
282,16,kvyat,11,1:37.682,97.682
283,16,russell,12,1:37.926,97.926
284,16,raikkonen,13,1:37.951,97.951
285,16,bottas,14,1:37.993,97.993
286,16,latifi,15,1:38.587,98.587
287,16,giovinazzi,16,1:38.852,98.852
288,16,kevin_magnussen,17,1:38.608,98.608
289,16,vettel,18,1:38.415,98.415
290,17,hamilton,1,1:35.096,95.096
291,17,max_verstappen,2,1:35.258,95.258
292,17,perez,3,1:35.755,95.755
293,17,albon,4,1:36.391,96.391
294,17,norris,5,1:36.736,96.736
295,17,sainz,6,1:37.165,97.165
296,17,ocon,7,1:39.804,99.804
297,17,gasly,8,1:36.826,96.826
298,17,leclerc,9,1:37.210,97.21
299,17,kvyat,10,1:39.757,99.757
300,17,russell,11,1:38.005,98.005
301,17,bottas,12,1:38.245,98.245
302,17,raikkonen,13,1:41.142,101.142
303,17,latifi,14,1:38.305,98.305
304,17,giovinazzi,15,1:38.318,98.318
305,17,kevin_magnussen,16,1:38.393,98.393
306,17,vettel,17,1:38.381,98.381
307,17,ricciardo,18,1:54.990,114.99
308,18,hamilton,1,1:34.929,94.929
309,18,max_verstappen,2,1:35.932,95.932
310,18,perez,3,1:35.927,95.927
311,18,albon,4,1:36.148,96.148
312,18,norris,5,1:39.469,99.469
313,18,sainz,6,1:36.847,96.847
314,18,gasly,7,1:36.594,96.594
315,18,leclerc,8,1:37.078,97.078
316,18,russell,9,1:37.706,97.706
317,18,bottas,10,1:36.682,96.682
318,18,latifi,11,1:38.296,98.296
319,18,giovinazzi,12,1:38.361,98.361
320,18,kevin_magnussen,13,1:38.444,98.444
321,18,ocon,14,1:57.868,117.868
322,18,ricciardo,15,1:37.194,97.194
323,18,vettel,16,1:39.706,99.706
324,18,kvyat,17,2:08.754,128.754
325,18,raikkonen,18,2:04.647,124.647
326,19,hamilton,1,1:37.767,97.767
327,19,max_verstappen,2,1:35.729,95.729
328,19,perez,3,1:35.812,95.812
329,19,albon,4,1:39.330,99.33
330,19,sainz,5,1:36.683,96.683
331,19,gasly,6,1:36.679,96.679
332,19,leclerc,7,1:37.066,97.066
333,19,russell,8,1:37.995,97.995
334,19,bottas,9,1:38.099,98.099
335,19,norris,10,1:57.463,117.463
336,19,latifi,11,1:39.609,99.609
337,19,giovinazzi,12,1:39.346,99.346
338,19,ocon,13,1:36.658,96.658
339,19,ricciardo,14,1:36.533,96.533
340,19,kevin_magnussen,15,1:40.018,100.018
341,19,vettel,16,1:38.773,98.773
342,19,kvyat,17,1:34.979,94.979
343,19,raikkonen,18,1:35.023,95.023
344,20,max_verstappen,1,1:38.100,98.1
345,20,perez,2,1:38.907,98.907
346,20,hamilton,3,1:54.337,114.337
347,20,sainz,4,1:36.858,96.858
348,20,gasly,5,1:36.878,96.878
349,20,leclerc,6,1:37.377,97.377
350,20,albon,7,1:55.349,115.349
351,20,bottas,8,1:37.570,97.57
352,20,russell,9,1:40.113,100.113
353,20,norris,10,1:35.901,95.901
354,20,ocon,11,1:36.820,96.82
355,20,ricciardo,12,1:37.209,97.209
356,20,latifi,13,1:40.710,100.71
357,20,kevin_magnussen,14,1:39.320,99.32
358,20,giovinazzi,15,1:43.572,103.572
359,20,vettel,16,1:41.957,101.957
360,20,kvyat,17,1:35.302,95.302
361,20,raikkonen,18,1:35.212,95.212
362,21,hamilton,1,1:34.948,94.948
363,21,max_verstappen,2,1:54.175,114.175
364,21,sainz,3,1:40.205,100.205
365,21,gasly,4,1:37.337,97.337
366,21,perez,5,1:55.617,115.617
367,21,leclerc,6,1:37.756,97.756
368,21,albon,7,1:35.724,95.724
369,21,bottas,8,1:36.023,96.023
370,21,norris,9,1:35.791,95.791
371,21,ocon,10,1:35.677,95.677
372,21,ricciardo,11,1:35.772,95.772
373,21,kevin_magnussen,12,1:38.558,98.558
374,21,latifi,13,1:40.950,100.95
375,21,russell,14,1:56.574,116.574
376,21,kvyat,15,1:35.949,95.949
377,21,raikkonen,16,1:36.003,96.003
378,21,giovinazzi,17,1:55.016,115.016
379,21,vettel,18,1:55.907,115.907
380,22,hamilton,1,1:34.165,94.165
381,22,max_verstappen,2,1:33.085,93.085
382,22,gasly,3,1:36.958,96.958
383,22,perez,4,1:36.383,96.383
384,22,albon,5,1:34.561,94.561
385,22,leclerc,6,1:38.559,98.559
386,22,bottas,7,1:36.132,96.132
387,22,norris,8,1:35.843,95.843
388,22,ocon,9,1:35.607,95.607
389,22,ricciardo,10,1:35.477,95.477
390,22,sainz,11,1:56.571,116.571
391,22,kevin_magnussen,12,1:38.035,98.035
392,22,russell,13,1:36.270,96.27
393,22,kvyat,14,1:36.283,96.283
394,22,raikkonen,15,1:36.373,96.373
395,22,giovinazzi,16,1:34.536,94.536
396,22,vettel,17,1:34.477,94.477
397,22,latifi,18,1:56.538,116.538
398,23,hamilton,1,1:33.337,93.337
399,23,max_verstappen,2,1:33.781,93.781
400,23,perez,3,1:34.752,94.752
401,23,gasly,4,1:38.085,98.085
402,23,albon,5,1:35.634,95.634
403,23,bottas,6,1:36.542,96.542
404,23,leclerc,7,1:40.792,100.792
405,23,norris,8,1:35.840,95.84
406,23,ocon,9,1:35.777,95.777
407,23,ricciardo,10,1:35.651,95.651
408,23,sainz,11,1:35.205,95.205
409,23,kevin_magnussen,12,1:37.713,97.713
410,23,russell,13,1:36.425,96.425
411,23,kvyat,14,1:36.125,96.125
412,23,raikkonen,15,1:36.122,96.122
413,23,giovinazzi,16,1:35.166,95.166
414,23,vettel,17,1:34.879,94.879
415,23,latifi,18,1:35.971,95.971
416,24,hamilton,1,1:34.154,94.154
417,24,max_verstappen,2,1:33.507,93.507
418,24,perez,3,1:34.542,94.542
419,24,albon,4,1:34.531,94.531
420,24,gasly,5,1:38.006,98.006
421,24,bottas,6,1:36.123,96.123
422,24,norris,7,1:35.763,95.763
423,24,ocon,8,1:35.942,95.942
424,24,ricciardo,9,1:35.777,95.777
425,24,sainz,10,1:35.328,95.328
426,24,kevin_magnussen,11,1:37.835,97.835
427,24,leclerc,12,1:55.223,115.223
428,24,russell,13,1:36.733,96.733
429,24,kvyat,14,1:36.974,96.974
430,24,raikkonen,15,1:36.613,96.613
431,24,giovinazzi,16,1:35.420,95.42
432,24,vettel,17,1:35.103,95.103
433,24,latifi,18,1:36.007,96.007
434,25,hamilton,1,1:33.753,93.753
435,25,max_verstappen,2,1:33.873,93.873
436,25,perez,3,1:34.486,94.486
437,25,albon,4,1:34.673,94.673
438,25,gasly,5,1:39.369,99.369
439,25,norris,6,1:35.136,95.136
440,25,bottas,7,1:40.305,100.305
441,25,ocon,8,1:36.450,96.45
442,25,ricciardo,9,1:36.232,96.232
443,25,sainz,10,1:34.976,94.976
444,25,leclerc,11,1:35.380,95.38
445,25,kevin_magnussen,12,1:38.819,98.819
446,25,russell,13,1:36.922,96.922
447,25,kvyat,14,1:36.630,96.63
448,25,raikkonen,15,1:37.186,97.186
449,25,giovinazzi,16,1:35.839,95.839
450,25,vettel,17,1:35.783,95.783
451,25,latifi,18,1:35.924,95.924
452,26,hamilton,1,1:34.030,94.03
453,26,max_verstappen,2,1:33.870,93.87
454,26,perez,3,1:34.547,94.547
455,26,albon,4,1:34.463,94.463
456,26,norris,5,1:35.442,95.442
457,26,ocon,6,1:35.728,95.728
458,26,sainz,7,1:34.949,94.949
459,26,ricciardo,8,1:36.819,96.819
460,26,gasly,9,1:55.499,115.499
461,26,leclerc,10,1:35.612,95.612
462,26,kevin_magnussen,11,1:38.118,98.118
463,26,russell,12,1:36.650,96.65
464,26,bottas,13,1:56.605,116.605
465,26,kvyat,14,1:37.643,97.643
466,26,raikkonen,15,1:37.590,97.59
467,26,giovinazzi,16,1:36.966,96.966
468,26,vettel,17,1:36.296,96.296
469,26,latifi,18,1:36.008,96.008
470,27,hamilton,1,1:33.616,93.616
471,27,max_verstappen,2,1:33.809,93.809
472,27,perez,3,1:34.467,94.467
473,27,albon,4,1:34.638,94.638
474,27,norris,5,1:35.158,95.158
475,27,sainz,6,1:34.361,94.361
476,27,ocon,7,1:37.244,97.244
477,27,ricciardo,8,1:36.412,96.412
478,27,gasly,9,1:35.368,95.368
479,27,leclerc,10,1:35.117,95.117
480,27,bottas,11,1:34.063,94.063
481,27,russell,12,1:38.030,98.03
482,27,kvyat,13,1:37.062,97.062
483,27,kevin_magnussen,14,1:42.014,102.014
484,27,raikkonen,15,1:37.047,97.047
485,27,giovinazzi,16,1:37.105,97.105
486,27,vettel,17,1:36.601,96.601
487,27,latifi,18,1:36.302,96.302
488,28,hamilton,1,1:33.672,93.672
489,28,max_verstappen,2,1:34.106,94.106
490,28,perez,3,1:34.570,94.57
491,28,albon,4,1:34.776,94.776
492,28,norris,5,1:35.377,95.377
493,28,sainz,6,1:34.948,94.948
494,28,ocon,7,1:36.414,96.414
495,28,ricciardo,8,1:36.186,96.186
496,28,gasly,9,1:35.325,95.325
497,28,leclerc,10,1:35.377,95.377
498,28,bottas,11,1:33.352,93.352
499,28,russell,12,1:36.828,96.828
500,28,kvyat,13,1:36.987,96.987
501,28,giovinazzi,14,1:36.078,96.078
502,28,raikkonen,15,1:38.055,98.055
503,28,vettel,16,1:37.065,97.065
504,28,latifi,17,1:36.768,96.768
505,28,kevin_magnussen,18,1:58.458,118.458
506,29,hamilton,1,1:33.844,93.844
507,29,max_verstappen,2,1:34.323,94.323
508,29,perez,3,1:34.560,94.56
509,29,albon,4,1:35.125,95.125
510,29,norris,5,1:35.245,95.245
511,29,sainz,6,1:34.935,94.935
512,29,ricciardo,7,1:35.489,95.489
513,29,ocon,8,1:37.798,97.798
514,29,gasly,9,1:35.144,95.144
515,29,leclerc,10,1:35.287,95.287
516,29,bottas,11,1:33.749,93.749
517,29,russell,12,1:36.796,96.796
518,29,kvyat,13,1:37.070,97.07
519,29,giovinazzi,14,1:36.732,96.732
520,29,raikkonen,15,1:37.094,97.094
521,29,vettel,16,1:37.167,97.167
522,29,latifi,17,1:36.573,96.573
523,29,kevin_magnussen,18,1:35.241,95.241
524,30,hamilton,1,1:34.512,94.512
525,30,max_verstappen,2,1:34.325,94.325
526,30,perez,3,1:34.734,94.734
527,30,albon,4,1:35.104,95.104
528,30,norris,5,1:35.202,95.202
529,30,sainz,6,1:34.988,94.988
530,30,ricciardo,7,1:35.583,95.583
531,30,ocon,8,1:36.457,96.457
532,30,gasly,9,1:35.046,95.046
533,30,leclerc,10,1:35.412,95.412
534,30,bottas,11,1:34.235,94.235
535,30,russell,12,1:36.766,96.766
536,30,kvyat,13,1:37.392,97.392
537,30,giovinazzi,14,1:37.067,97.067
538,30,vettel,15,1:36.462,96.462
539,30,raikkonen,16,1:38.878,98.878
540,30,latifi,17,1:37.332,97.332
541,30,kevin_magnussen,18,1:37.852,97.852
542,31,hamilton,1,1:34.730,94.73
543,31,max_verstappen,2,1:34.551,94.551
544,31,perez,3,1:34.893,94.893
545,31,albon,4,1:34.953,94.953
546,31,norris,5,1:35.199,95.199
547,31,sainz,6,1:35.026,95.026
548,31,ricciardo,7,1:35.500,95.5
549,31,ocon,8,1:36.220,96.22
550,31,gasly,9,1:35.139,95.139
551,31,leclerc,10,1:35.658,95.658
552,31,bottas,11,1:35.261,95.261
553,31,russell,12,1:36.747,96.747
554,31,kvyat,13,1:36.887,96.887
555,31,giovinazzi,14,1:37.287,97.287
556,31,vettel,15,1:36.569,96.569
557,31,raikkonen,16,1:37.005,97.005
558,31,latifi,17,1:36.903,96.903
559,31,kevin_magnussen,18,1:35.632,95.632
560,32,hamilton,1,1:34.259,94.259
561,32,max_verstappen,2,1:34.387,94.387
562,32,perez,3,1:34.612,94.612
563,32,albon,4,1:35.246,95.246
564,32,norris,5,1:35.059,95.059
565,32,sainz,6,1:34.820,94.82
566,32,ricciardo,7,1:35.604,95.604
567,32,ocon,8,1:36.217,96.217
568,32,gasly,9,1:35.164,95.164
569,32,bottas,10,1:34.364,94.364
570,32,leclerc,11,1:36.980,96.98
571,32,russell,12,1:36.636,96.636
572,32,kvyat,13,1:36.853,96.853
573,32,giovinazzi,14,1:36.722,96.722
574,32,vettel,15,1:36.794,96.794
575,32,raikkonen,16,1:37.126,97.126
576,32,latifi,17,1:37.049,97.049
577,32,kevin_magnussen,18,1:36.061,96.061
578,33,hamilton,1,1:34.377,94.377
579,33,max_verstappen,2,1:34.987,94.987
580,33,perez,3,1:35.020,95.02
581,33,albon,4,1:35.381,95.381
582,33,norris,5,1:35.101,95.101
583,33,sainz,6,1:35.063,95.063
584,33,ricciardo,7,1:35.955,95.955
585,33,ocon,8,1:36.242,96.242
586,33,gasly,9,1:35.400,95.4
587,33,bottas,10,1:34.463,94.463
588,33,leclerc,11,1:36.048,96.048
589,33,russell,12,1:36.611,96.611
590,33,giovinazzi,13,1:36.904,96.904
591,33,kvyat,14,1:39.086,99.086
592,33,vettel,15,1:36.990,96.99
593,33,raikkonen,16,1:37.199,97.199
594,33,latifi,17,1:37.461,97.461
595,33,kevin_magnussen,18,1:37.809,97.809
596,34,hamilton,1,1:34.590,94.59
597,34,max_verstappen,2,1:37.439,97.439
598,34,perez,3,1:35.066,95.066
599,34,albon,4,1:38.293,98.293
600,34,norris,5,1:35.127,95.127
601,34,sainz,6,1:35.086,95.086
602,34,ricciardo,7,1:36.004,96.004
603,34,gasly,8,1:35.495,95.495
604,34,bottas,9,1:34.647,94.647
605,34,ocon,10,1:38.992,98.992
606,34,leclerc,11,1:36.233,96.233
607,34,russell,12,1:36.174,96.174
608,34,giovinazzi,13,1:35.913,95.913
609,34,vettel,14,1:37.105,97.105
610,34,raikkonen,15,1:37.016,97.016
611,34,latifi,16,1:37.013,97.013
612,34,kevin_magnussen,17,1:35.733,95.733
613,34,kvyat,18,1:54.802,114.802
614,35,hamilton,1,1:37.475,97.475
615,35,perez,2,1:35.220,95.22
616,35,max_verstappen,3,1:55.512,115.512
617,35,norris,4,1:35.062,95.062
618,35,sainz,5,1:35.304,95.304
619,35,albon,6,1:54.767,114.767
620,35,ricciardo,7,1:37.374,97.374
621,35,gasly,8,1:35.112,95.112
622,35,bottas,9,1:34.841,94.841
623,35,leclerc,10,1:36.055,96.055
624,35,russell,11,1:36.573,96.573
625,35,ocon,12,1:56.164,116.164
626,35,giovinazzi,13,1:36.940,96.94
627,35,vettel,14,1:36.958,96.958
628,35,raikkonen,15,1:37.651,97.651
629,35,latifi,16,1:37.463,97.463
630,35,kvyat,17,1:34.141,94.141
631,35,kevin_magnussen,18,1:37.191,97.191
632,36,hamilton,1,1:55.511,115.511
633,36,max_verstappen,2,1:32.663,92.663
634,36,perez,3,1:38.535,98.535
635,36,norris,4,1:35.189,95.189
636,36,sainz,5,1:35.237,95.237
637,36,albon,6,1:33.693,93.693
638,36,gasly,7,1:35.578,95.578
639,36,bottas,8,1:35.461,95.461
640,36,ricciardo,9,1:39.354,99.354
641,36,leclerc,10,1:36.241,96.241
642,36,ocon,11,1:34.497,94.497
643,36,russell,12,1:37.826,97.826
644,36,giovinazzi,13,1:36.354,96.354
645,36,vettel,14,1:36.774,96.774
646,36,raikkonen,15,1:37.472,97.472
647,36,latifi,16,1:37.580,97.58
648,36,kvyat,17,1:34.581,94.581
649,36,kevin_magnussen,18,1:36.326,96.326
650,37,hamilton,1,1:32.897,92.897
651,37,max_verstappen,2,1:32.727,92.727
652,37,norris,3,1:35.317,95.317
653,37,sainz,4,1:35.356,95.356
654,37,perez,5,1:54.988,114.988
655,37,albon,6,1:34.050,94.05
656,37,gasly,7,1:35.435,95.435
657,37,bottas,8,1:35.442,95.442
658,37,leclerc,9,1:36.400,96.4
659,37,ocon,10,1:34.354,94.354
660,37,ricciardo,11,1:55.721,115.721
661,37,russell,12,1:37.639,97.639
662,37,giovinazzi,13,1:36.850,96.85
663,37,vettel,14,1:37.368,97.368
664,37,raikkonen,15,1:37.843,97.843
665,37,latifi,16,1:40.599,100.599
666,37,kvyat,17,1:34.606,94.606
667,37,kevin_magnussen,18,1:36.790,96.79
668,38,hamilton,1,1:32.864,92.864
669,38,max_verstappen,2,1:33.085,93.085
670,38,perez,3,1:33.794,93.794
671,38,norris,4,1:38.012,98.012
672,38,sainz,5,1:36.474,96.474
673,38,albon,6,1:33.932,93.932
674,38,gasly,7,1:35.237,95.237
675,38,bottas,8,1:38.440,98.44
676,38,leclerc,9,1:36.304,96.304
677,38,ricciardo,10,1:32.827,92.827
678,38,ocon,11,1:35.071,95.071
679,38,russell,12,1:37.153,97.153
680,38,giovinazzi,13,1:37.263,97.263
681,38,vettel,14,1:37.197,97.197
682,38,raikkonen,15,1:38.155,98.155
683,38,kvyat,16,1:34.677,94.677
684,38,kevin_magnussen,17,1:36.836,96.836
685,38,latifi,18,1:54.612,114.612
686,39,hamilton,1,1:33.206,93.206
687,39,max_verstappen,2,1:32.989,92.989
688,39,perez,3,1:33.943,93.943
689,39,albon,4,1:33.994,93.994
690,39,sainz,5,1:39.875,99.875
691,39,gasly,6,1:34.822,94.822
692,39,norris,7,1:55.000,115.0
693,39,leclerc,8,1:36.786,96.786
694,39,ricciardo,9,1:34.087,94.087
695,39,ocon,10,1:34.567,94.567
696,39,bottas,11,1:53.849,113.849
697,39,giovinazzi,12,1:37.200,97.2
698,39,russell,13,1:38.932,98.932
699,39,vettel,14,1:39.833,99.833
700,39,raikkonen,15,1:38.268,98.268
701,39,kvyat,16,1:36.358,96.358
702,39,kevin_magnussen,17,1:38.001,98.001
703,39,latifi,18,1:34.591,94.591
704,40,hamilton,1,1:33.525,93.525
705,40,max_verstappen,2,1:33.683,93.683
706,40,perez,3,1:33.629,93.629
707,40,albon,4,1:33.808,93.808
708,40,gasly,5,1:34.867,94.867
709,40,norris,6,1:33.616,93.616
710,40,sainz,7,1:56.129,116.129
711,40,leclerc,8,1:40.296,100.296
712,40,ricciardo,9,1:34.370,94.37
713,40,ocon,10,1:34.698,94.698
714,40,bottas,11,1:33.818,93.818
715,40,giovinazzi,12,1:36.540,96.54
716,40,kvyat,13,1:34.432,94.432
717,40,raikkonen,14,1:41.212,101.212
718,40,kevin_magnussen,15,1:37.720,97.72
719,40,russell,16,1:58.773,118.773
720,40,latifi,17,1:34.832,94.832
721,40,vettel,18,1:55.874,115.874
722,41,hamilton,1,1:33.228,93.228
723,41,max_verstappen,2,1:32.730,92.73
724,41,perez,3,1:33.639,93.639
725,41,albon,4,1:33.684,93.684
726,41,gasly,5,1:35.261,95.261
727,41,norris,6,1:33.693,93.693
728,41,sainz,7,1:34.118,94.118
729,41,ricciardo,8,1:33.916,93.916
730,41,ocon,9,1:34.647,94.647
731,41,bottas,10,1:33.884,93.884
732,41,giovinazzi,11,1:36.599,96.599
733,41,leclerc,12,1:55.192,115.192
734,41,kvyat,13,1:35.634,95.634
735,41,kevin_magnussen,14,1:36.625,96.625
736,41,russell,15,1:35.535,95.535
737,41,vettel,16,1:33.861,93.861
738,41,latifi,17,1:35.969,95.969
739,41,raikkonen,18,1:56.316,116.316
740,42,hamilton,1,1:32.881,92.881
741,42,max_verstappen,2,1:33.217,93.217
742,42,perez,3,1:33.912,93.912
743,42,albon,4,1:33.874,93.874
744,42,gasly,5,1:34.988,94.988
745,42,norris,6,1:34.184,94.184
746,42,sainz,7,1:34.187,94.187
747,42,ricciardo,8,1:33.659,93.659
748,42,ocon,9,1:34.677,94.677
749,42,bottas,10,1:34.388,94.388
750,42,leclerc,11,1:34.039,94.039
751,42,giovinazzi,12,1:37.282,97.282
752,42,kvyat,13,1:36.570,96.57
753,42,russell,14,1:35.890,95.89
754,42,kevin_magnussen,15,1:38.155,98.155
755,42,vettel,16,1:36.394,96.394
756,42,latifi,17,1:36.163,96.163
757,42,raikkonen,18,1:33.796,93.796
758,43,hamilton,1,1:33.610,93.61
759,43,max_verstappen,2,1:33.402,93.402
760,43,perez,3,1:33.674,93.674
761,43,albon,4,1:33.982,93.982
762,43,gasly,5,1:34.974,94.974
763,43,norris,6,1:34.190,94.19
764,43,sainz,7,1:33.674,93.674
765,43,ricciardo,8,1:33.783,93.783
766,43,bottas,9,1:33.502,93.502
767,43,ocon,10,1:35.862,95.862
768,43,leclerc,11,1:33.696,93.696
769,43,giovinazzi,12,1:36.865,96.865
770,43,kvyat,13,1:35.537,95.537
771,43,russell,14,1:35.530,95.53
772,43,vettel,15,1:34.462,94.462
773,43,kevin_magnussen,16,1:37.591,97.591
774,43,latifi,17,1:36.476,96.476
775,43,raikkonen,18,1:33.573,93.573
776,44,hamilton,1,1:33.121,93.121
777,44,max_verstappen,2,1:33.866,93.866
778,44,perez,3,1:33.851,93.851
779,44,albon,4,1:34.353,94.353
780,44,norris,5,1:33.730,93.73
781,44,gasly,6,1:36.366,96.366
782,44,sainz,7,1:33.531,93.531
783,44,ricciardo,8,1:33.679,93.679
784,44,bottas,9,1:33.880,93.88
785,44,ocon,10,1:35.024,95.024
786,44,leclerc,11,1:33.625,93.625
787,44,giovinazzi,12,1:38.125,98.125
788,44,kvyat,13,1:36.858,96.858
789,44,russell,14,1:35.493,95.493
790,44,vettel,15,1:35.397,95.397
791,44,latifi,16,1:35.991,95.991
792,44,kevin_magnussen,17,1:38.616,98.616
793,44,raikkonen,18,1:34.238,94.238
794,45,hamilton,1,1:33.692,93.692
795,45,max_verstappen,2,1:34.123,94.123
796,45,perez,3,1:33.892,93.892
797,45,albon,4,1:34.411,94.411
798,45,norris,5,1:34.325,94.325
799,45,gasly,6,1:35.317,95.317
800,45,sainz,7,1:33.583,93.583
801,45,ricciardo,8,1:33.911,93.911
802,45,bottas,9,1:34.031,94.031
803,45,ocon,10,1:34.805,94.805
804,45,leclerc,11,1:33.633,93.633
805,45,giovinazzi,12,1:38.002,98.002
806,45,kvyat,13,1:35.418,95.418
807,45,russell,14,1:35.461,95.461
808,45,vettel,15,1:35.407,95.407
809,45,latifi,16,1:35.561,95.561
810,45,raikkonen,17,1:34.137,94.137
811,45,kevin_magnussen,18,1:37.777,97.777
812,46,hamilton,1,1:33.493,93.493
813,46,max_verstappen,2,1:36.307,96.307
814,46,perez,3,1:33.991,93.991
815,46,albon,4,1:35.470,95.47
816,46,norris,5,1:34.105,94.105
817,46,gasly,6,1:35.066,95.066
818,46,sainz,7,1:33.411,93.411
819,46,ricciardo,8,1:33.991,93.991
820,46,bottas,9,1:33.560,93.56
821,46,ocon,10,1:34.762,94.762
822,46,leclerc,11,1:33.729,93.729
823,46,giovinazzi,12,1:36.552,96.552
824,46,kvyat,13,1:36.052,96.052
825,46,russell,14,1:35.280,95.28
826,46,vettel,15,1:35.374,95.374
827,46,latifi,16,1:36.476,96.476
828,46,raikkonen,17,1:35.837,95.837
829,46,kevin_magnussen,18,1:38.428,98.428
830,47,hamilton,1,1:33.495,93.495
831,47,max_verstappen,2,1:53.625,113.625
832,47,perez,3,1:34.863,94.863
833,47,albon,4,1:34.603,94.603
834,47,norris,5,1:33.715,93.715
835,47,gasly,6,1:34.922,94.922
836,47,sainz,7,1:33.631,93.631
837,47,ricciardo,8,1:34.107,94.107
838,47,bottas,9,1:33.476,93.476
839,47,ocon,10,1:34.831,94.831
840,47,leclerc,11,1:34.182,94.182
841,47,kvyat,12,1:34.825,94.825
842,47,giovinazzi,13,1:37.885,97.885
843,47,russell,14,1:35.042,95.042
844,47,vettel,15,1:35.252,95.252
845,47,latifi,16,1:35.077,95.077
846,47,raikkonen,17,1:35.275,95.275
847,47,kevin_magnussen,18,1:37.248,97.248
848,48,hamilton,1,1:33.624,93.624
849,48,max_verstappen,2,1:32.014,92.014
850,48,perez,3,1:34.227,94.227
851,48,albon,4,1:34.758,94.758
852,48,norris,5,1:33.836,93.836
853,48,gasly,6,1:34.817,94.817
854,48,sainz,7,1:33.783,93.783
855,48,ricciardo,8,1:33.841,93.841
856,48,bottas,9,1:33.843,93.843
857,48,ocon,10,1:35.034,95.034
858,48,leclerc,11,1:34.150,94.15
859,48,kvyat,12,1:35.367,95.367
860,48,giovinazzi,13,1:37.017,97.017
861,48,russell,14,1:36.182,96.182
862,48,vettel,15,1:36.259,96.259
863,48,latifi,16,1:35.492,95.492
864,48,raikkonen,17,1:35.581,95.581
865,48,kevin_magnussen,18,1:38.946,98.946
866,49,hamilton,1,1:33.629,93.629
867,49,max_verstappen,2,1:32.671,92.671
868,49,perez,3,1:34.407,94.407
869,49,albon,4,1:34.499,94.499
870,49,norris,5,1:33.688,93.688
871,49,gasly,6,1:34.967,94.967
872,49,sainz,7,1:34.224,94.224
873,49,ricciardo,8,1:33.879,93.879
874,49,bottas,9,1:34.100,94.1
875,49,ocon,10,1:34.756,94.756
876,49,leclerc,11,1:34.129,94.129
877,49,kvyat,12,1:35.369,95.369
878,49,giovinazzi,13,1:37.348,97.348
879,49,russell,14,1:35.209,95.209
880,49,vettel,15,1:35.454,95.454
881,49,latifi,16,1:35.578,95.578
882,49,raikkonen,17,1:37.237,97.237
883,49,kevin_magnussen,18,1:37.356,97.356
884,50,hamilton,1,1:33.672,93.672
885,50,max_verstappen,2,1:32.091,92.091
886,50,perez,3,1:34.745,94.745
887,50,albon,4,1:34.152,94.152
888,50,norris,5,1:33.853,93.853
889,50,gasly,6,1:35.061,95.061
890,50,sainz,7,1:34.791,94.791
891,50,ricciardo,8,1:34.173,94.173
892,50,bottas,9,1:34.885,94.885
893,50,ocon,10,1:34.977,94.977
894,50,leclerc,11,1:36.219,96.219
895,50,kvyat,12,1:35.124,95.124
896,50,giovinazzi,13,1:38.118,98.118
897,50,russell,14,1:35.409,95.409
898,50,vettel,15,1:35.458,95.458
899,50,latifi,16,1:37.601,97.601
900,50,raikkonen,17,1:35.838,95.838
901,50,kevin_magnussen,18,1:37.194,97.194
902,51,hamilton,1,1:33.752,93.752
903,51,max_verstappen,2,1:32.859,92.859
904,51,perez,3,1:34.841,94.841
905,51,albon,4,1:34.453,94.453
906,51,norris,5,1:33.969,93.969
907,51,sainz,6,1:33.519,93.519
908,51,gasly,7,1:36.831,96.831
909,51,ricciardo,8,1:34.468,94.468
910,51,bottas,9,1:34.385,94.385
911,51,ocon,10,1:35.062,95.062
912,51,leclerc,11,1:34.671,94.671
913,51,kvyat,12,1:35.366,95.366
914,51,giovinazzi,13,1:37.319,97.319
915,51,russell,14,1:35.590,95.59
916,51,vettel,15,1:35.315,95.315
917,51,latifi,16,1:36.106,96.106
918,51,raikkonen,17,1:36.237,96.237
919,51,kevin_magnussen,18,1:37.647,97.647
920,52,hamilton,1,1:34.103,94.103
921,52,max_verstappen,2,1:32.309,92.309
922,52,perez,3,1:34.881,94.881
923,52,albon,4,1:34.612,94.612
924,52,norris,5,1:34.518,94.518
925,52,sainz,6,1:34.001,94.001
926,52,gasly,7,1:35.500,95.5
927,52,ricciardo,8,1:34.570,94.57
928,52,bottas,9,1:34.345,94.345
929,52,ocon,10,1:35.148,95.148
930,52,leclerc,11,1:34.889,94.889
931,52,kvyat,12,1:35.323,95.323
932,52,giovinazzi,13,1:37.322,97.322
933,52,russell,14,1:35.807,95.807
934,52,vettel,15,1:35.790,95.79
935,52,latifi,16,1:36.303,96.303
936,52,raikkonen,17,1:37.902,97.902
937,52,kevin_magnussen,18,1:38.594,98.594
938,53,hamilton,1,1:34.256,94.256
939,53,max_verstappen,2,1:33.072,93.072
940,53,perez,3,1:38.090,98.09
941,53,albon,4,1:35.713,95.713
942,53,norris,5,1:33.588,93.588
943,53,sainz,6,1:34.181,94.181
944,53,gasly,7,1:35.556,95.556
945,53,ricciardo,8,1:35.306,95.306
946,53,bottas,9,1:34.815,94.815
947,53,ocon,10,1:35.209,95.209
948,53,leclerc,11,1:37.077,97.077
949,53,kvyat,12,1:37.503,97.503
950,53,russell,13,1:43.629,103.629
951,53,vettel,14,1:43.658,103.658
952,53,giovinazzi,15,1:49.156,109.156
953,53,latifi,16,1:46.870,106.87
954,53,raikkonen,17,1:49.300,109.3
955,53,kevin_magnussen,18,1:58.082,118.082
956,54,hamilton,1,1:34.153,94.153
957,54,max_verstappen,2,1:32.047,92.047
958,54,albon,3,1:48.128,108.128
959,54,norris,4,1:53.253,113.253
960,54,sainz,5,1:54.041,114.041
961,54,gasly,6,1:57.736,117.736
962,54,ricciardo,7,1:57.083,117.083
963,54,bottas,8,1:56.767,116.767
964,54,ocon,9,2:04.662,124.662
965,54,leclerc,10,2:07.443,127.443
966,54,kvyat,11,2:12.993,132.993
967,54,russell,12,2:11.263,131.263
968,54,vettel,13,2:13.973,133.973
969,54,latifi,14,2:12.461,132.461
970,54,raikkonen,15,2:13.333,133.333
971,54,giovinazzi,16,2:29.402,149.402
972,54,kevin_magnussen,17,2:29.621,149.621
973,55,hamilton,1,2:07.139,127.139
974,55,max_verstappen,2,2:12.874,132.874
975,55,albon,3,2:13.017,133.017
976,55,norris,4,2:12.201,132.201
977,55,sainz,5,2:11.830,131.83
978,55,gasly,6,2:10.805,130.805
979,55,ricciardo,7,2:12.064,132.064
980,55,bottas,8,2:11.174,131.174
981,55,ocon,9,2:09.462,129.462
982,55,leclerc,10,2:21.804,141.804
983,55,kvyat,11,2:08.097,128.097
984,55,russell,12,1:50.884,110.884
985,55,vettel,13,1:59.401,119.401
986,55,latifi,14,1:51.177,111.177
987,55,raikkonen,15,1:48.659,108.659
988,55,giovinazzi,16,1:45.931,105.931
989,55,kevin_magnussen,17,1:48.672,108.672
990,56,hamilton,1,2:22.229,142.229
991,56,max_verstappen,2,2:11.331,131.331
992,56,albon,3,1:49.706,109.706
993,56,norris,4,1:45.917,105.917
994,56,sainz,5,1:42.023,102.023
995,56,gasly,6,1:47.503,107.503
996,56,ricciardo,7,1:53.662,113.662
997,56,bottas,8,1:51.207,111.207
998,56,ocon,9,1:38.588,98.588
999,56,leclerc,10,2:37.018,157.018
1000,56,kvyat,11,2:25.637,145.637
1001,56,russell,12,2:25.519,145.519
1002,56,vettel,13,2:15.846,135.846
1003,56,latifi,14,2:14.922,134.922
1004,56,raikkonen,15,2:15.110,135.11
1005,56,giovinazzi,16,2:14.889,134.889
1006,56,kevin_magnussen,17,1:48.324,108.324
1007,57,hamilton,1,2:37.664,157.664
1008,57,max_verstappen,2,2:26.689,146.689
1009,57,albon,3,2:15.114,135.114
1010,57,norris,4,2:07.016,127.016
1011,57,sainz,5,2:02.091,122.091
1012,57,gasly,6,1:48.630,108.63
1013,57,ricciardo,7,1:47.813,107.813
1014,57,bottas,8,1:47.789,107.789
1015,57,ocon,9,1:47.307,107.307
