,lap,driver,position,time,secs
0,1,max_verstappen,1,1:43.833,103.833
1,1,bottas,2,1:45.274,105.274
2,1,hamilton,3,1:46.347,106.347
3,1,norris,4,1:47.989,107.989
4,1,albon,5,1:48.734,108.734
5,1,sainz,6,1:49.619,109.619
6,1,kvyat,7,1:50.426,110.426
7,1,stroll,8,1:51.155,111.155
8,1,ocon,9,1:52.035,112.035
9,1,gasly,10,1:52.727,112.727
10,1,ricciardo,11,1:53.282,113.282
11,1,vettel,12,1:53.980,113.98
12,1,leclerc,13,1:54.522,114.522
13,1,raikkonen,14,1:54.909,114.909
14,1,giovinazzi,15,1:55.759,115.759
15,1,russell,16,1:56.502,116.502
16,1,kevin_magnussen,17,1:57.154,117.154
17,1,pietro_fittipaldi,18,1:57.550,117.55
18,1,latifi,19,1:58.259,118.259
19,1,perez,20,1:58.615,118.615
20,2,max_verstappen,1,1:42.292,102.292
21,2,bottas,2,1:42.716,102.716
22,2,hamilton,3,1:43.524,103.524
23,2,norris,4,1:44.054,104.054
24,2,albon,5,1:44.151,104.151
25,2,sainz,6,1:44.726,104.726
26,2,kvyat,7,1:45.145,105.145
27,2,stroll,8,1:45.211,105.211
28,2,gasly,9,1:44.828,104.828
29,2,ocon,10,1:46.281,106.281
30,2,ricciardo,11,1:45.912,105.912
31,2,vettel,12,1:46.008,106.008
32,2,leclerc,13,1:45.693,105.693
33,2,raikkonen,14,1:46.177,106.177
34,2,giovinazzi,15,1:46.822,106.822
35,2,russell,16,1:47.476,107.476
36,2,kevin_magnussen,17,1:47.811,107.811
37,2,pietro_fittipaldi,18,1:48.137,108.137
38,2,perez,19,1:47.554,107.554
39,2,latifi,20,1:48.696,108.696
40,3,max_verstappen,1,1:42.207,102.207
41,3,bottas,2,1:42.641,102.641
42,3,hamilton,3,1:43.154,103.154
43,3,norris,4,1:43.879,103.879
44,3,albon,5,1:43.941,103.941
45,3,sainz,6,1:44.346,104.346
46,3,kvyat,7,1:44.320,104.32
47,3,stroll,8,1:44.594,104.594
48,3,gasly,9,1:44.617,104.617
49,3,ocon,10,1:44.927,104.927
50,3,ricciardo,11,1:44.878,104.878
51,3,vettel,12,1:44.878,104.878
52,3,leclerc,13,1:45.231,105.231
53,3,raikkonen,14,1:45.200,105.2
54,3,giovinazzi,15,1:45.538,105.538
55,3,russell,16,1:46.192,106.192
56,3,kevin_magnussen,17,1:46.300,106.3
57,3,perez,18,1:45.701,105.701
58,3,pietro_fittipaldi,19,1:47.006,107.006
59,3,latifi,20,1:46.668,106.668
60,4,max_verstappen,1,1:42.450,102.45
61,4,bottas,2,1:42.798,102.798
62,4,hamilton,3,1:43.051,103.051
63,4,norris,4,1:43.951,103.951
64,4,albon,5,1:44.029,104.029
65,4,sainz,6,1:44.272,104.272
66,4,kvyat,7,1:44.544,104.544
67,4,stroll,8,1:44.455,104.455
68,4,gasly,9,1:44.286,104.286
69,4,ocon,10,1:44.696,104.696
70,4,ricciardo,11,1:44.667,104.667
71,4,vettel,12,1:44.989,104.989
72,4,leclerc,13,1:45.079,105.079
73,4,raikkonen,14,1:45.230,105.23
74,4,giovinazzi,15,1:45.375,105.375
75,4,russell,16,1:45.619,105.619
76,4,perez,17,1:44.762,104.762
77,4,kevin_magnussen,18,1:46.465,106.465
78,4,pietro_fittipaldi,19,1:46.070,106.07
79,4,latifi,20,1:46.472,106.472
80,5,max_verstappen,1,1:42.652,102.652
81,5,bottas,2,1:42.589,102.589
82,5,hamilton,3,1:43.157,103.157
83,5,norris,4,1:43.966,103.966
84,5,albon,5,1:44.076,104.076
85,5,sainz,6,1:44.369,104.369
86,5,kvyat,7,1:44.620,104.62
87,5,stroll,8,1:44.612,104.612
88,5,gasly,9,1:44.520,104.52
89,5,ocon,10,1:44.597,104.597
90,5,ricciardo,11,1:44.817,104.817
91,5,vettel,12,1:44.846,104.846
92,5,leclerc,13,1:45.070,105.07
93,5,raikkonen,14,1:45.326,105.326
94,5,giovinazzi,15,1:45.775,105.775
95,5,perez,16,1:43.786,103.786
96,5,russell,17,1:46.794,106.794
97,5,kevin_magnussen,18,1:46.137,106.137
98,5,pietro_fittipaldi,19,1:46.498,106.498
99,5,latifi,20,1:46.725,106.725
100,6,max_verstappen,1,1:42.562,102.562
101,6,bottas,2,1:42.662,102.662
102,6,hamilton,3,1:42.997,102.997
103,6,albon,4,1:42.885,102.885
104,6,norris,5,1:45.683,105.683
105,6,sainz,6,1:44.631,104.631
106,6,kvyat,7,1:44.741,104.741
107,6,stroll,8,1:44.690,104.69
108,6,gasly,9,1:44.623,104.623
109,6,ricciardo,10,1:43.625,103.625
110,6,ocon,11,1:46.075,106.075
111,6,vettel,12,1:44.788,104.788
112,6,leclerc,13,1:44.795,104.795
113,6,raikkonen,14,1:45.367,105.367
114,6,perez,15,1:43.263,103.263
115,6,giovinazzi,16,1:46.616,106.616
116,6,russell,17,1:46.466,106.466
117,6,kevin_magnussen,18,1:46.403,106.403
118,6,pietro_fittipaldi,19,1:46.442,106.442
119,6,latifi,20,1:46.462,106.462
120,7,max_verstappen,1,1:42.651,102.651
121,7,bottas,2,1:42.764,102.764
122,7,hamilton,3,1:43.033,103.033
123,7,albon,4,1:43.334,103.334
124,7,norris,5,1:44.650,104.65
125,7,sainz,6,1:44.685,104.685
126,7,kvyat,7,1:44.781,104.781
127,7,stroll,8,1:44.624,104.624
128,7,gasly,9,1:44.630,104.63
129,7,ricciardo,10,1:44.429,104.429
130,7,ocon,11,1:44.916,104.916
131,7,vettel,12,1:45.228,105.228
132,7,leclerc,13,1:45.143,105.143
133,7,raikkonen,14,1:45.939,105.939
134,7,perez,15,1:45.123,105.123
135,7,giovinazzi,16,1:45.724,105.724
136,7,russell,17,1:45.834,105.834
137,7,kevin_magnussen,18,1:46.083,106.083
138,7,pietro_fittipaldi,19,1:46.510,106.51
139,7,latifi,20,1:46.600,106.6
140,8,max_verstappen,1,1:42.506,102.506
141,8,bottas,2,1:42.752,102.752
142,8,hamilton,3,1:43.069,103.069
143,8,albon,4,1:43.081,103.081
144,8,norris,5,1:44.286,104.286
145,8,sainz,6,1:44.801,104.801
146,8,stroll,7,1:44.396,104.396
147,8,kvyat,8,1:46.648,106.648
148,8,gasly,9,1:45.857,105.857
149,8,ricciardo,10,1:45.241,105.241
150,8,ocon,11,1:45.195,105.195
151,8,vettel,12,1:45.099,105.099
152,8,leclerc,13,1:44.867,104.867
153,8,perez,14,1:44.231,104.231
154,8,raikkonen,15,1:46.553,106.553
155,8,giovinazzi,16,1:45.605,105.605
156,8,russell,17,1:45.771,105.771
157,8,kevin_magnussen,18,1:45.832,105.832
158,8,pietro_fittipaldi,19,1:46.930,106.93
159,8,latifi,20,1:46.800,106.8
160,9,max_verstappen,1,1:42.461,102.461
161,9,bottas,2,1:42.691,102.691
162,9,hamilton,3,1:43.289,103.289
163,9,albon,4,1:43.274,103.274
164,9,norris,5,1:44.281,104.281
165,9,sainz,6,1:44.390,104.39
166,9,stroll,7,1:44.565,104.565
167,9,gasly,8,1:44.982,104.982
168,9,kvyat,9,1:47.228,107.228
169,9,ricciardo,10,1:46.233,106.233
170,9,ocon,11,1:45.600,105.6
171,9,vettel,12,1:45.336,105.336
172,9,leclerc,13,1:45.498,105.498
173,9,raikkonen,14,1:46.348,106.348
174,9,giovinazzi,15,1:46.179,106.179
175,9,russell,16,1:45.844,105.844
176,9,kevin_magnussen,17,1:46.112,106.112
177,9,pietro_fittipaldi,18,1:49.150,109.15
178,9,latifi,19,1:50.998,110.998
179,10,max_verstappen,1,2:06.235,126.235
180,10,bottas,2,2:07.879,127.879
181,10,hamilton,3,2:09.878,129.878
182,10,albon,4,2:10.847,130.847
183,10,norris,5,2:12.176,132.176
184,10,sainz,6,2:16.275,136.275
185,10,stroll,7,2:14.461,134.461
186,10,gasly,8,2:14.631,134.631
187,10,kvyat,9,2:17.188,137.188
188,10,ricciardo,10,2:16.955,136.955
189,10,vettel,11,2:17.108,137.108
190,10,ocon,12,2:18.556,138.556
191,10,leclerc,13,2:17.453,137.453
192,10,raikkonen,14,2:20.626,140.626
193,10,giovinazzi,15,2:21.133,141.133
194,10,russell,16,2:22.381,142.381
195,10,kevin_magnussen,17,2:23.503,143.503
196,10,pietro_fittipaldi,18,2:23.976,143.976
197,10,latifi,19,2:21.517,141.517
198,11,max_verstappen,1,2:36.851,156.851
199,11,bottas,2,2:37.068,157.068
200,11,hamilton,3,2:40.325,160.325
201,11,albon,4,2:39.269,159.269
202,11,ricciardo,5,2:21.882,141.882
203,11,norris,6,2:38.423,158.423
204,11,vettel,7,2:22.813,142.813
205,11,leclerc,8,2:23.156,143.156
206,11,sainz,9,2:37.847,157.847
207,11,stroll,10,2:39.286,159.286
208,11,gasly,11,2:38.344,158.344
209,11,giovinazzi,12,2:22.078,142.078
210,11,ocon,13,2:35.304,155.304
211,11,kvyat,14,2:41.628,161.628
212,11,kevin_magnussen,15,2:23.043,143.043
213,11,raikkonen,16,2:38.295,158.295
214,11,latifi,17,2:22.720,142.72
215,11,russell,18,2:35.441,155.441
216,11,pietro_fittipaldi,19,2:44.251,164.251
217,12,max_verstappen,1,2:41.381,161.381
218,12,bottas,2,2:38.290,158.29
219,12,hamilton,3,2:31.224,151.224
220,12,albon,4,2:27.288,147.288
221,12,ricciardo,5,2:24.547,144.547
222,12,norris,6,2:25.506,145.506
223,12,vettel,7,2:24.933,144.933
224,12,leclerc,8,2:24.517,144.517
225,12,sainz,9,2:23.170,143.17
226,12,stroll,10,2:23.315,143.315
227,12,gasly,11,2:22.722,142.722
228,12,giovinazzi,12,2:22.193,142.193
229,12,ocon,13,2:22.253,142.253
230,12,kvyat,14,2:21.705,141.705
231,12,kevin_magnussen,15,2:22.209,142.209
232,12,raikkonen,16,2:21.753,141.753
233,12,russell,17,2:23.979,143.979
234,12,latifi,18,2:36.183,156.183
235,12,pietro_fittipaldi,19,2:22.086,142.086
236,13,max_verstappen,1,2:37.752,157.752
237,13,bottas,2,2:36.590,156.59
238,13,hamilton,3,2:34.323,154.323
239,13,albon,4,2:33.008,153.008
240,13,ricciardo,5,2:31.940,151.94
241,13,norris,6,2:30.317,150.317
242,13,vettel,7,2:29.720,149.72
243,13,leclerc,8,2:29.087,149.087
244,13,sainz,9,2:27.429,147.429
245,13,stroll,10,2:25.714,145.714
246,13,gasly,11,2:24.787,144.787
247,13,giovinazzi,12,2:23.229,143.229
248,13,ocon,13,2:22.022,142.022
249,13,kvyat,14,2:20.028,140.028
250,13,kevin_magnussen,15,2:16.637,136.637
251,13,raikkonen,16,2:12.308,132.308
252,13,russell,17,2:06.430,126.43
253,13,latifi,18,1:57.238,117.238
254,13,pietro_fittipaldi,19,1:53.035,113.035
255,14,max_verstappen,1,1:40.958,100.958
256,14,bottas,2,1:41.542,101.542
257,14,hamilton,3,1:42.117,102.117
258,14,albon,4,1:43.243,103.243
259,14,ricciardo,5,1:44.183,104.183
260,14,norris,6,1:44.829,104.829
261,14,vettel,7,1:45.338,105.338
262,14,sainz,8,1:45.532,105.532
263,14,leclerc,9,1:46.755,106.755
264,14,stroll,10,1:46.366,106.366
265,14,gasly,11,1:46.613,106.613
266,14,giovinazzi,12,1:46.987,106.987
267,14,ocon,13,1:46.969,106.969
268,14,kvyat,14,1:47.073,107.073
269,14,raikkonen,15,1:46.828,106.828
270,14,kevin_magnussen,16,1:48.535,108.535
271,14,russell,17,1:48.307,108.307
272,14,latifi,18,1:48.423,108.423
273,14,pietro_fittipaldi,19,1:46.939,106.939
274,15,max_verstappen,1,1:41.153,101.153
275,15,bottas,2,1:41.350,101.35
276,15,hamilton,3,1:41.947,101.947
277,15,albon,4,1:42.429,102.429
278,15,ricciardo,5,1:43.867,103.867
279,15,norris,6,1:43.704,103.704
280,15,vettel,7,1:44.226,104.226
281,15,sainz,8,1:44.328,104.328
282,15,leclerc,9,1:44.579,104.579
283,15,stroll,10,1:44.742,104.742
284,15,gasly,11,1:44.955,104.955
285,15,ocon,12,1:45.056,105.056
286,15,giovinazzi,13,1:46.923,106.923
287,15,kvyat,14,1:46.524,106.524
288,15,raikkonen,15,1:46.572,106.572
289,15,kevin_magnussen,16,1:46.448,106.448
290,15,russell,17,1:46.200,106.2
291,15,latifi,18,1:46.373,106.373
292,15,pietro_fittipaldi,19,1:46.398,106.398
293,16,max_verstappen,1,1:41.315,101.315
294,16,bottas,2,1:42.089,102.089
295,16,hamilton,3,1:42.109,102.109
296,16,albon,4,1:42.735,102.735
297,16,ricciardo,5,1:43.359,103.359
298,16,norris,6,1:43.380,103.38
299,16,vettel,7,1:44.057,104.057
300,16,sainz,8,1:43.837,103.837
301,16,leclerc,9,1:44.576,104.576
302,16,stroll,10,1:44.611,104.611
303,16,gasly,11,1:44.512,104.512
304,16,ocon,12,1:44.567,104.567
305,16,kvyat,13,1:43.928,103.928
306,16,giovinazzi,14,1:46.017,106.017
307,16,raikkonen,15,1:45.161,105.161
308,16,russell,16,1:44.923,104.923
309,16,kevin_magnussen,17,1:47.117,107.117
310,16,latifi,18,1:46.361,106.361
311,16,pietro_fittipaldi,19,1:46.153,106.153
312,17,max_verstappen,1,1:41.571,101.571
313,17,bottas,2,1:41.835,101.835
314,17,hamilton,3,1:42.106,102.106
315,17,albon,4,1:42.572,102.572
316,17,ricciardo,5,1:43.372,103.372
317,17,norris,6,1:43.455,103.455
318,17,sainz,7,1:43.790,103.79
319,17,vettel,8,1:45.963,105.963
320,17,leclerc,9,1:44.596,104.596
321,17,stroll,10,1:44.551,104.551
322,17,gasly,11,1:44.461,104.461
323,17,ocon,12,1:44.334,104.334
324,17,kvyat,13,1:44.144,104.144
325,17,raikkonen,14,1:44.203,104.203
326,17,giovinazzi,15,1:46.386,106.386
327,17,russell,16,1:45.325,105.325
328,17,kevin_magnussen,17,1:45.717,105.717
329,17,latifi,18,1:45.837,105.837
330,17,pietro_fittipaldi,19,1:46.148,106.148
331,18,max_verstappen,1,1:41.427,101.427
332,18,bottas,2,1:41.870,101.87
333,18,hamilton,3,1:41.819,101.819
334,18,albon,4,1:42.322,102.322
335,18,ricciardo,5,1:43.409,103.409
336,18,norris,6,1:43.370,103.37
337,18,sainz,7,1:44.124,104.124
338,18,vettel,8,1:44.618,104.618
339,18,leclerc,9,1:44.936,104.936
340,18,stroll,10,1:45.026,105.026
341,18,gasly,11,1:45.148,105.148
342,18,ocon,12,1:44.854,104.854
343,18,kvyat,13,1:44.707,104.707
344,18,raikkonen,14,1:45.196,105.196
345,18,giovinazzi,15,1:45.262,105.262
346,18,russell,16,1:45.409,105.409
347,18,kevin_magnussen,17,1:45.521,105.521
348,18,latifi,18,1:45.479,105.479
349,18,pietro_fittipaldi,19,1:45.720,105.72
350,19,max_verstappen,1,1:41.423,101.423
351,19,bottas,2,1:41.766,101.766
352,19,hamilton,3,1:41.791,101.791
353,19,albon,4,1:42.272,102.272
354,19,ricciardo,5,1:43.200,103.2
355,19,norris,6,1:43.410,103.41
356,19,sainz,7,1:43.792,103.792
357,19,vettel,8,1:44.135,104.135
358,19,stroll,9,1:43.764,103.764
359,19,leclerc,10,1:46.133,106.133
360,19,gasly,11,1:45.086,105.086
361,19,ocon,12,1:44.921,104.921
362,19,kvyat,13,1:44.800,104.8
363,19,raikkonen,14,1:44.927,104.927
364,19,giovinazzi,15,1:45.074,105.074
365,19,russell,16,1:44.867,104.867
366,19,kevin_magnussen,17,1:45.217,105.217
367,19,latifi,18,1:45.913,105.913
368,19,pietro_fittipaldi,19,1:45.652,105.652
369,20,max_verstappen,1,1:41.560,101.56
370,20,bottas,2,1:41.919,101.919
371,20,hamilton,3,1:41.991,101.991
372,20,albon,4,1:42.192,102.192
373,20,ricciardo,5,1:43.182,103.182
374,20,norris,6,1:43.539,103.539
375,20,sainz,7,1:43.584,103.584
376,20,vettel,8,1:43.953,103.953
377,20,stroll,9,1:43.966,103.966
378,20,gasly,10,1:43.650,103.65
379,20,leclerc,11,1:45.712,105.712
380,20,ocon,12,1:44.956,104.956
381,20,kvyat,13,1:45.119,105.119
382,20,raikkonen,14,1:44.789,104.789
383,20,giovinazzi,15,1:45.375,105.375
384,20,russell,16,1:45.237,105.237
385,20,kevin_magnussen,17,1:45.319,105.319
386,20,latifi,18,1:46.089,106.089
387,20,pietro_fittipaldi,19,1:46.169,106.169
388,21,max_verstappen,1,1:41.462,101.462
389,21,bottas,2,1:41.821,101.821
390,21,hamilton,3,1:41.720,101.72
391,21,albon,4,1:42.022,102.022
392,21,ricciardo,5,1:43.192,103.192
393,21,norris,6,1:43.546,103.546
394,21,sainz,7,1:43.504,103.504
395,21,vettel,8,1:44.038,104.038
396,21,stroll,9,1:43.718,103.718
397,21,gasly,10,1:43.961,103.961
398,21,leclerc,11,1:45.682,105.682
399,21,ocon,12,1:45.673,105.673
400,21,kvyat,13,1:45.332,105.332
401,21,raikkonen,14,1:45.282,105.282
402,21,giovinazzi,15,1:45.369,105.369
403,21,russell,16,1:45.282,105.282
404,21,kevin_magnussen,17,1:45.306,105.306
405,21,latifi,18,1:45.348,105.348
406,21,pietro_fittipaldi,19,1:45.686,105.686
407,22,max_verstappen,1,1:41.250,101.25
408,22,bottas,2,1:41.772,101.772
409,22,hamilton,3,1:41.600,101.6
410,22,albon,4,1:41.855,101.855
411,22,ricciardo,5,1:43.074,103.074
412,22,norris,6,1:43.343,103.343
413,22,sainz,7,1:43.600,103.6
414,22,vettel,8,1:43.541,103.541
415,22,stroll,9,1:43.635,103.635
416,22,gasly,10,1:43.746,103.746
417,22,ocon,11,1:43.705,103.705
418,22,kvyat,12,1:45.207,105.207
419,22,leclerc,13,1:47.724,107.724
420,22,raikkonen,14,1:45.043,105.043
421,22,russell,15,1:44.718,104.718
422,22,giovinazzi,16,1:47.130,107.13
423,22,kevin_magnussen,17,1:45.596,105.596
424,22,latifi,18,1:45.078,105.078
425,22,pietro_fittipaldi,19,1:45.746,105.746
426,23,max_verstappen,1,1:41.400,101.4
427,23,bottas,2,1:41.686,101.686
428,23,hamilton,3,1:42.004,102.004
429,23,albon,4,1:42.182,102.182
430,23,ricciardo,5,1:43.197,103.197
431,23,norris,6,1:42.999,102.999
432,23,sainz,7,1:43.436,103.436
433,23,vettel,8,1:43.753,103.753
434,23,stroll,9,1:43.581,103.581
435,23,gasly,10,1:43.639,103.639
436,23,ocon,11,1:43.652,103.652
437,23,kvyat,12,1:43.677,103.677
438,23,raikkonen,13,1:44.538,104.538
439,23,russell,14,1:44.819,104.819
440,23,giovinazzi,15,1:45.724,105.724
441,23,kevin_magnussen,16,1:45.491,105.491
442,23,latifi,17,1:45.077,105.077
443,23,pietro_fittipaldi,18,1:45.207,105.207
444,23,leclerc,19,2:03.178,123.178
445,24,max_verstappen,1,1:41.579,101.579
446,24,bottas,2,1:41.439,101.439
447,24,hamilton,3,1:41.894,101.894
448,24,albon,4,1:42.213,102.213
449,24,ricciardo,5,1:42.931,102.931
450,24,norris,6,1:42.914,102.914
451,24,sainz,7,1:43.428,103.428
452,24,vettel,8,1:43.655,103.655
453,24,stroll,9,1:43.704,103.704
454,24,gasly,10,1:43.309,103.309
455,24,ocon,11,1:43.402,103.402
456,24,kvyat,12,1:43.255,103.255
457,24,raikkonen,13,1:44.412,104.412
458,24,russell,14,1:44.297,104.297
459,24,giovinazzi,15,1:45.392,105.392
460,24,kevin_magnussen,16,1:45.347,105.347
461,24,latifi,17,1:45.086,105.086
462,24,pietro_fittipaldi,18,1:45.257,105.257
463,24,leclerc,19,1:41.908,101.908
464,25,max_verstappen,1,1:41.653,101.653
465,25,bottas,2,1:41.685,101.685
466,25,hamilton,3,1:41.745,101.745
467,25,albon,4,1:42.090,102.09
468,25,ricciardo,5,1:42.939,102.939
469,25,norris,6,1:42.916,102.916
470,25,sainz,7,1:43.176,103.176
471,25,vettel,8,1:43.837,103.837
472,25,stroll,9,1:44.213,104.213
473,25,gasly,10,1:43.585,103.585
474,25,ocon,11,1:43.331,103.331
475,25,kvyat,12,1:43.497,103.497
476,25,raikkonen,13,1:44.373,104.373
477,25,russell,14,1:44.105,104.105
478,25,giovinazzi,15,1:44.960,104.96
479,25,kevin_magnussen,16,1:45.399,105.399
480,25,latifi,17,1:45.143,105.143
481,25,pietro_fittipaldi,18,1:45.406,105.406
482,25,leclerc,19,1:42.762,102.762
483,26,max_verstappen,1,1:41.357,101.357
484,26,bottas,2,1:42.086,102.086
485,26,hamilton,3,1:41.979,101.979
486,26,albon,4,1:41.807,101.807
487,26,ricciardo,5,1:42.920,102.92
488,26,norris,6,1:43.041,103.041
489,26,sainz,7,1:43.241,103.241
490,26,vettel,8,1:43.954,103.954
491,26,stroll,9,1:43.497,103.497
492,26,gasly,10,1:43.527,103.527
493,26,ocon,11,1:43.704,103.704
494,26,kvyat,12,1:43.304,103.304
495,26,raikkonen,13,1:44.011,104.011
496,26,russell,14,1:44.053,104.053
497,26,giovinazzi,15,1:45.004,105.004
498,26,kevin_magnussen,16,1:45.133,105.133
499,26,latifi,17,1:45.032,105.032
500,26,leclerc,18,1:43.100,103.1
501,26,pietro_fittipaldi,19,1:45.978,105.978
502,27,max_verstappen,1,1:41.362,101.362
503,27,bottas,2,1:41.893,101.893
504,27,hamilton,3,1:42.034,102.034
505,27,albon,4,1:41.867,101.867
506,27,ricciardo,5,1:42.955,102.955
507,27,norris,6,1:43.183,103.183
508,27,sainz,7,1:43.128,103.128
509,27,vettel,8,1:45.512,105.512
510,27,stroll,9,1:44.652,104.652
511,27,gasly,10,1:44.244,104.244
512,27,ocon,11,1:43.583,103.583
513,27,kvyat,12,1:43.502,103.502
514,27,raikkonen,13,1:44.509,104.509
515,27,russell,14,1:44.413,104.413
516,27,leclerc,15,1:42.228,102.228
517,27,giovinazzi,16,1:46.790,106.79
518,27,kevin_magnussen,17,1:46.332,106.332
519,27,latifi,18,1:46.248,106.248
520,27,pietro_fittipaldi,19,1:45.135,105.135
521,28,max_verstappen,1,1:41.318,101.318
522,28,bottas,2,1:41.939,101.939
523,28,hamilton,3,1:41.658,101.658
524,28,albon,4,1:42.151,102.151
525,28,ricciardo,5,1:43.163,103.163
526,28,norris,6,1:43.058,103.058
527,28,sainz,7,1:43.284,103.284
528,28,vettel,8,1:44.186,104.186
529,28,stroll,9,1:44.346,104.346
530,28,gasly,10,1:44.358,104.358
531,28,ocon,11,1:43.654,103.654
532,28,kvyat,12,1:43.361,103.361
533,28,raikkonen,13,1:44.112,104.112
534,28,russell,14,1:44.157,104.157
535,28,leclerc,15,1:42.530,102.53
536,28,latifi,16,1:45.227,105.227
537,28,kevin_magnussen,17,1:47.228,107.228
538,28,pietro_fittipaldi,18,1:45.419,105.419
539,28,giovinazzi,19,2:03.049,123.049
540,29,max_verstappen,1,1:41.491,101.491
541,29,bottas,2,1:41.951,101.951
542,29,hamilton,3,1:41.811,101.811
543,29,albon,4,1:41.983,101.983
544,29,ricciardo,5,1:42.904,102.904
545,29,norris,6,1:42.894,102.894
546,29,sainz,7,1:42.960,102.96
547,29,vettel,8,1:43.880,103.88
548,29,gasly,9,1:43.624,103.624
549,29,stroll,10,1:45.703,105.703
550,29,ocon,11,1:43.834,103.834
551,29,kvyat,12,1:43.608,103.608
552,29,raikkonen,13,1:44.361,104.361
553,29,russell,14,1:43.870,103.87
554,29,leclerc,15,1:42.661,102.661
555,29,latifi,16,1:45.032,105.032
556,29,kevin_magnussen,17,1:46.283,106.283
557,29,pietro_fittipaldi,18,1:45.729,105.729
558,29,giovinazzi,19,1:41.675,101.675
559,30,max_verstappen,1,1:41.296,101.296
560,30,bottas,2,1:41.505,101.505
561,30,hamilton,3,1:41.649,101.649
562,30,albon,4,1:41.702,101.702
563,30,ricciardo,5,1:42.819,102.819
564,30,norris,6,1:42.902,102.902
565,30,sainz,7,1:43.182,103.182
566,30,vettel,8,1:44.083,104.083
567,30,gasly,9,1:43.574,103.574
568,30,stroll,10,1:43.785,103.785
569,30,ocon,11,1:43.766,103.766
570,30,kvyat,12,1:43.753,103.753
571,30,raikkonen,13,1:44.023,104.023
572,30,russell,14,1:43.855,103.855
573,30,leclerc,15,1:42.686,102.686
574,30,latifi,16,1:44.853,104.853
575,30,pietro_fittipaldi,17,1:44.796,104.796
576,30,kevin_magnussen,18,1:47.287,107.287
577,30,giovinazzi,19,1:42.055,102.055
578,31,max_verstappen,1,1:41.281,101.281
579,31,bottas,2,1:41.361,101.361
580,31,hamilton,3,1:41.993,101.993
581,31,albon,4,1:41.687,101.687
582,31,ricciardo,5,1:42.815,102.815
583,31,norris,6,1:42.974,102.974
584,31,sainz,7,1:42.693,102.693
585,31,gasly,8,1:43.949,103.949
586,31,vettel,9,1:46.209,106.209
587,31,stroll,10,1:44.550,104.55
588,31,ocon,11,1:44.112,104.112
589,31,kvyat,12,1:44.166,104.166
590,31,raikkonen,13,1:43.804,103.804
591,31,russell,14,1:44.599,104.599
592,31,leclerc,15,1:43.273,103.273
593,31,latifi,16,1:44.147,104.147
594,31,pietro_fittipaldi,17,1:45.304,105.304
595,31,giovinazzi,18,1:42.932,102.932
596,31,kevin_magnussen,19,1:48.161,108.161
597,32,max_verstappen,1,1:41.254,101.254
598,32,bottas,2,1:41.552,101.552
599,32,hamilton,3,1:41.510,101.51
600,32,albon,4,1:41.782,101.782
601,32,ricciardo,5,1:42.619,102.619
602,32,norris,6,1:42.735,102.735
603,32,sainz,7,1:42.821,102.821
604,32,gasly,8,1:43.043,103.043
605,32,vettel,9,1:44.567,104.567
606,32,stroll,10,1:44.786,104.786
607,32,ocon,11,1:44.546,104.546
608,32,kvyat,12,1:44.204,104.204
609,32,raikkonen,13,1:43.776,103.776
610,32,russell,14,1:43.846,103.846
611,32,leclerc,15,1:42.854,102.854
612,32,latifi,16,1:44.204,104.204
613,32,pietro_fittipaldi,17,1:45.237,105.237
614,32,giovinazzi,18,1:42.846,102.846
615,32,kevin_magnussen,19,2:03.659,123.659
616,33,max_verstappen,1,1:41.162,101.162
617,33,bottas,2,1:41.309,101.309
618,33,hamilton,3,1:41.457,101.457
619,33,albon,4,1:41.814,101.814
620,33,ricciardo,5,1:42.390,102.39
621,33,norris,6,1:42.693,102.693
622,33,sainz,7,1:42.678,102.678
623,33,gasly,8,1:42.768,102.768
624,33,vettel,9,1:44.255,104.255
625,33,stroll,10,1:44.256,104.256
626,33,ocon,11,1:44.387,104.387
627,33,kvyat,12,1:44.243,104.243
628,33,raikkonen,13,1:43.596,103.596
629,33,russell,14,1:44.146,104.146
630,33,leclerc,15,1:43.993,103.993
631,33,latifi,16,1:44.058,104.058
632,33,giovinazzi,17,1:42.312,102.312
633,33,pietro_fittipaldi,18,1:46.001,106.001
634,33,kevin_magnussen,19,1:42.263,102.263
635,34,max_verstappen,1,1:41.201,101.201
636,34,bottas,2,1:41.262,101.262
637,34,hamilton,3,1:41.744,101.744
638,34,albon,4,1:42.145,102.145
639,34,ricciardo,5,1:42.283,102.283
640,34,norris,6,1:42.434,102.434
641,34,sainz,7,1:42.551,102.551
642,34,gasly,8,1:43.135,103.135
643,34,vettel,9,1:44.641,104.641
644,34,stroll,10,1:44.482,104.482
645,34,ocon,11,1:44.323,104.323
646,34,kvyat,12,1:44.392,104.392
647,34,raikkonen,13,1:43.861,103.861
648,34,leclerc,14,1:43.091,103.091
649,34,russell,15,1:45.820,105.82
650,34,latifi,16,1:44.194,104.194
651,34,giovinazzi,17,1:42.571,102.571
652,34,pietro_fittipaldi,18,1:50.451,110.451
653,34,kevin_magnussen,19,1:42.372,102.372
654,35,max_verstappen,1,1:41.455,101.455
655,35,bottas,2,1:41.388,101.388
656,35,hamilton,3,1:41.431,101.431
657,35,albon,4,1:42.139,102.139
658,35,ricciardo,5,1:42.390,102.39
659,35,norris,6,1:42.401,102.401
660,35,sainz,7,1:42.369,102.369
661,35,gasly,8,1:42.820,102.82
662,35,stroll,9,1:44.281,104.281
663,35,ocon,10,1:44.396,104.396
664,35,vettel,11,1:46.172,106.172
665,35,kvyat,12,1:44.460,104.46
666,35,raikkonen,13,1:43.412,103.412
667,35,leclerc,14,1:42.424,102.424
668,35,russell,15,1:44.420,104.42
669,35,latifi,16,1:45.609,105.609
670,35,giovinazzi,17,1:42.747,102.747
671,35,kevin_magnussen,18,1:42.797,102.797
672,35,pietro_fittipaldi,19,2:12.398,132.398
673,36,max_verstappen,1,1:41.565,101.565
674,36,bottas,2,1:41.832,101.832
675,36,hamilton,3,1:41.689,101.689
676,36,albon,4,1:42.247,102.247
677,36,ricciardo,5,1:42.604,102.604
678,36,norris,6,1:42.549,102.549
679,36,sainz,7,1:42.469,102.469
680,36,gasly,8,1:43.003,103.003
681,36,stroll,9,1:43.383,103.383
682,36,ocon,10,1:43.862,103.862
683,36,kvyat,11,1:43.998,103.998
684,36,raikkonen,12,1:43.711,103.711
685,36,leclerc,13,1:42.537,102.537
686,36,russell,14,1:44.199,104.199
687,36,vettel,15,2:02.555,122.555
688,36,giovinazzi,16,1:42.734,102.734
689,36,latifi,17,2:03.180,123.18
690,36,kevin_magnussen,18,1:45.613,105.613
691,36,pietro_fittipaldi,19,1:42.960,102.96
692,37,max_verstappen,1,1:41.725,101.725
693,37,bottas,2,1:41.582,101.582
694,37,hamilton,3,1:41.420,101.42
695,37,albon,4,1:41.824,101.824
696,37,ricciardo,5,1:42.974,102.974
697,37,norris,6,1:42.542,102.542
698,37,sainz,7,1:42.709,102.709
699,37,gasly,8,1:42.868,102.868
700,37,stroll,9,1:42.744,102.744
701,37,ocon,10,1:43.166,103.166
702,37,kvyat,11,1:43.500,103.5
703,37,raikkonen,12,1:43.359,103.359
704,37,leclerc,13,1:42.960,102.96
705,37,russell,14,1:43.669,103.669
706,37,vettel,15,1:41.475,101.475
707,37,giovinazzi,16,1:44.874,104.874
708,37,latifi,17,1:45.031,105.031
709,37,kevin_magnussen,18,1:43.369,103.369
710,37,pietro_fittipaldi,19,1:43.243,103.243
711,38,max_verstappen,1,1:42.119,102.119
712,38,bottas,2,1:41.773,101.773
713,38,hamilton,3,1:41.502,101.502
714,38,albon,4,1:41.470,101.47
715,38,ricciardo,5,1:43.106,103.106
716,38,norris,6,1:43.084,103.084
717,38,sainz,7,1:42.487,102.487
718,38,gasly,8,1:42.960,102.96
719,38,stroll,9,1:42.688,102.688
720,38,ocon,10,1:43.031,103.031
721,38,kvyat,11,1:43.430,103.43
722,38,raikkonen,12,1:43.665,103.665
723,38,leclerc,13,1:43.274,103.274
724,38,russell,14,1:43.386,103.386
725,38,vettel,15,1:41.886,101.886
726,38,giovinazzi,16,1:42.973,102.973
727,38,latifi,17,1:42.786,102.786
728,38,kevin_magnussen,18,1:43.467,103.467
729,38,pietro_fittipaldi,19,1:43.789,103.789
730,39,max_verstappen,1,1:41.334,101.334
731,39,bottas,2,1:41.442,101.442
732,39,hamilton,3,1:41.452,101.452
733,39,albon,4,1:41.386,101.386
734,39,ricciardo,5,1:45.290,105.29
735,39,norris,6,1:42.771,102.771
736,39,sainz,7,1:42.426,102.426
737,39,gasly,8,1:43.070,103.07
738,39,stroll,9,1:42.690,102.69
739,39,ocon,10,1:42.896,102.896
740,39,kvyat,11,1:42.906,102.906
741,39,raikkonen,12,1:43.211,103.211
742,39,leclerc,13,1:43.195,103.195
743,39,russell,14,1:43.523,103.523
744,39,vettel,15,1:42.767,102.767
745,39,giovinazzi,16,1:42.437,102.437
746,39,latifi,17,1:42.773,102.773
747,39,kevin_magnussen,18,1:43.697,103.697
748,39,pietro_fittipaldi,19,1:44.592,104.592
749,40,max_verstappen,1,1:41.228,101.228
750,40,bottas,2,1:41.131,101.131
751,40,hamilton,3,1:41.429,101.429
752,40,albon,4,1:41.625,101.625
753,40,norris,5,1:42.730,102.73
754,40,sainz,6,1:42.354,102.354
755,40,ricciardo,7,2:03.636,123.636
756,40,gasly,8,1:43.659,103.659
757,40,stroll,9,1:42.811,102.811
758,40,ocon,10,1:42.936,102.936
759,40,kvyat,11,1:42.900,102.9
760,40,raikkonen,12,1:43.672,103.672
761,40,leclerc,13,1:43.832,103.832
762,40,russell,14,1:43.762,103.762
763,40,vettel,15,1:43.530,103.53
764,40,giovinazzi,16,1:42.440,102.44
765,40,latifi,17,1:43.593,103.593
766,40,kevin_magnussen,18,1:43.942,103.942
767,40,pietro_fittipaldi,19,1:44.548,104.548
768,41,max_verstappen,1,1:41.180,101.18
769,41,bottas,2,1:41.324,101.324
770,41,hamilton,3,1:41.572,101.572
771,41,albon,4,1:41.510,101.51
772,41,norris,5,1:42.794,102.794
773,41,sainz,6,1:42.425,102.425
774,41,ricciardo,7,1:43.472,103.472
775,41,gasly,8,1:43.444,103.444
776,41,stroll,9,1:41.866,101.866
777,41,ocon,10,1:43.020,103.02
778,41,kvyat,11,1:42.788,102.788
779,41,raikkonen,12,1:43.319,103.319
780,41,leclerc,13,1:43.147,103.147
781,41,vettel,14,1:41.983,101.983
782,41,russell,15,1:44.744,104.744
783,41,giovinazzi,16,1:42.317,102.317
784,41,latifi,17,1:42.937,102.937
785,41,kevin_magnussen,18,1:44.736,104.736
786,41,pietro_fittipaldi,19,1:46.578,106.578
787,42,max_verstappen,1,1:41.421,101.421
788,42,bottas,2,1:41.918,101.918
789,42,hamilton,3,1:41.611,101.611
790,42,albon,4,1:41.227,101.227
791,42,norris,5,1:42.647,102.647
792,42,sainz,6,1:42.524,102.524
793,42,ricciardo,7,1:43.286,103.286
794,42,gasly,8,1:43.545,103.545
795,42,stroll,9,1:44.870,104.87
796,42,ocon,10,1:43.130,103.13
797,42,kvyat,11,1:42.953,102.953
798,42,raikkonen,12,1:43.161,103.161
799,42,leclerc,13,1:43.158,103.158
800,42,vettel,14,1:42.342,102.342
801,42,russell,15,1:45.804,105.804
802,42,giovinazzi,16,1:42.495,102.495
803,42,latifi,17,1:42.742,102.742
804,42,kevin_magnussen,18,1:45.234,105.234
805,42,pietro_fittipaldi,19,1:44.528,104.528
806,43,max_verstappen,1,1:41.569,101.569
807,43,bottas,2,1:41.893,101.893
808,43,hamilton,3,1:42.168,102.168
809,43,albon,4,1:41.443,101.443
810,43,norris,5,1:42.613,102.613
811,43,sainz,6,1:43.127,103.127
812,43,ricciardo,7,1:42.238,102.238
813,43,gasly,8,1:43.167,103.167
814,43,stroll,9,1:42.858,102.858
815,43,ocon,10,1:42.960,102.96
816,43,kvyat,11,1:43.148,103.148
817,43,raikkonen,12,1:42.936,102.936
818,43,leclerc,13,1:43.088,103.088
819,43,vettel,14,1:42.212,102.212
820,43,russell,15,1:44.064,104.064
821,43,giovinazzi,16,1:42.523,102.523
822,43,latifi,17,1:42.592,102.592
823,43,kevin_magnussen,18,1:46.250,106.25
824,43,pietro_fittipaldi,19,1:46.408,106.408
825,44,max_verstappen,1,1:41.546,101.546
826,44,bottas,2,1:42.318,102.318
827,44,hamilton,3,1:41.630,101.63
828,44,albon,4,1:41.674,101.674
829,44,norris,5,1:42.660,102.66
830,44,sainz,6,1:42.325,102.325
831,44,ricciardo,7,1:40.958,100.958
832,44,gasly,8,1:43.000,103.0
833,44,stroll,9,1:42.754,102.754
834,44,ocon,10,1:43.001,103.001
835,44,kvyat,11,1:43.165,103.165
836,44,raikkonen,12,1:42.854,102.854
837,44,leclerc,13,1:42.796,102.796
838,44,vettel,14,1:42.332,102.332
839,44,russell,15,1:43.610,103.61
840,44,giovinazzi,16,1:43.060,103.06
841,44,latifi,17,1:42.638,102.638
842,44,kevin_magnussen,18,1:46.581,106.581
843,44,pietro_fittipaldi,19,1:45.472,105.472
844,45,max_verstappen,1,1:41.621,101.621
845,45,bottas,2,1:42.512,102.512
846,45,hamilton,3,1:41.650,101.65
847,45,albon,4,1:41.353,101.353
848,45,norris,5,1:42.449,102.449
849,45,sainz,6,1:42.375,102.375
850,45,ricciardo,7,1:42.071,102.071
851,45,gasly,8,1:42.486,102.486
852,45,stroll,9,1:42.845,102.845
853,45,ocon,10,1:42.964,102.964
854,45,kvyat,11,1:43.118,103.118
855,45,raikkonen,12,1:42.657,102.657
856,45,leclerc,13,1:42.825,102.825
857,45,vettel,14,1:44.710,104.71
858,45,russell,15,1:43.548,103.548
859,45,giovinazzi,16,1:47.125,107.125
860,45,latifi,17,1:42.938,102.938
861,45,kevin_magnussen,18,1:46.904,106.904
862,45,pietro_fittipaldi,19,1:45.819,105.819
863,46,max_verstappen,1,1:41.367,101.367
864,46,bottas,2,1:42.272,102.272
865,46,hamilton,3,1:42.431,102.431
866,46,albon,4,1:41.655,101.655
867,46,norris,5,1:42.644,102.644
868,46,sainz,6,1:42.396,102.396
869,46,ricciardo,7,1:41.906,101.906
870,46,gasly,8,1:42.797,102.797
871,46,stroll,9,1:42.971,102.971
872,46,ocon,10,1:42.931,102.931
873,46,kvyat,11,1:42.788,102.788
874,46,raikkonen,12,1:42.869,102.869
875,46,leclerc,13,1:43.260,103.26
876,46,vettel,14,1:43.384,103.384
877,46,russell,15,1:47.859,107.859
878,46,giovinazzi,16,1:43.064,103.064
879,46,latifi,17,1:42.591,102.591
880,46,kevin_magnussen,18,1:48.054,108.054
881,46,pietro_fittipaldi,19,1:45.552,105.552
882,47,max_verstappen,1,1:41.650,101.65
883,47,bottas,2,1:42.445,102.445
884,47,hamilton,3,1:42.097,102.097
885,47,albon,4,1:41.532,101.532
886,47,norris,5,1:42.686,102.686
887,47,sainz,6,1:42.574,102.574
888,47,ricciardo,7,1:42.037,102.037
889,47,gasly,8,1:42.615,102.615
890,47,stroll,9,1:42.968,102.968
891,47,ocon,10,1:42.894,102.894
892,47,kvyat,11,1:42.704,102.704
893,47,raikkonen,12,1:42.414,102.414
894,47,leclerc,13,1:42.777,102.777
895,47,vettel,14,1:43.276,103.276
896,47,russell,15,1:43.694,103.694
897,47,giovinazzi,16,1:43.468,103.468
898,47,latifi,17,1:42.607,102.607
899,47,kevin_magnussen,18,1:49.526,109.526
900,47,pietro_fittipaldi,19,1:47.183,107.183
901,48,max_verstappen,1,1:41.982,101.982
902,48,bottas,2,1:41.569,101.569
903,48,hamilton,3,1:41.794,101.794
904,48,albon,4,1:41.588,101.588
905,48,norris,5,1:42.561,102.561
906,48,sainz,6,1:41.947,101.947
907,48,ricciardo,7,1:41.742,101.742
908,48,gasly,8,1:42.962,102.962
909,48,stroll,9,1:42.892,102.892
910,48,ocon,10,1:42.932,102.932
911,48,kvyat,11,1:42.985,102.985
912,48,raikkonen,12,1:42.891,102.891
913,48,leclerc,13,1:45.367,105.367
914,48,vettel,14,1:43.273,103.273
915,48,russell,15,1:45.775,105.775
916,48,giovinazzi,16,1:45.728,105.728
917,48,latifi,17,1:42.842,102.842
918,48,pietro_fittipaldi,18,1:48.619,108.619
919,48,kevin_magnussen,19,2:03.079,123.079
920,49,max_verstappen,1,1:42.033,102.033
921,49,bottas,2,1:41.369,101.369
922,49,hamilton,3,1:42.482,102.482
923,49,albon,4,1:41.753,101.753
924,49,norris,5,1:42.495,102.495
925,49,sainz,6,1:42.393,102.393
926,49,ricciardo,7,1:41.920,101.92
927,49,gasly,8,1:43.423,103.423
928,49,stroll,9,1:43.436,103.436
929,49,ocon,10,1:42.950,102.95
930,49,kvyat,11,1:43.119,103.119
931,49,raikkonen,12,1:42.567,102.567
932,49,leclerc,13,1:43.126,103.126
933,49,vettel,14,1:43.605,103.605
934,49,russell,15,1:43.356,103.356
935,49,giovinazzi,16,1:43.708,103.708
936,49,latifi,17,1:42.497,102.497
937,49,kevin_magnussen,18,1:42.005,102.005
938,49,pietro_fittipaldi,19,2:04.670,124.67
939,50,max_verstappen,1,1:41.805,101.805
940,50,bottas,2,1:41.722,101.722
941,50,hamilton,3,1:41.979,101.979
942,50,albon,4,1:41.968,101.968
943,50,norris,5,1:42.314,102.314
944,50,sainz,6,1:42.295,102.295
945,50,ricciardo,7,1:41.860,101.86
946,50,gasly,8,1:42.964,102.964
947,50,stroll,9,1:43.269,103.269
948,50,ocon,10,1:42.947,102.947
949,50,kvyat,11,1:42.966,102.966
950,50,raikkonen,12,1:42.281,102.281
951,50,leclerc,13,1:42.945,102.945
952,50,vettel,14,1:43.654,103.654
953,50,russell,15,1:43.641,103.641
954,50,giovinazzi,16,1:43.496,103.496
955,50,latifi,17,1:42.958,102.958
956,50,kevin_magnussen,18,1:41.999,101.999
957,50,pietro_fittipaldi,19,1:41.707,101.707
958,51,max_verstappen,1,1:41.838,101.838
959,51,bottas,2,1:42.161,102.161
960,51,hamilton,3,1:42.282,102.282
961,51,albon,4,1:41.583,101.583
962,51,norris,5,1:42.294,102.294
963,51,sainz,6,1:42.255,102.255
964,51,ricciardo,7,1:41.713,101.713
965,51,gasly,8,1:42.755,102.755
966,51,stroll,9,1:43.095,103.095
967,51,ocon,10,1:42.911,102.911
968,51,kvyat,11,1:42.921,102.921
969,51,raikkonen,12,1:44.854,104.854
970,51,leclerc,13,1:42.993,102.993
971,51,vettel,14,1:45.724,105.724
972,51,russell,15,1:43.359,103.359
973,51,giovinazzi,16,1:43.674,103.674
974,51,latifi,17,1:43.368,103.368
975,51,kevin_magnussen,18,1:42.027,102.027
976,51,pietro_fittipaldi,19,1:42.828,102.828
977,52,max_verstappen,1,1:41.497,101.497
978,52,bottas,2,1:41.823,101.823
979,52,hamilton,3,1:42.652,102.652
980,52,albon,4,1:41.636,101.636
981,52,norris,5,1:42.069,102.069
982,52,sainz,6,1:42.344,102.344
983,52,ricciardo,7,1:41.106,101.106
984,52,gasly,8,1:42.735,102.735
985,52,stroll,9,1:43.174,103.174
986,52,ocon,10,1:43.180,103.18
987,52,kvyat,11,1:43.045,103.045
988,52,raikkonen,12,1:42.403,102.403
989,52,leclerc,13,1:43.120,103.12
990,52,vettel,14,1:44.527,104.527
991,52,russell,15,1:44.641,104.641
992,52,giovinazzi,16,1:44.230,104.23
993,52,latifi,17,1:42.959,102.959
994,52,kevin_magnussen,18,1:42.165,102.165
995,52,pietro_fittipaldi,19,1:43.272,103.272
996,53,max_verstappen,1,1:41.596,101.596
997,53,bottas,2,1:43.072,103.072
998,53,hamilton,3,1:42.992,102.992
999,53,albon,4,1:42.009,102.009
1000,53,norris,5,1:41.964,101.964
1001,53,sainz,6,1:42.426,102.426
1002,53,ricciardo,7,1:42.566,102.566
1003,53,gasly,8,1:42.474,102.474
1004,53,stroll,9,1:43.325,103.325
1005,53,ocon,10,1:43.077,103.077
1006,53,kvyat,11,1:43.437,103.437
1007,53,raikkonen,12,1:42.148,102.148
1008,53,leclerc,13,1:46.365,106.365
1009,53,vettel,14,1:46.875,106.875
1010,53,russell,15,1:43.671,103.671
1011,53,giovinazzi,16,1:43.876,103.876
1012,53,latifi,17,1:43.087,103.087
1013,53,kevin_magnussen,18,1:42.609,102.609
1014,53,pietro_fittipaldi,19,1:42.650,102.65
1015,54,max_verstappen,1,1:41.626,101.626
1016,54,bottas,2,1:41.906,101.906
1017,54,hamilton,3,1:42.083,102.083
1018,54,albon,4,1:41.674,101.674
1019,54,norris,5,1:42.312,102.312
1020,54,sainz,6,1:42.379,102.379
1021,54,ricciardo,7,1:41.411,101.411
1022,54,gasly,8,1:42.549,102.549
1023,54,stroll,9,1:43.557,103.557
1024,54,ocon,10,1:43.459,103.459
1025,54,kvyat,11,1:46.316,106.316
1026,54,raikkonen,12,1:44.382,104.382
1027,54,leclerc,13,1:44.464,104.464
1028,54,vettel,14,1:43.467,103.467
1029,54,russell,15,1:43.328,103.328
1030,54,giovinazzi,16,1:43.553,103.553
1031,54,latifi,17,1:43.294,103.294
1032,54,kevin_magnussen,18,1:42.913,102.913
1033,55,max_verstappen,1,1:42.182,102.182
1034,55,bottas,2,1:44.823,104.823
1035,55,hamilton,3,1:42.665,102.665
1036,55,albon,4,1:42.354,102.354
1037,55,norris,5,1:42.315,102.315
1038,55,sainz,6,1:42.479,102.479
1039,55,ricciardo,7,1:40.926,100.926
1040,55,gasly,8,1:42.626,102.626
1041,55,ocon,9,1:43.285,103.285
1042,55,stroll,10,1:45.894,105.894
