,ID,constructors,times_2019,times_2020,diff_sec,avg_per_round_2019,avg_per_round_2020,diff_per_round
1,1,Mercedes,1747.8949999999998,1389.6549999999993,358.24000000000046,83.23309523809523,81.74441176470584,1.4886834733893863
3,3,Red Bull,1756.2739999999994,1393.8870000000006,362.3869999999988,83.63209523809522,81.99335294117651,1.638742296918707
7,7,Racing Point,1785.188,1401.51,383.6780000000001,85.00895238095238,82.44176470588235,2.5671876750700307
8,8,Renault,1777.8379999999993,1406.6770000000001,371.16099999999915,84.65895238095234,82.74570588235295,1.913246498599392
5,5,McLaren,1773.0649999999994,1408.7959999999994,364.269,84.43166666666664,82.87035294117644,1.5613137254902085
2,2,Ferrari,1750.2220000000002,1411.5550000000005,338.6669999999997,83.34390476190477,83.03264705882356,0.3112577030812105
9,9,Toro Rosso / AT,1782.9240000000002,1416.026,366.89800000000014,84.90114285714287,83.29564705882353,1.605495798319339
6,6,Alfa Romeo,1783.0620000000001,1426.6990000000005,356.3629999999996,84.90771428571429,83.92347058823532,0.9842436974789734
0,0,Williams,1819.807,1441.371,378.4359999999999,86.65747619047619,84.78652941176472,1.8709467787114704
4,4,Haas F1 Team,1782.1589999999999,1441.835,340.32399999999984,84.86471428571429,84.81382352941176,0.05089075630252182
