constructors,times
Williams,1819.8070000000002
Mercedes,1747.8949999999998
Ferrari,1750.2220000000002
Red Bull,1756.2739999999997
Haas F1 Team,1782.1589999999999
McLaren,1773.0649999999998
Alfa Romeo,1783.0620000000001
Racing Point,1785.188
Renault,1777.8379999999997
Toro Rosso,1782.9240000000002
