lap,position,time,year,name,code
51,14,1:33.374,2020,Nürburgring,RAI
1,1,1:33.510,2020,Nürburgring,BOT
2,1,1:32.480,2020,Nürburgring,BOT
3,1,1:32.211,2020,Nürburgring,BOT
4,1,1:32.242,2020,Nürburgring,BOT
5,1,1:32.063,2020,Nürburgring,BOT
6,1,1:31.980,2020,Nürburgring,BOT
7,1,1:32.019,2020,Nürburgring,BOT
8,1,1:31.884,2020,Nürburgring,BOT
9,1,1:32.125,2020,Nürburgring,BOT
10,1,1:31.886,2020,Nürburgring,BOT
11,1,1:31.889,2020,Nürburgring,BOT
12,1,1:32.325,2020,Nürburgring,BOT
13,3,1:39.536,2020,Nürburgring,BOT
14,4,1:51.656,2020,Nürburgring,BOT
15,3,1:31.995,2020,Nürburgring,BOT
16,3,1:51.089,2020,Nürburgring,BOT
17,5,1:42.801,2020,Nürburgring,BOT
18,12,1:56.086,2020,Nürburgring,BOT
1,2,1:35.032,2020,Nürburgring,HAM
2,2,1:32.410,2020,Nürburgring,HAM
3,2,1:32.165,2020,Nürburgring,HAM
4,2,1:32.543,2020,Nürburgring,HAM
5,2,1:32.153,2020,Nürburgring,HAM
6,2,1:31.951,2020,Nürburgring,HAM
7,2,1:32.101,2020,Nürburgring,HAM
8,2,1:31.622,2020,Nürburgring,HAM
9,2,1:31.835,2020,Nürburgring,HAM
10,2,1:31.996,2020,Nürburgring,HAM
11,2,1:31.853,2020,Nürburgring,HAM
12,2,1:32.072,2020,Nürburgring,HAM
13,1,1:31.704,2020,Nürburgring,HAM
14,1,1:31.781,2020,Nürburgring,HAM
15,1,1:31.740,2020,Nürburgring,HAM
16,1,1:43.842,2020,Nürburgring,HAM
17,1,1:56.488,2020,Nürburgring,HAM
18,1,1:30.795,2020,Nürburgring,HAM
19,1,1:30.454,2020,Nürburgring,HAM
20,1,1:30.566,2020,Nürburgring,HAM
21,1,1:30.109,2020,Nürburgring,HAM
22,1,1:30.424,2020,Nürburgring,HAM
23,1,1:30.358,2020,Nürburgring,HAM
24,1,1:30.522,2020,Nürburgring,HAM
25,1,1:30.574,2020,Nürburgring,HAM
26,1,1:30.510,2020,Nürburgring,HAM
27,1,1:30.753,2020,Nürburgring,HAM
28,1,1:31.157,2020,Nürburgring,HAM
29,1,1:30.980,2020,Nürburgring,HAM
30,1,1:30.701,2020,Nürburgring,HAM
31,1,1:31.095,2020,Nürburgring,HAM
32,1,1:31.550,2020,Nürburgring,HAM
33,1,1:31.108,2020,Nürburgring,HAM
34,1,1:30.704,2020,Nürburgring,HAM
35,1,1:30.701,2020,Nürburgring,HAM
36,1,1:30.841,2020,Nürburgring,HAM
37,1,1:31.027,2020,Nürburgring,HAM
38,1,1:31.023,2020,Nürburgring,HAM
39,1,1:30.651,2020,Nürburgring,HAM
40,1,1:30.461,2020,Nürburgring,HAM
41,1,1:30.704,2020,Nürburgring,HAM
42,1,1:30.667,2020,Nürburgring,HAM
43,1,1:30.463,2020,Nürburgring,HAM
44,1,1:30.448,2020,Nürburgring,HAM
45,1,1:46.683,2020,Nürburgring,HAM
46,1,2:40.745,2020,Nürburgring,HAM
47,1,2:41.592,2020,Nürburgring,HAM
48,1,2:19.140,2020,Nürburgring,HAM
49,1,2:30.336,2020,Nürburgring,HAM
50,1,1:30.442,2020,Nürburgring,HAM
51,1,1:28.487,2020,Nürburgring,HAM
52,1,1:28.335,2020,Nürburgring,HAM
53,1,1:28.257,2020,Nürburgring,HAM
54,1,1:29.293,2020,Nürburgring,HAM
55,1,1:29.047,2020,Nürburgring,HAM
56,1,1:29.226,2020,Nürburgring,HAM
57,1,1:29.241,2020,Nürburgring,HAM
58,1,1:28.145,2020,Nürburgring,HAM
59,1,1:29.067,2020,Nürburgring,HAM
60,1,1:28.971,2020,Nürburgring,HAM
1,3,1:35.799,2020,Nürburgring,VER
2,3,1:32.647,2020,Nürburgring,VER
3,3,1:32.588,2020,Nürburgring,VER
4,3,1:32.525,2020,Nürburgring,VER
5,3,1:32.335,2020,Nürburgring,VER
6,3,1:32.108,2020,Nürburgring,VER
7,3,1:31.938,2020,Nürburgring,VER
8,3,1:31.933,2020,Nürburgring,VER
9,3,1:32.009,2020,Nürburgring,VER
10,3,1:32.264,2020,Nürburgring,VER
11,3,1:31.927,2020,Nürburgring,VER
12,3,1:31.822,2020,Nürburgring,VER
13,2,1:33.148,2020,Nürburgring,VER
14,2,1:32.446,2020,Nürburgring,VER
15,2,1:31.817,2020,Nürburgring,VER
16,2,1:44.836,2020,Nürburgring,VER
17,2,1:52.775,2020,Nürburgring,VER
18,2,1:31.051,2020,Nürburgring,VER
19,2,1:31.150,2020,Nürburgring,VER
20,2,1:30.439,2020,Nürburgring,VER
21,2,1:30.516,2020,Nürburgring,VER
22,2,1:30.777,2020,Nürburgring,VER
23,2,1:30.627,2020,Nürburgring,VER
24,2,1:30.746,2020,Nürburgring,VER
25,2,1:30.939,2020,Nürburgring,VER
26,2,1:30.817,2020,Nürburgring,VER
27,2,1:30.836,2020,Nürburgring,VER
28,2,1:31.086,2020,Nürburgring,VER
29,2,1:31.324,2020,Nürburgring,VER
30,2,1:31.569,2020,Nürburgring,VER
31,2,1:31.565,2020,Nürburgring,VER
32,2,1:30.923,2020,Nürburgring,VER
33,2,1:31.096,2020,Nürburgring,VER
34,2,1:31.836,2020,Nürburgring,VER
35,2,1:32.035,2020,Nürburgring,VER
36,2,1:31.172,2020,Nürburgring,VER
37,2,1:30.919,2020,Nürburgring,VER
38,2,1:31.267,2020,Nürburgring,VER
39,2,1:31.100,2020,Nürburgring,VER
40,2,1:31.006,2020,Nürburgring,VER
41,2,1:31.107,2020,Nürburgring,VER
42,2,1:31.110,2020,Nürburgring,VER
43,2,1:30.825,2020,Nürburgring,VER
44,2,1:30.988,2020,Nürburgring,VER
45,2,1:47.798,2020,Nürburgring,VER
46,2,2:31.729,2020,Nürburgring,VER
47,2,2:39.467,2020,Nürburgring,VER
48,2,2:19.129,2020,Nürburgring,VER
49,2,2:30.327,2020,Nürburgring,VER
50,2,1:31.024,2020,Nürburgring,VER
51,2,1:28.744,2020,Nürburgring,VER
52,2,1:29.058,2020,Nürburgring,VER
53,2,1:28.854,2020,Nürburgring,VER
54,2,1:29.235,2020,Nürburgring,VER
55,2,1:28.709,2020,Nürburgring,VER
56,2,1:29.118,2020,Nürburgring,VER
57,2,1:29.460,2020,Nürburgring,VER
58,2,1:28.994,2020,Nürburgring,VER
59,2,1:30.583,2020,Nürburgring,VER
60,2,1:28.139,2020,Nürburgring,VER
1,4,1:37.473,2020,Nürburgring,LEC
2,4,1:35.048,2020,Nürburgring,LEC
3,4,1:34.182,2020,Nürburgring,LEC
4,4,1:34.062,2020,Nürburgring,LEC
5,4,1:34.072,2020,Nürburgring,LEC
6,4,1:34.520,2020,Nürburgring,LEC
7,4,1:33.989,2020,Nürburgring,LEC
8,4,1:34.256,2020,Nürburgring,LEC
9,5,1:35.537,2020,Nürburgring,LEC
10,8,1:37.859,2020,Nürburgring,LEC
11,19,1:53.564,2020,Nürburgring,LEC
12,17,1:33.245,2020,Nürburgring,LEC
13,16,1:34.114,2020,Nürburgring,LEC
14,15,1:34.070,2020,Nürburgring,LEC
15,14,1:32.525,2020,Nürburgring,LEC
16,12,1:51.567,2020,Nürburgring,LEC
17,12,1:34.043,2020,Nürburgring,LEC
18,11,1:33.865,2020,Nürburgring,LEC
19,11,1:33.751,2020,Nürburgring,LEC
20,10,1:32.808,2020,Nürburgring,LEC
21,10,1:32.832,2020,Nürburgring,LEC
22,9,1:32.911,2020,Nürburgring,LEC
23,8,1:33.209,2020,Nürburgring,LEC
24,8,1:32.663,2020,Nürburgring,LEC
25,8,1:32.677,2020,Nürburgring,LEC
26,8,1:33.224,2020,Nürburgring,LEC
27,8,1:33.115,2020,Nürburgring,LEC
28,7,1:32.636,2020,Nürburgring,LEC
29,5,1:33.197,2020,Nürburgring,LEC
30,4,1:32.831,2020,Nürburgring,LEC
31,4,1:32.819,2020,Nürburgring,LEC
32,4,1:32.511,2020,Nürburgring,LEC
33,5,1:34.189,2020,Nürburgring,LEC
34,5,1:33.464,2020,Nürburgring,LEC
35,6,1:35.955,2020,Nürburgring,LEC
36,10,1:53.802,2020,Nürburgring,LEC
37,9,1:31.604,2020,Nürburgring,LEC
38,8,1:31.443,2020,Nürburgring,LEC
39,7,1:31.198,2020,Nürburgring,LEC
40,7,1:31.138,2020,Nürburgring,LEC
41,7,1:30.863,2020,Nürburgring,LEC
42,7,1:31.010,2020,Nürburgring,LEC
43,6,1:31.029,2020,Nürburgring,LEC
44,6,1:52.710,2020,Nürburgring,LEC
45,6,2:13.677,2020,Nürburgring,LEC
46,6,2:21.611,2020,Nürburgring,LEC
47,6,1:35.301,2020,Nürburgring,LEC
48,6,1:32.346,2020,Nürburgring,LEC
49,6,2:03.404,2020,Nürburgring,LEC
50,6,1:33.555,2020,Nürburgring,LEC
51,7,1:32.461,2020,Nürburgring,LEC
52,7,1:31.142,2020,Nürburgring,LEC
53,7,1:30.863,2020,Nürburgring,LEC
54,7,1:30.712,2020,Nürburgring,LEC
55,7,1:31.038,2020,Nürburgring,LEC
56,7,1:31.246,2020,Nürburgring,LEC
57,7,1:31.365,2020,Nürburgring,LEC
58,7,1:31.017,2020,Nürburgring,LEC
59,7,1:31.110,2020,Nürburgring,LEC
60,7,1:32.027,2020,Nürburgring,LEC
1,5,1:38.224,2020,Nürburgring,RIC
2,5,1:34.973,2020,Nürburgring,RIC
3,5,1:34.134,2020,Nürburgring,RIC
4,5,1:34.123,2020,Nürburgring,RIC
5,5,1:33.912,2020,Nürburgring,RIC
6,5,1:34.611,2020,Nürburgring,RIC
7,5,1:33.956,2020,Nürburgring,RIC
8,5,1:34.077,2020,Nürburgring,RIC
9,4,1:33.194,2020,Nürburgring,RIC
10,4,1:33.206,2020,Nürburgring,RIC
11,4,1:33.080,2020,Nürburgring,RIC
12,4,1:33.102,2020,Nürburgring,RIC
13,4,1:33.023,2020,Nürburgring,RIC
14,3,1:33.280,2020,Nürburgring,RIC
15,4,1:33.935,2020,Nürburgring,RIC
16,4,1:54.702,2020,Nürburgring,RIC
17,9,1:53.362,2020,Nürburgring,RIC
18,7,1:32.534,2020,Nürburgring,RIC
19,7,1:32.255,2020,Nürburgring,RIC
20,7,1:32.352,2020,Nürburgring,RIC
21,7,1:32.380,2020,Nürburgring,RIC
22,6,1:32.690,2020,Nürburgring,RIC
23,6,1:32.428,2020,Nürburgring,RIC
24,6,1:32.421,2020,Nürburgring,RIC
25,6,1:32.486,2020,Nürburgring,RIC
26,6,1:32.478,2020,Nürburgring,RIC
27,6,1:32.528,2020,Nürburgring,RIC
28,5,1:32.906,2020,Nürburgring,RIC
29,4,1:32.090,2020,Nürburgring,RIC
30,3,1:32.235,2020,Nürburgring,RIC
31,3,1:32.116,2020,Nürburgring,RIC
32,3,1:31.852,2020,Nürburgring,RIC
33,3,1:31.806,2020,Nürburgring,RIC
34,3,1:31.972,2020,Nürburgring,RIC
35,3,1:33.069,2020,Nürburgring,RIC
36,3,1:31.584,2020,Nürburgring,RIC
37,3,1:31.478,2020,Nürburgring,RIC
38,3,1:31.852,2020,Nürburgring,RIC
39,3,1:31.494,2020,Nürburgring,RIC
40,3,1:31.605,2020,Nürburgring,RIC
41,3,1:31.388,2020,Nürburgring,RIC
42,3,1:31.096,2020,Nürburgring,RIC
43,3,1:31.447,2020,Nürburgring,RIC
44,3,1:37.214,2020,Nürburgring,RIC
45,4,2:16.010,2020,Nürburgring,RIC
46,3,1:51.967,2020,Nürburgring,RIC
47,3,1:46.951,2020,Nürburgring,RIC
48,3,2:17.477,2020,Nürburgring,RIC
49,3,2:29.350,2020,Nürburgring,RIC
50,3,1:31.905,2020,Nürburgring,RIC
51,3,1:30.286,2020,Nürburgring,RIC
52,3,1:29.874,2020,Nürburgring,RIC
53,3,1:29.584,2020,Nürburgring,RIC
54,3,1:29.969,2020,Nürburgring,RIC
55,3,1:30.251,2020,Nürburgring,RIC
56,3,1:30.159,2020,Nürburgring,RIC
57,3,1:30.009,2020,Nürburgring,RIC
58,3,1:29.789,2020,Nürburgring,RIC
59,3,1:29.701,2020,Nürburgring,RIC
60,3,1:30.322,2020,Nürburgring,RIC
1,6,1:39.301,2020,Nürburgring,ALB
2,6,1:34.815,2020,Nürburgring,ALB
3,6,1:34.299,2020,Nürburgring,ALB
4,6,1:34.331,2020,Nürburgring,ALB
5,6,1:34.194,2020,Nürburgring,ALB
6,6,1:34.119,2020,Nürburgring,ALB
7,8,1:37.230,2020,Nürburgring,ALB
8,20,1:52.682,2020,Nürburgring,ALB
9,20,1:32.330,2020,Nürburgring,ALB
10,19,1:34.881,2020,Nürburgring,ALB
11,15,1:32.916,2020,Nürburgring,ALB
12,14,1:32.626,2020,Nürburgring,ALB
13,12,1:32.477,2020,Nürburgring,ALB
14,12,1:33.516,2020,Nürburgring,ALB
15,11,1:35.335,2020,Nürburgring,ALB
16,10,1:52.436,2020,Nürburgring,ALB
17,10,1:33.090,2020,Nürburgring,ALB
18,9,1:33.005,2020,Nürburgring,ALB
19,9,1:33.422,2020,Nürburgring,ALB
20,9,1:33.510,2020,Nürburgring,ALB
21,9,1:33.321,2020,Nürburgring,ALB
22,8,1:34.266,2020,Nürburgring,ALB
23,9,1:38.433,2020,Nürburgring,ALB
1,7,1:40.311,2020,Nürburgring,NOR
2,7,1:34.983,2020,Nürburgring,NOR
3,7,1:34.416,2020,Nürburgring,NOR
4,7,1:34.419,2020,Nürburgring,NOR
5,7,1:33.941,2020,Nürburgring,NOR
6,7,1:34.028,2020,Nürburgring,NOR
7,6,1:34.072,2020,Nürburgring,NOR
8,6,1:33.378,2020,Nürburgring,NOR
9,6,1:34.349,2020,Nürburgring,NOR
10,5,1:34.599,2020,Nürburgring,NOR
11,5,1:32.959,2020,Nürburgring,NOR
12,5,1:32.965,2020,Nürburgring,NOR
13,5,1:32.770,2020,Nürburgring,NOR
14,5,1:33.481,2020,Nürburgring,NOR
15,5,1:33.171,2020,Nürburgring,NOR
16,5,1:51.919,2020,Nürburgring,NOR
17,3,1:35.193,2020,Nürburgring,NOR
18,3,1:33.452,2020,Nürburgring,NOR
19,3,1:33.264,2020,Nürburgring,NOR
20,3,1:32.688,2020,Nürburgring,NOR
21,3,1:32.683,2020,Nürburgring,NOR
22,3,1:32.864,2020,Nürburgring,NOR
23,3,1:32.785,2020,Nürburgring,NOR
24,3,1:32.834,2020,Nürburgring,NOR
25,3,1:33.848,2020,Nürburgring,NOR
26,3,1:33.974,2020,Nürburgring,NOR
27,3,1:33.757,2020,Nürburgring,NOR
28,3,1:33.879,2020,Nürburgring,NOR
29,3,1:37.365,2020,Nürburgring,NOR
30,6,1:52.826,2020,Nürburgring,NOR
31,6,1:33.189,2020,Nürburgring,NOR
32,6,1:32.787,2020,Nürburgring,NOR
33,7,1:34.324,2020,Nürburgring,NOR
34,7,1:32.877,2020,Nürburgring,NOR
35,7,1:32.556,2020,Nürburgring,NOR
36,6,1:32.577,2020,Nürburgring,NOR
37,6,1:32.521,2020,Nürburgring,NOR
38,6,1:35.205,2020,Nürburgring,NOR
39,6,1:32.898,2020,Nürburgring,NOR
40,6,1:32.328,2020,Nürburgring,NOR
41,6,1:34.616,2020,Nürburgring,NOR
42,6,1:32.500,2020,Nürburgring,NOR
1,8,1:40.884,2020,Nürburgring,PER
2,8,1:35.329,2020,Nürburgring,PER
3,8,1:34.201,2020,Nürburgring,PER
4,8,1:34.559,2020,Nürburgring,PER
5,8,1:33.973,2020,Nürburgring,PER
6,8,1:34.565,2020,Nürburgring,PER
7,7,1:33.606,2020,Nürburgring,PER
8,7,1:33.361,2020,Nürburgring,PER
9,7,1:33.920,2020,Nürburgring,PER
10,6,1:34.858,2020,Nürburgring,PER
11,6,1:33.522,2020,Nürburgring,PER
12,6,1:33.274,2020,Nürburgring,PER
13,6,1:32.944,2020,Nürburgring,PER
14,6,1:33.428,2020,Nürburgring,PER
15,6,1:33.200,2020,Nürburgring,PER
16,6,1:51.293,2020,Nürburgring,PER
17,4,1:34.598,2020,Nürburgring,PER
18,4,1:33.978,2020,Nürburgring,PER
19,4,1:33.705,2020,Nürburgring,PER
20,4,1:33.275,2020,Nürburgring,PER
21,4,1:32.848,2020,Nürburgring,PER
22,4,1:33.121,2020,Nürburgring,PER
23,4,1:33.189,2020,Nürburgring,PER
24,4,1:33.106,2020,Nürburgring,PER
25,4,1:32.970,2020,Nürburgring,PER
26,4,1:33.166,2020,Nürburgring,PER
27,4,1:33.640,2020,Nürburgring,PER
28,4,1:36.465,2020,Nürburgring,PER
29,6,1:53.285,2020,Nürburgring,PER
30,5,1:32.456,2020,Nürburgring,PER
31,5,1:31.438,2020,Nürburgring,PER
32,5,1:31.606,2020,Nürburgring,PER
33,4,1:33.307,2020,Nürburgring,PER
34,4,1:32.923,2020,Nürburgring,PER
35,4,1:31.264,2020,Nürburgring,PER
36,4,1:31.270,2020,Nürburgring,PER
37,4,1:31.011,2020,Nürburgring,PER
38,4,1:30.989,2020,Nürburgring,PER
39,4,1:30.575,2020,Nürburgring,PER
40,4,1:30.633,2020,Nürburgring,PER
41,4,1:30.757,2020,Nürburgring,PER
42,4,1:30.541,2020,Nürburgring,PER
43,4,1:30.476,2020,Nürburgring,PER
44,4,1:37.965,2020,Nürburgring,PER
45,3,2:03.507,2020,Nürburgring,PER
46,4,2:03.907,2020,Nürburgring,PER
47,4,1:42.868,2020,Nürburgring,PER
48,4,2:12.177,2020,Nürburgring,PER
49,4,2:28.904,2020,Nürburgring,PER
50,4,1:32.208,2020,Nürburgring,PER
51,4,1:30.471,2020,Nürburgring,PER
52,4,1:29.968,2020,Nürburgring,PER
53,4,1:30.056,2020,Nürburgring,PER
54,4,1:30.140,2020,Nürburgring,PER
55,4,1:30.235,2020,Nürburgring,PER
56,4,1:30.052,2020,Nürburgring,PER
57,4,1:29.896,2020,Nürburgring,PER
58,4,1:29.700,2020,Nürburgring,PER
59,4,1:29.981,2020,Nürburgring,PER
60,4,1:30.167,2020,Nürburgring,PER
1,9,1:41.472,2020,Nürburgring,OCO
2,9,1:35.440,2020,Nürburgring,OCO
3,9,1:34.611,2020,Nürburgring,OCO
4,9,1:34.531,2020,Nürburgring,OCO
5,9,1:34.339,2020,Nürburgring,OCO
6,9,1:34.363,2020,Nürburgring,OCO
7,9,1:34.191,2020,Nürburgring,OCO
8,8,1:33.668,2020,Nürburgring,OCO
9,8,1:33.777,2020,Nürburgring,OCO
10,7,1:34.029,2020,Nürburgring,OCO
11,7,1:34.006,2020,Nürburgring,OCO
12,7,1:33.745,2020,Nürburgring,OCO
13,7,1:33.556,2020,Nürburgring,OCO
14,7,1:33.903,2020,Nürburgring,OCO
15,7,1:33.716,2020,Nürburgring,OCO
16,7,1:53.347,2020,Nürburgring,OCO
17,6,1:34.557,2020,Nürburgring,OCO
18,5,1:33.735,2020,Nürburgring,OCO
19,5,1:33.819,2020,Nürburgring,OCO
20,5,1:33.252,2020,Nürburgring,OCO
21,5,1:33.189,2020,Nürburgring,OCO
22,10,1:49.095,2020,Nürburgring,OCO
1,10,1:41.860,2020,Nürburgring,SAI
2,10,1:35.666,2020,Nürburgring,SAI
3,10,1:34.708,2020,Nürburgring,SAI
4,10,1:34.421,2020,Nürburgring,SAI
5,10,1:34.438,2020,Nürburgring,SAI
6,10,1:34.479,2020,Nürburgring,SAI
7,10,1:34.853,2020,Nürburgring,SAI
8,9,1:33.822,2020,Nürburgring,SAI
9,9,1:33.853,2020,Nürburgring,SAI
10,9,1:33.909,2020,Nürburgring,SAI
11,8,1:33.822,2020,Nürburgring,SAI
12,8,1:34.212,2020,Nürburgring,SAI
13,8,1:33.853,2020,Nürburgring,SAI
14,8,1:33.822,2020,Nürburgring,SAI
15,8,1:33.905,2020,Nürburgring,SAI
16,8,1:53.450,2020,Nürburgring,SAI
17,7,1:33.909,2020,Nürburgring,SAI
18,6,1:34.114,2020,Nürburgring,SAI
19,6,1:33.501,2020,Nürburgring,SAI
20,6,1:33.636,2020,Nürburgring,SAI
21,6,1:33.362,2020,Nürburgring,SAI
22,5,1:33.173,2020,Nürburgring,SAI
23,5,1:33.213,2020,Nürburgring,SAI
24,5,1:32.989,2020,Nürburgring,SAI
25,5,1:32.983,2020,Nürburgring,SAI
26,5,1:33.066,2020,Nürburgring,SAI
27,5,1:33.150,2020,Nürburgring,SAI
28,6,1:36.843,2020,Nürburgring,SAI
29,8,1:51.219,2020,Nürburgring,SAI
30,7,1:31.569,2020,Nürburgring,SAI
31,7,1:31.566,2020,Nürburgring,SAI
32,7,1:31.260,2020,Nürburgring,SAI
33,6,1:31.544,2020,Nürburgring,SAI
34,6,1:31.951,2020,Nürburgring,SAI
35,5,1:32.095,2020,Nürburgring,SAI
36,5,1:31.046,2020,Nürburgring,SAI
37,5,1:31.506,2020,Nürburgring,SAI
38,5,1:31.532,2020,Nürburgring,SAI
39,5,1:31.146,2020,Nürburgring,SAI
40,5,1:31.529,2020,Nürburgring,SAI
41,5,1:31.188,2020,Nürburgring,SAI
42,5,1:31.016,2020,Nürburgring,SAI
43,5,1:31.179,2020,Nürburgring,SAI
44,5,1:44.127,2020,Nürburgring,SAI
45,5,2:10.382,2020,Nürburgring,SAI
46,5,1:46.219,2020,Nürburgring,SAI
47,5,1:42.354,2020,Nürburgring,SAI
48,5,2:11.886,2020,Nürburgring,SAI
49,5,2:28.050,2020,Nürburgring,SAI
50,5,1:32.413,2020,Nürburgring,SAI
51,5,1:30.893,2020,Nürburgring,SAI
52,5,1:30.442,2020,Nürburgring,SAI
53,5,1:30.129,2020,Nürburgring,SAI
54,5,1:30.231,2020,Nürburgring,SAI
55,5,1:30.838,2020,Nürburgring,SAI
56,5,1:30.794,2020,Nürburgring,SAI
57,5,1:30.702,2020,Nürburgring,SAI
58,5,1:30.504,2020,Nürburgring,SAI
59,5,1:30.607,2020,Nürburgring,SAI
60,5,1:30.617,2020,Nürburgring,SAI
1,11,1:42.829,2020,Nürburgring,GIO
2,11,1:36.200,2020,Nürburgring,GIO
3,11,1:35.082,2020,Nürburgring,GIO
4,11,1:34.460,2020,Nürburgring,GIO
5,11,1:34.619,2020,Nürburgring,GIO
6,11,1:34.576,2020,Nürburgring,GIO
7,11,1:34.664,2020,Nürburgring,GIO
8,10,1:34.683,2020,Nürburgring,GIO
9,10,1:34.666,2020,Nürburgring,GIO
10,10,1:34.525,2020,Nürburgring,GIO
11,9,1:35.056,2020,Nürburgring,GIO
12,9,1:35.121,2020,Nürburgring,GIO
13,9,1:35.304,2020,Nürburgring,GIO
14,10,1:36.438,2020,Nürburgring,GIO
15,13,1:39.023,2020,Nürburgring,GIO
16,15,2:07.802,2020,Nürburgring,GIO
17,14,1:34.880,2020,Nürburgring,GIO
18,14,1:33.250,2020,Nürburgring,GIO
19,13,1:32.881,2020,Nürburgring,GIO
20,13,1:32.838,2020,Nürburgring,GIO
21,13,1:32.943,2020,Nürburgring,GIO
22,13,1:32.860,2020,Nürburgring,GIO
23,12,1:32.862,2020,Nürburgring,GIO
24,11,1:32.894,2020,Nürburgring,GIO
25,11,1:32.749,2020,Nürburgring,GIO
26,11,1:33.006,2020,Nürburgring,GIO
27,11,1:32.719,2020,Nürburgring,GIO
28,10,1:33.048,2020,Nürburgring,GIO
29,10,1:33.421,2020,Nürburgring,GIO
30,9,1:33.553,2020,Nürburgring,GIO
31,8,1:33.137,2020,Nürburgring,GIO
32,8,1:35.105,2020,Nürburgring,GIO
33,8,1:33.545,2020,Nürburgring,GIO
34,8,1:35.648,2020,Nürburgring,GIO
35,8,1:33.277,2020,Nürburgring,GIO
36,9,1:36.293,2020,Nürburgring,GIO
37,13,1:52.520,2020,Nürburgring,GIO
38,13,1:30.909,2020,Nürburgring,GIO
39,13,1:31.241,2020,Nürburgring,GIO
40,13,1:31.064,2020,Nürburgring,GIO
41,13,1:31.283,2020,Nürburgring,GIO
42,12,1:31.368,2020,Nürburgring,GIO
43,11,1:31.516,2020,Nürburgring,GIO
44,11,1:56.253,2020,Nürburgring,GIO
45,10,2:01.243,2020,Nürburgring,GIO
46,10,2:16.759,2020,Nürburgring,GIO
47,10,1:39.337,2020,Nürburgring,GIO
48,10,1:32.557,2020,Nürburgring,GIO
49,10,1:53.802,2020,Nürburgring,GIO
50,10,1:34.486,2020,Nürburgring,GIO
51,10,1:32.804,2020,Nürburgring,GIO
52,10,1:32.388,2020,Nürburgring,GIO
53,10,1:32.017,2020,Nürburgring,GIO
54,10,1:31.801,2020,Nürburgring,GIO
55,10,1:31.701,2020,Nürburgring,GIO
56,10,1:31.778,2020,Nürburgring,GIO
57,10,1:31.779,2020,Nürburgring,GIO
58,10,1:31.544,2020,Nürburgring,GIO
59,10,1:31.689,2020,Nürburgring,GIO
60,10,1:31.880,2020,Nürburgring,GIO
1,12,1:43.478,2020,Nürburgring,VET
2,12,1:36.519,2020,Nürburgring,VET
3,12,1:35.150,2020,Nürburgring,VET
4,12,1:34.475,2020,Nürburgring,VET
5,12,1:34.130,2020,Nürburgring,VET
6,12,1:34.674,2020,Nürburgring,VET
7,12,1:34.556,2020,Nürburgring,VET
8,11,1:34.885,2020,Nürburgring,VET
9,11,1:34.528,2020,Nürburgring,VET
10,11,1:34.397,2020,Nürburgring,VET
11,16,1:45.077,2020,Nürburgring,VET
12,19,1:55.669,2020,Nürburgring,VET
13,18,1:32.744,2020,Nürburgring,VET
14,18,1:32.606,2020,Nürburgring,VET
15,16,1:36.807,2020,Nürburgring,VET
16,16,1:47.228,2020,Nürburgring,VET
17,15,1:34.183,2020,Nürburgring,VET
18,15,1:33.415,2020,Nürburgring,VET
19,14,1:33.053,2020,Nürburgring,VET
20,14,1:32.841,2020,Nürburgring,VET
21,14,1:33.005,2020,Nürburgring,VET
22,14,1:32.923,2020,Nürburgring,VET
23,13,1:32.946,2020,Nürburgring,VET
24,12,1:32.733,2020,Nürburgring,VET
25,12,1:32.824,2020,Nürburgring,VET
26,12,1:32.883,2020,Nürburgring,VET
27,12,1:32.819,2020,Nürburgring,VET
28,12,1:33.119,2020,Nürburgring,VET
29,11,1:33.214,2020,Nürburgring,VET
30,10,1:33.401,2020,Nürburgring,VET
31,9,1:34.780,2020,Nürburgring,VET
32,9,1:33.107,2020,Nürburgring,VET
33,9,1:35.019,2020,Nürburgring,VET
34,9,1:34.013,2020,Nürburgring,VET
35,9,1:33.346,2020,Nürburgring,VET
36,7,1:33.223,2020,Nürburgring,VET
37,7,1:32.398,2020,Nürburgring,VET
38,7,1:32.824,2020,Nürburgring,VET
39,8,1:34.385,2020,Nürburgring,VET
40,9,1:34.609,2020,Nürburgring,VET
41,12,1:37.666,2020,Nürburgring,VET
42,15,1:52.527,2020,Nürburgring,VET
43,14,1:30.408,2020,Nürburgring,VET
44,14,1:59.674,2020,Nürburgring,VET
45,13,2:01.398,2020,Nürburgring,VET
46,13,2:06.439,2020,Nürburgring,VET
47,13,1:37.913,2020,Nürburgring,VET
48,13,1:36.351,2020,Nürburgring,VET
49,13,1:46.945,2020,Nürburgring,VET
50,13,1:35.243,2020,Nürburgring,VET
51,13,1:33.265,2020,Nürburgring,VET
52,13,1:32.878,2020,Nürburgring,VET
53,12,1:30.973,2020,Nürburgring,VET
54,12,1:31.133,2020,Nürburgring,VET
55,11,1:32.093,2020,Nürburgring,VET
56,11,1:31.356,2020,Nürburgring,VET
57,11,1:31.443,2020,Nürburgring,VET
58,11,1:31.170,2020,Nürburgring,VET
59,11,1:31.707,2020,Nürburgring,VET
60,11,1:31.883,2020,Nürburgring,VET
1,13,1:43.776,2020,Nürburgring,GAS
2,14,1:37.911,2020,Nürburgring,GAS
3,14,1:35.490,2020,Nürburgring,GAS
4,14,1:34.495,2020,Nürburgring,GAS
5,14,1:34.167,2020,Nürburgring,GAS
6,14,1:34.393,2020,Nürburgring,GAS
7,14,1:34.333,2020,Nürburgring,GAS
8,13,1:34.717,2020,Nürburgring,GAS
9,13,1:34.719,2020,Nürburgring,GAS
10,13,1:34.817,2020,Nürburgring,GAS
11,10,1:35.552,2020,Nürburgring,GAS
12,10,1:33.697,2020,Nürburgring,GAS
13,10,1:34.160,2020,Nürburgring,GAS
14,9,1:33.232,2020,Nürburgring,GAS
15,9,1:33.644,2020,Nürburgring,GAS
16,9,1:53.692,2020,Nürburgring,GAS
17,8,1:35.016,2020,Nürburgring,GAS
18,8,1:34.324,2020,Nürburgring,GAS
19,8,1:34.129,2020,Nürburgring,GAS
20,8,1:33.506,2020,Nürburgring,GAS
21,8,1:33.411,2020,Nürburgring,GAS
22,7,1:34.052,2020,Nürburgring,GAS
23,7,1:33.637,2020,Nürburgring,GAS
24,7,1:33.251,2020,Nürburgring,GAS
25,7,1:33.341,2020,Nürburgring,GAS
26,7,1:33.483,2020,Nürburgring,GAS
27,7,1:33.649,2020,Nürburgring,GAS
28,8,1:35.435,2020,Nürburgring,GAS
29,7,1:35.416,2020,Nürburgring,GAS
30,8,1:37.398,2020,Nürburgring,GAS
31,12,1:54.106,2020,Nürburgring,GAS
32,12,1:31.732,2020,Nürburgring,GAS
33,12,1:31.253,2020,Nürburgring,GAS
34,11,1:31.838,2020,Nürburgring,GAS
35,11,1:31.456,2020,Nürburgring,GAS
36,11,1:34.086,2020,Nürburgring,GAS
37,10,1:32.191,2020,Nürburgring,GAS
38,9,1:32.661,2020,Nürburgring,GAS
39,9,1:31.718,2020,Nürburgring,GAS
40,8,1:31.834,2020,Nürburgring,GAS
41,8,1:31.178,2020,Nürburgring,GAS
42,8,1:31.288,2020,Nürburgring,GAS
43,7,1:31.516,2020,Nürburgring,GAS
44,7,1:52.211,2020,Nürburgring,GAS
45,8,2:16.550,2020,Nürburgring,GAS
46,8,2:19.190,2020,Nürburgring,GAS
47,8,1:35.896,2020,Nürburgring,GAS
48,8,1:33.975,2020,Nürburgring,GAS
49,8,1:57.483,2020,Nürburgring,GAS
50,7,1:32.542,2020,Nürburgring,GAS
51,6,1:30.811,2020,Nürburgring,GAS
52,6,1:30.522,2020,Nürburgring,GAS
53,6,1:30.110,2020,Nürburgring,GAS
54,6,1:30.255,2020,Nürburgring,GAS
55,6,1:30.507,2020,Nürburgring,GAS
56,6,1:30.720,2020,Nürburgring,GAS
57,6,1:30.717,2020,Nürburgring,GAS
58,6,1:30.528,2020,Nürburgring,GAS
59,6,1:30.276,2020,Nürburgring,GAS
60,6,1:30.414,2020,Nürburgring,GAS
1,14,1:44.391,2020,Nürburgring,MAG
2,13,1:36.509,2020,Nürburgring,MAG
3,13,1:35.129,2020,Nürburgring,MAG
4,13,1:34.714,2020,Nürburgring,MAG
5,13,1:34.413,2020,Nürburgring,MAG
6,13,1:34.658,2020,Nürburgring,MAG
7,13,1:34.433,2020,Nürburgring,MAG
8,12,1:34.601,2020,Nürburgring,MAG
9,12,1:34.745,2020,Nürburgring,MAG
10,12,1:34.825,2020,Nürburgring,MAG
11,11,1:36.917,2020,Nürburgring,MAG
12,11,1:34.990,2020,Nürburgring,MAG
13,13,1:36.913,2020,Nürburgring,MAG
14,14,1:37.855,2020,Nürburgring,MAG
15,18,1:58.830,2020,Nürburgring,MAG
16,18,1:48.717,2020,Nürburgring,MAG
17,17,1:34.270,2020,Nürburgring,MAG
18,17,1:33.698,2020,Nürburgring,MAG
19,16,1:33.662,2020,Nürburgring,MAG
20,16,1:33.084,2020,Nürburgring,MAG
21,16,1:32.973,2020,Nürburgring,MAG
22,16,1:32.976,2020,Nürburgring,MAG
23,15,1:32.917,2020,Nürburgring,MAG
24,14,1:32.874,2020,Nürburgring,MAG
25,14,1:32.758,2020,Nürburgring,MAG
26,14,1:32.751,2020,Nürburgring,MAG
27,14,1:33.048,2020,Nürburgring,MAG
28,14,1:34.640,2020,Nürburgring,MAG
29,13,1:33.192,2020,Nürburgring,MAG
30,12,1:35.355,2020,Nürburgring,MAG
31,11,1:32.950,2020,Nürburgring,MAG
32,11,1:32.864,2020,Nürburgring,MAG
33,11,1:33.166,2020,Nürburgring,MAG
34,14,1:38.154,2020,Nürburgring,MAG
35,14,1:53.185,2020,Nürburgring,MAG
36,14,1:30.647,2020,Nürburgring,MAG
37,14,1:30.456,2020,Nürburgring,MAG
38,14,1:30.750,2020,Nürburgring,MAG
39,14,1:30.853,2020,Nürburgring,MAG
40,14,1:31.012,2020,Nürburgring,MAG
41,14,1:31.386,2020,Nürburgring,MAG
42,13,1:31.363,2020,Nürburgring,MAG
43,12,1:31.696,2020,Nürburgring,MAG
44,12,1:58.000,2020,Nürburgring,MAG
45,11,2:01.337,2020,Nürburgring,MAG
46,11,2:13.778,2020,Nürburgring,MAG
47,11,1:38.433,2020,Nürburgring,MAG
48,11,1:36.353,2020,Nürburgring,MAG
49,11,1:49.311,2020,Nürburgring,MAG
50,11,1:34.675,2020,Nürburgring,MAG
51,11,1:32.841,2020,Nürburgring,MAG
52,11,1:32.216,2020,Nürburgring,MAG
53,11,1:32.157,2020,Nürburgring,MAG
54,11,1:32.053,2020,Nürburgring,MAG
55,13,1:34.797,2020,Nürburgring,MAG
56,13,1:33.189,2020,Nürburgring,MAG
57,13,1:32.399,2020,Nürburgring,MAG
58,13,1:33.613,2020,Nürburgring,MAG
59,13,1:32.259,2020,Nürburgring,MAG
60,13,1:32.495,2020,Nürburgring,MAG
1,15,1:44.911,2020,Nürburgring,KVY
2,15,1:37.394,2020,Nürburgring,KVY
3,15,1:35.433,2020,Nürburgring,KVY
4,15,1:34.794,2020,Nürburgring,KVY
5,15,1:34.246,2020,Nürburgring,KVY
6,15,1:34.812,2020,Nürburgring,KVY
7,15,1:34.192,2020,Nürburgring,KVY
8,14,1:34.503,2020,Nürburgring,KVY
9,14,1:34.504,2020,Nürburgring,KVY
10,14,1:34.893,2020,Nürburgring,KVY
11,12,1:36.105,2020,Nürburgring,KVY
12,12,1:34.916,2020,Nürburgring,KVY
13,11,1:34.186,2020,Nürburgring,KVY
14,11,1:34.233,2020,Nürburgring,KVY
15,10,1:35.311,2020,Nürburgring,KVY
16,13,1:55.686,2020,Nürburgring,KVY
17,19,2:02.578,2020,Nürburgring,KVY
18,19,2:07.494,2020,Nürburgring,KVY
19,18,1:33.334,2020,Nürburgring,KVY
20,18,1:32.963,2020,Nürburgring,KVY
21,18,1:33.052,2020,Nürburgring,KVY
22,18,1:32.761,2020,Nürburgring,KVY
23,17,1:32.717,2020,Nürburgring,KVY
24,16,1:32.898,2020,Nürburgring,KVY
25,16,1:32.528,2020,Nürburgring,KVY
26,16,1:32.568,2020,Nürburgring,KVY
27,16,1:32.306,2020,Nürburgring,KVY
28,16,1:32.600,2020,Nürburgring,KVY
29,16,1:32.473,2020,Nürburgring,KVY
30,16,1:32.647,2020,Nürburgring,KVY
31,16,1:32.431,2020,Nürburgring,KVY
32,16,1:32.420,2020,Nürburgring,KVY
33,16,1:32.509,2020,Nürburgring,KVY
34,16,1:33.601,2020,Nürburgring,KVY
35,16,1:33.103,2020,Nürburgring,KVY
36,16,1:32.543,2020,Nürburgring,KVY
37,16,1:32.638,2020,Nürburgring,KVY
38,16,1:32.336,2020,Nürburgring,KVY
39,16,1:32.775,2020,Nürburgring,KVY
40,16,1:32.366,2020,Nürburgring,KVY
41,16,1:32.214,2020,Nürburgring,KVY
42,16,1:32.685,2020,Nürburgring,KVY
43,15,1:33.627,2020,Nürburgring,KVY
44,15,2:04.888,2020,Nürburgring,KVY
45,15,2:13.700,2020,Nürburgring,KVY
46,15,1:43.008,2020,Nürburgring,KVY
47,15,1:37.612,2020,Nürburgring,KVY
48,15,1:36.898,2020,Nürburgring,KVY
49,15,1:44.002,2020,Nürburgring,KVY
50,15,1:35.108,2020,Nürburgring,KVY
51,15,1:33.345,2020,Nürburgring,KVY
52,15,1:32.941,2020,Nürburgring,KVY
53,15,1:33.586,2020,Nürburgring,KVY
54,15,1:32.367,2020,Nürburgring,KVY
55,15,1:33.773,2020,Nürburgring,KVY
56,15,1:32.730,2020,Nürburgring,KVY
57,15,1:34.173,2020,Nürburgring,KVY
58,15,1:32.574,2020,Nürburgring,KVY
59,15,1:32.650,2020,Nürburgring,KVY
60,15,1:33.588,2020,Nürburgring,KVY
1,16,1:45.296,2020,Nürburgring,RUS
2,16,1:37.697,2020,Nürburgring,RUS
3,16,1:35.484,2020,Nürburgring,RUS
4,16,1:35.346,2020,Nürburgring,RUS
5,16,1:34.710,2020,Nürburgring,RUS
6,16,1:34.526,2020,Nürburgring,RUS
7,16,1:34.700,2020,Nürburgring,RUS
8,15,1:34.929,2020,Nürburgring,RUS
9,15,1:34.930,2020,Nürburgring,RUS
10,15,1:35.208,2020,Nürburgring,RUS
11,17,1:39.543,2020,Nürburgring,RUS
12,18,1:55.084,2020,Nürburgring,RUS
1,17,1:46.054,2020,Nürburgring,HUL
2,17,1:37.734,2020,Nürburgring,HUL
3,17,1:35.456,2020,Nürburgring,HUL
4,17,1:35.372,2020,Nürburgring,HUL
5,17,1:34.850,2020,Nürburgring,HUL
6,17,1:34.436,2020,Nürburgring,HUL
7,17,1:34.818,2020,Nürburgring,HUL
8,16,1:34.704,2020,Nürburgring,HUL
9,16,1:35.305,2020,Nürburgring,HUL
10,16,1:35.475,2020,Nürburgring,HUL
11,13,1:35.253,2020,Nürburgring,HUL
12,13,1:33.662,2020,Nürburgring,HUL
13,14,1:35.496,2020,Nürburgring,HUL
14,13,1:34.515,2020,Nürburgring,HUL
15,12,1:33.939,2020,Nürburgring,HUL
16,11,1:51.978,2020,Nürburgring,HUL
17,11,1:34.053,2020,Nürburgring,HUL
18,10,1:34.326,2020,Nürburgring,HUL
19,10,1:33.788,2020,Nürburgring,HUL
20,11,1:34.594,2020,Nürburgring,HUL
21,11,1:33.708,2020,Nürburgring,HUL
22,11,1:33.853,2020,Nürburgring,HUL
23,10,1:33.604,2020,Nürburgring,HUL
24,9,1:33.146,2020,Nürburgring,HUL
25,9,1:33.523,2020,Nürburgring,HUL
26,9,1:33.735,2020,Nürburgring,HUL
27,9,1:33.711,2020,Nürburgring,HUL
28,9,1:33.618,2020,Nürburgring,HUL
29,9,1:36.925,2020,Nürburgring,HUL
30,14,1:52.649,2020,Nürburgring,HUL
31,14,1:34.062,2020,Nürburgring,HUL
32,13,1:31.193,2020,Nürburgring,HUL
33,13,1:32.277,2020,Nürburgring,HUL
34,12,1:31.829,2020,Nürburgring,HUL
35,12,1:32.130,2020,Nürburgring,HUL
36,12,1:32.566,2020,Nürburgring,HUL
37,11,1:32.396,2020,Nürburgring,HUL
38,11,1:32.586,2020,Nürburgring,HUL
39,10,1:32.222,2020,Nürburgring,HUL
40,10,1:32.771,2020,Nürburgring,HUL
41,9,1:31.717,2020,Nürburgring,HUL
52,14,1:32.680,2020,Nürburgring,RAI
53,13,1:32.551,2020,Nürburgring,RAI
54,13,1:30.512,2020,Nürburgring,RAI
55,12,1:31.820,2020,Nürburgring,RAI
56,12,1:30.975,2020,Nürburgring,RAI
57,12,1:31.446,2020,Nürburgring,RAI
58,12,1:31.227,2020,Nürburgring,RAI
59,12,1:31.399,2020,Nürburgring,RAI
60,12,1:32.120,2020,Nürburgring,RAI
1,20,1:47.376,2020,Nürburgring,GRO
2,20,1:37.975,2020,Nürburgring,GRO
3,20,1:36.013,2020,Nürburgring,GRO
4,20,1:35.525,2020,Nürburgring,GRO
5,20,1:34.634,2020,Nürburgring,GRO
6,20,1:34.942,2020,Nürburgring,GRO
7,20,1:35.238,2020,Nürburgring,GRO
8,19,1:35.150,2020,Nürburgring,GRO
9,19,1:35.024,2020,Nürburgring,GRO
10,18,1:35.839,2020,Nürburgring,GRO
11,18,1:35.085,2020,Nürburgring,GRO
12,16,1:34.104,2020,Nürburgring,GRO
13,17,1:35.132,2020,Nürburgring,GRO
14,16,1:35.369,2020,Nürburgring,GRO
15,15,1:34.134,2020,Nürburgring,GRO
16,14,1:51.896,2020,Nürburgring,GRO
17,13,1:35.123,2020,Nürburgring,GRO
18,13,1:34.226,2020,Nürburgring,GRO
19,12,1:33.603,2020,Nürburgring,GRO
20,12,1:33.528,2020,Nürburgring,GRO
21,12,1:33.455,2020,Nürburgring,GRO
22,12,1:33.624,2020,Nürburgring,GRO
23,11,1:33.644,2020,Nürburgring,GRO
24,10,1:33.316,2020,Nürburgring,GRO
25,10,1:33.452,2020,Nürburgring,GRO
26,10,1:33.871,2020,Nürburgring,GRO
27,10,1:33.692,2020,Nürburgring,GRO
28,11,1:37.233,2020,Nürburgring,GRO
29,15,1:54.152,2020,Nürburgring,GRO
30,15,1:31.569,2020,Nürburgring,GRO
31,15,1:31.837,2020,Nürburgring,GRO
32,15,1:32.694,2020,Nürburgring,GRO
33,14,1:32.028,2020,Nürburgring,GRO
34,13,1:31.998,2020,Nürburgring,GRO
35,13,1:32.215,2020,Nürburgring,GRO
36,13,1:32.814,2020,Nürburgring,GRO
37,12,1:32.082,2020,Nürburgring,GRO
38,12,1:32.642,2020,Nürburgring,GRO
39,12,1:32.594,2020,Nürburgring,GRO
40,12,1:32.373,2020,Nürburgring,GRO
41,11,1:32.842,2020,Nürburgring,GRO
42,11,1:33.277,2020,Nürburgring,GRO
43,10,1:32.547,2020,Nürburgring,GRO
44,10,1:55.473,2020,Nürburgring,GRO
45,7,2:01.416,2020,Nürburgring,GRO
46,7,2:19.735,2020,Nürburgring,GRO
47,7,1:35.653,2020,Nürburgring,GRO
48,7,1:33.728,2020,Nürburgring,GRO
49,7,1:59.014,2020,Nürburgring,GRO
50,9,1:34.750,2020,Nürburgring,GRO
51,9,1:32.794,2020,Nürburgring,GRO
52,9,1:31.832,2020,Nürburgring,GRO
53,9,1:32.134,2020,Nürburgring,GRO
54,9,1:31.562,2020,Nürburgring,GRO
55,9,1:31.680,2020,Nürburgring,GRO
56,9,1:31.715,2020,Nürburgring,GRO
57,9,1:31.991,2020,Nürburgring,GRO
58,9,1:31.618,2020,Nürburgring,GRO
59,9,1:31.664,2020,Nürburgring,GRO
60,9,1:32.096,2020,Nürburgring,GRO
42,9,1:31.929,2020,Nürburgring,HUL
43,8,1:31.599,2020,Nürburgring,HUL
44,8,1:52.748,2020,Nürburgring,HUL
45,9,2:14.744,2020,Nürburgring,HUL
46,9,2:17.412,2020,Nürburgring,HUL
47,9,1:36.022,2020,Nürburgring,HUL
48,9,1:33.815,2020,Nürburgring,HUL
49,9,1:56.933,2020,Nürburgring,HUL
50,8,1:33.063,2020,Nürburgring,HUL
51,8,1:32.213,2020,Nürburgring,HUL
52,8,1:31.229,2020,Nürburgring,HUL
53,8,1:31.179,2020,Nürburgring,HUL
54,8,1:31.341,2020,Nürburgring,HUL
55,8,1:31.427,2020,Nürburgring,HUL
56,8,1:31.178,2020,Nürburgring,HUL
57,8,1:31.196,2020,Nürburgring,HUL
58,8,1:30.733,2020,Nürburgring,HUL
59,8,1:31.052,2020,Nürburgring,HUL
60,8,1:32.395,2020,Nürburgring,HUL
1,18,1:46.420,2020,Nürburgring,LAT
2,18,1:37.865,2020,Nürburgring,LAT
3,18,1:35.515,2020,Nürburgring,LAT
4,18,1:35.425,2020,Nürburgring,LAT
5,18,1:35.146,2020,Nürburgring,LAT
6,18,1:34.955,2020,Nürburgring,LAT
7,18,1:34.843,2020,Nürburgring,LAT
8,17,1:34.547,2020,Nürburgring,LAT
9,17,1:36.177,2020,Nürburgring,LAT
10,17,1:34.892,2020,Nürburgring,LAT
11,14,1:34.814,2020,Nürburgring,LAT
12,15,1:35.209,2020,Nürburgring,LAT
13,15,1:34.932,2020,Nürburgring,LAT
14,17,1:37.743,2020,Nürburgring,LAT
15,19,2:00.676,2020,Nürburgring,LAT
16,19,1:46.150,2020,Nürburgring,LAT
17,18,1:33.783,2020,Nürburgring,LAT
18,18,1:33.023,2020,Nürburgring,LAT
19,17,1:33.393,2020,Nürburgring,LAT
20,17,1:33.111,2020,Nürburgring,LAT
21,17,1:33.317,2020,Nürburgring,LAT
22,17,1:33.122,2020,Nürburgring,LAT
23,16,1:32.881,2020,Nürburgring,LAT
24,15,1:32.899,2020,Nürburgring,LAT
25,15,1:32.910,2020,Nürburgring,LAT
26,15,1:33.016,2020,Nürburgring,LAT
27,15,1:34.743,2020,Nürburgring,LAT
28,15,1:34.854,2020,Nürburgring,LAT
29,14,1:33.386,2020,Nürburgring,LAT
30,13,1:33.516,2020,Nürburgring,LAT
31,13,1:34.747,2020,Nürburgring,LAT
32,14,1:34.049,2020,Nürburgring,LAT
33,15,1:37.380,2020,Nürburgring,LAT
34,15,1:52.187,2020,Nürburgring,LAT
35,15,1:31.494,2020,Nürburgring,LAT
36,15,1:31.491,2020,Nürburgring,LAT
37,15,1:31.520,2020,Nürburgring,LAT
38,15,1:31.544,2020,Nürburgring,LAT
39,15,1:31.377,2020,Nürburgring,LAT
40,15,1:31.535,2020,Nürburgring,LAT
41,15,1:31.382,2020,Nürburgring,LAT
42,14,1:32.013,2020,Nürburgring,LAT
43,13,1:31.978,2020,Nürburgring,LAT
44,13,2:00.361,2020,Nürburgring,LAT
45,12,2:00.810,2020,Nürburgring,LAT
46,12,2:06.145,2020,Nürburgring,LAT
47,12,1:39.387,2020,Nürburgring,LAT
48,12,1:36.801,2020,Nürburgring,LAT
49,12,1:47.415,2020,Nürburgring,LAT
50,12,1:35.146,2020,Nürburgring,LAT
51,12,1:33.178,2020,Nürburgring,LAT
52,12,1:32.999,2020,Nürburgring,LAT
53,14,1:34.529,2020,Nürburgring,LAT
54,14,1:32.395,2020,Nürburgring,LAT
55,14,1:33.837,2020,Nürburgring,LAT
56,14,1:32.785,2020,Nürburgring,LAT
57,14,1:34.099,2020,Nürburgring,LAT
58,14,1:32.519,2020,Nürburgring,LAT
59,14,1:32.799,2020,Nürburgring,LAT
60,14,1:32.925,2020,Nürburgring,LAT
1,19,1:46.800,2020,Nürburgring,RAI
2,19,1:37.937,2020,Nürburgring,RAI
3,19,1:35.941,2020,Nürburgring,RAI
4,19,1:35.305,2020,Nürburgring,RAI
5,19,1:34.833,2020,Nürburgring,RAI
6,19,1:35.194,2020,Nürburgring,RAI
7,19,1:35.028,2020,Nürburgring,RAI
8,18,1:34.772,2020,Nürburgring,RAI
9,18,1:35.761,2020,Nürburgring,RAI
10,20,1:38.377,2020,Nürburgring,RAI
11,20,1:52.935,2020,Nürburgring,RAI
12,20,1:34.996,2020,Nürburgring,RAI
13,19,1:33.641,2020,Nürburgring,RAI
14,19,1:32.161,2020,Nürburgring,RAI
15,17,1:37.170,2020,Nürburgring,RAI
16,17,1:46.671,2020,Nürburgring,RAI
17,16,1:36.215,2020,Nürburgring,RAI
18,16,1:32.910,2020,Nürburgring,RAI
19,15,1:32.648,2020,Nürburgring,RAI
20,15,1:32.768,2020,Nürburgring,RAI
21,15,1:32.863,2020,Nürburgring,RAI
22,15,1:32.651,2020,Nürburgring,RAI
23,14,1:32.646,2020,Nürburgring,RAI
24,13,1:32.587,2020,Nürburgring,RAI
25,13,1:32.726,2020,Nürburgring,RAI
26,13,1:32.861,2020,Nürburgring,RAI
27,13,1:32.972,2020,Nürburgring,RAI
28,13,1:33.117,2020,Nürburgring,RAI
29,12,1:33.125,2020,Nürburgring,RAI
30,11,1:33.426,2020,Nürburgring,RAI
31,10,1:34.778,2020,Nürburgring,RAI
32,10,1:33.119,2020,Nürburgring,RAI
33,10,1:34.697,2020,Nürburgring,RAI
34,10,1:33.948,2020,Nürburgring,RAI
35,10,1:33.886,2020,Nürburgring,RAI
36,8,1:33.161,2020,Nürburgring,RAI
37,8,1:32.994,2020,Nürburgring,RAI
38,10,1:35.460,2020,Nürburgring,RAI
39,11,1:34.516,2020,Nürburgring,RAI
40,11,1:32.814,2020,Nürburgring,RAI
41,10,1:32.879,2020,Nürburgring,RAI
42,10,1:32.783,2020,Nürburgring,RAI
43,9,1:32.878,2020,Nürburgring,RAI
44,9,1:55.870,2020,Nürburgring,RAI
45,14,2:27.196,2020,Nürburgring,RAI
46,14,2:05.724,2020,Nürburgring,RAI
47,14,1:38.507,2020,Nürburgring,RAI
48,14,1:36.813,2020,Nürburgring,RAI
49,14,1:44.638,2020,Nürburgring,RAI
50,14,1:35.315,2020,Nürburgring,RAI